数字逻辑全套/实验/210710_43/Experiment3/exp3_project1/QSW/counter_top/simulation/qsim/counter_top.msim.vcd
$comment
	File created using the following command:
		vcd file counter_top.msim.vcd -direction
$end
$date
	Fri Nov 04 13:56:49 2022
$end
$version
	ModelSim Version 10.1d
$end
$timescale
	1ps
$end
$scope module counter_top_vlg_vec_tst $end
$var reg 1 ! clk $end
$var reg 1 " clrn $end
$var reg 4 # data_in [3:0] $end
$var reg 1 $ enp $end
$var reg 1 % ent $end
$var reg 1 & ldn $end
$var reg 1 ' n_en $end
$var wire 1 ( a $end
$var wire 1 ) b $end
$var wire 1 * c $end
$var wire 1 + d $end
$var wire 1 , e $end
$var wire 1 - f $end
$var wire 1 . g $end
$var wire 1 / rco $end
$var wire 1 0 sel $end
$var wire 1 1 sampler $end
$scope module i1 $end
$var wire 1 2 gnd $end
$var wire 1 3 vcc $end
$var wire 1 4 unknown $end
$var tri1 1 5 devclrn $end
$var tri1 1 6 devpor $end
$var tri1 1 7 devoe $end
$var wire 1 8 clk~input_o $end
$var wire 1 9 enp~input_o $end
$var wire 1 : data_in[0]~input_o $end
$var wire 1 ; rco~output_o $end
$var wire 1 < a~output_o $end
$var wire 1 = b~output_o $end
$var wire 1 > c~output_o $end
$var wire 1 ? d~output_o $end
$var wire 1 @ e~output_o $end
$var wire 1 A f~output_o $end
$var wire 1 B g~output_o $end
$var wire 1 C sel~output_o $end
$var wire 1 D data_in[3]~input_o $end
$var wire 1 E clrn~input_o $end
$var wire 1 F data_in[1]~input_o $end
$var wire 1 G ldn~input_o $end
$var wire 1 H comb_3|q_out~2_combout $end
$var wire 1 I ent~input_o $end
$var wire 1 J comb_3|q_out[3]~1_combout $end
$var wire 1 K comb_3|q_out~3_combout $end
$var wire 1 L comb_3|q_out~4_combout $end
$var wire 1 M data_in[2]~input_o $end
$var wire 1 N comb_3|q_out~5_combout $end
$var wire 1 O comb_3|q_out~6_combout $end
$var wire 1 P comb_3|Add0~0_combout $end
$var wire 1 Q comb_3|q_out~0_combout $end
$var wire 1 R comb_3|rco~0_combout $end
$var wire 1 S comb_3|rco~1_combout $end
$var wire 1 T n_en~input_o $end
$var wire 1 U comb_4|WideOr0~0_combout $end
$var wire 1 V comb_4|out[6]~0_combout $end
$var wire 1 W comb_4|WideOr1~0_combout $end
$var wire 1 X comb_4|out[5]~1_combout $end
$var wire 1 Y comb_4|WideOr2~0_combout $end
$var wire 1 Z comb_4|out[4]~2_combout $end
$var wire 1 [ comb_4|WideOr3~0_combout $end
$var wire 1 \ comb_4|out[3]~3_combout $end
$var wire 1 ] comb_4|WideOr4~0_combout $end
$var wire 1 ^ comb_4|out[2]~4_combout $end
$var wire 1 _ comb_4|WideOr5~0_combout $end
$var wire 1 ` comb_4|out[1]~5_combout $end
$var wire 1 a comb_4|WideOr6~0_combout $end
$var wire 1 b comb_4|out[0]~6_combout $end
$var wire 1 c comb_3|q_out [3] $end
$var wire 1 d comb_3|q_out [2] $end
$var wire 1 e comb_3|q_out [1] $end
$var wire 1 f comb_3|q_out [0] $end
$upscope $end
$upscope $end
$enddefinitions $end
#0
$dumpvars
0!
0"
b0 #
1$
1%
1&
0'
1(
1)
1*
1+
1,
1-
0.
0/
00
x1
02
13
x4
15
16
17
08
19
0:
0;
1<
1=
1>
1?
1@
1A
0B
0C
0D
0E
0F
1G
0H
1I
1J
0K
0L
0M
0N
0O
0P
0Q
0R
0S
0T
0U
0V
0W
0X
0Y
0Z
0[
0\
0]
0^
0_
0`
0a
0b
0f
0e
0d
0c
$end
#5000
1!
18
01
#10000
b1 #
0!
1:
08
11
#15000
1!
18
01
#20000
b11 #
1"
b10 #
0!
0:
1F
1E
08
11
1H
#25000
1!
18
01
1f
1_
1]
1[
1U
1R
1K
0H
1`
1^
1\
1V
1L
0A
0@
0?
0<
0-
0,
0+
0(
#30000
0&
b11 #
0!
0G
1:
08
11
0K
1H
#35000
1!
18
01
1e
1a
0[
0U
1N
0\
0V
1b
1?
1<
1B
1+
1(
1.
#40000
b111 #
b101 #
1&
b100 #
0!
0:
0F
1M
1G
08
11
0H
0L
1O
#45000
1!
18
01
1d
0e
0f
0_
1[
1U
1H
0`
1\
1V
1A
0?
0<
1-
0+
0(
#50000
b101 #
0!
1:
08
11
#55000
1!
18
01
1f
0[
1W
0U
1K
0H
0\
1X
0V
1L
1?
0=
1<
1+
0)
1(
#60000
b111 #
b110 #
0!
0:
1F
08
11
#65000
1!
18
01
1e
0f
0]
1H
0^
1@
1,
#70000
0%
b111 #
0!
0I
1:
08
11
0R
0J
#75000
1!
18
01
#80000
b1111 #
b1011 #
b1001 #
1%
b1000 #
0!
0:
0F
0M
1D
1I
08
11
1R
1J
#85000
1!
18
01
1f
0a
1_
1]
1[
0W
1P
0N
0K
0H
1`
1^
1\
0X
1Q
0O
0L
0b
0A
0@
0?
1=
0B
0-
0,
0+
1)
0.
#90000
0$
b1001 #
0!
09
1:
08
11
0J
#95000
1!
18
01
#100000
b1011 #
1$
b1010 #
0!
0:
1F
19
08
11
1J
#105000
1!
18
01
1c
0d
0e
0f
1a
0_
0]
0[
0R
1H
1S
0`
0^
0\
1;
1/
1b
0S
1A
1@
1?
1B
0;
1-
1,
1+
1.
0/
#110000
b1011 #
0!
1:
08
11
#115000
1!
18
01
1f
1]
1R
1K
0H
1^
1L
1S
0@
1;
0,
1/
#120000
b1111 #
b1101 #
b1100 #
0!
0:
0F
1M
08
11
#125000
1!
18
01
1e
0f
0a
1_
1[
1Y
1W
1U
1H
1`
1\
1Z
1X
1V
0b
0A
0?
0>
0=
0<
0B
0-
0+
0*
0)
0(
0.
#130000
b1101 #
0!
1:
08
11
#135000
1!
18
01
1f
1N
0K
0H
1O
0L
#140000
b1111 #
b1110 #
0!
0:
1F
08
11
#145000
1!
18
01
1d
0e
0f
1H
#150000
b1111 #
0!
1:
08
11
#155000
1!
18
01
1f
1K
0H
1L
#160000
1'
b111 #
b11 #
b1 #
b0 #
0!
1T
0:
0F
0M
0D
08
11
#165000
1!
18
01
1e
0f
1H
#170000
b1 #
0!
1:
08
11
#175000
1!
18
01
1f
0P
0N
0K
0H
0Q
0O
0L
#180000
b11 #
b10 #
0!
0:
1F
08
11
#185000
1!
18
01
0c
0d
0e
0f
0_
0]
0[
0Y
0W
0U
0R
1H
0S
0;
0/
#190000
b11 #
0!
1:
08
11
#195000
1!
18
01
1f
1_
1]
1[
1U
1R
1K
0H
1L
#200000
b111 #
b101 #
b100 #
0!
0:
0F
1M
08
11
#205000
1!
18
01
1e
0f
1a
0]
0[
1Y
0U
1H
#210000
b101 #
0!
1:
08
11
#215000
1!
18
01
1f
1]
0Y
1N
0K
0H
1O
0L
#220000
b111 #
b110 #
0!
0:
1F
08
11
#225000
1!
18
01
1d
0e
0f
0_
1[
1U
1H
#230000
b111 #
0!
1:
08
11
#235000
1!
18
01
1f
0[
1W
0U
1K
0H
1L
#240000
b1111 #
b1011 #
b1001 #
b1000 #
0!
0:
0F
0M
1D
08
11
#245000
1!
18
01
1e
0f
0]
1H
#250000
b1001 #
0!
1:
08
11
#255000
1!
18
01
1f
0a
1_
1]
1[
0W
1P
0N
0K
0H
1Q
0O
0L
#260000
b1011 #
b1010 #
0!
0:
1F
08
11
#265000
1!
18
01
1c
0d
0e
0f
1a
0_
0]
0[
0R
1H
1S
1;
1/
0S
0;
0/
#270000
b1011 #
0!
1:
08
11
#275000
1!
18
01
1f
1]
1R
1K
0H
1L
1S
1;
1/
#280000
b1111 #
b1101 #
b1100 #
0!
0:
0F
1M
08
11
#285000
1!
18
01
1e
0f
0a
1_
1[
1Y
1W
1U
1H
#290000
b1101 #
0!
1:
08
11
#295000
1!
18
01
1f
1N
0K
0H
1O
0L
#300000
b1111 #
b1110 #
0!
0:
1F
08
11
#305000
1!
18
01
1d
0e
0f
1H
#310000
b1111 #
0!
1:
08
11
#315000
1!
18
01
1f
1K
0H
1L
#320000
0'
b111 #
b11 #
b1 #
b0 #
0!
0T
0:
0F
0M
0D
08
11
#325000
1!
18
01
1e
0f
1H
#330000
b1 #
0!
1:
08
11
#335000
1!
18
01
1f
0P
0N
0K
0H
0Q
0O
0L
#340000
b11 #
b10 #
0!
0:
1F
08
11
#345000
1!
18
01
0c
0d
0e
0f
0_
0]
0[
0Y
0W
0U
0R
1H
0S
0`
0^
0\
0Z
0X
0V
0;
0/
1A
1@
1?
1>
1=
1<
1-
1,
1+
1*
1)
1(
#350000
b11 #
0!
1:
08
11
#355000
1!
18
01
1f
1_
1]
1[
1U
1R
1K
0H
1`
1^
1\
1V
1L
0A
0@
0?
0<
0-
0,
0+
0(
#360000
b111 #
b101 #
b100 #
0!
0:
0F
1M
08
11
#365000
1!
18
01
1e
0f
1a
0]
0[
1Y
0U
1H
0^
0\
1Z
0V
1b
1@
1?
0>
1<
1B
1,
1+
0*
1(
1.
#370000
b101 #
0!
1:
08
11
#375000
1!
18
01
1f
1]
0Y
1N
0K
0H
1^
0Z
1O
0L
0@
1>
0,
1*
#380000
b111 #
b110 #
0!
0:
1F
08
11
#385000
1!
18
01
1d
0e
0f
0_
1[
1U
1H
0`
1\
1V
1A
0?
0<
1-
0+
0(
#390000
b111 #
0!
1:
08
11
#395000
1!
18
01
1f
0[
1W
0U
1K
0H
0\
1X
0V
1L
1?
0=
1<
1+
0)
1(
#400000
b1111 #
b1011 #
b1001 #
b1000 #
0!
0:
0F
0M
1D
08
11
#405000
1!
18
01
1e
0f
0]
1H
0^
1@
1,
#410000
b1001 #
0!
1:
08
11
#415000
1!
18
01
1f
0a
1_
1]
1[
0W
1P
0N
0K
0H
1`
1^
1\
0X
1Q
0O
0L
0b
0A
0@
0?
1=
0B
0-
0,
0+
1)
0.
#420000
b1011 #
b1010 #
0!
0:
1F
08
11
#425000
1!
18
01
1c
0d
0e
0f
1a
0_
0]
0[
0R
1H
1S
0`
0^
0\
1;
1/
1b
0S
1A
1@
1?
1B
0;
1-
1,
1+
1.
0/
#430000
b1011 #
0!
1:
08
11
#435000
1!
18
01
1f
1]
1R
1K
0H
1^
1L
1S
0@
1;
0,
1/
#440000
b1111 #
b1101 #
b1100 #
0!
0:
0F
1M
08
11
#445000
1!
18
01
1e
0f
0a
1_
1[
1Y
1W
1U
1H
1`
1\
1Z
1X
1V
0b
0A
0?
0>
0=
0<
0B
0-
0+
0*
0)
0(
0.
#450000
b1101 #
0!
1:
08
11
#455000
1!
18
01
1f
1N
0K
0H
1O
0L
#460000
b1111 #
b1110 #
0!
0:
1F
08
11
#465000
1!
18
01
1d
0e
0f
1H
#470000
b1111 #
0!
1:
08
11
#475000
1!
18
01
1f
1K
0H
1L
#480000
1'
b111 #
b11 #
b1 #
b0 #
0!
1T
0:
0F
0M
0D
08
11
#485000
1!
18
01
1e
0f
1H
#490000
b1 #
0!
1:
08
11
#495000
1!
18
01
1f
0P
0N
0K
0H
0Q
0O
0L
#500000
b11 #
b10 #
0!
0:
1F
08
11
#505000
1!
18
01
0c
0d
0e
0f
0_
0]
0[
0Y
0W
0U
0R
1H
0S
0;
0/
#510000
b11 #
0!
1:
08
11
#515000
1!
18
01
1f
1_
1]
1[
1U
1R
1K
0H
1L
#520000
b111 #
b101 #
b100 #
0!
0:
0F
1M
08
11
#525000
1!
18
01
1e
0f
1a
0]
0[
1Y
0U
1H
#530000
b101 #
0!
1:
08
11
#535000
1!
18
01
1f
1]
0Y
1N
0K
0H
1O
0L
#540000
b111 #
b110 #
0!
0:
1F
08
11
#545000
1!
18
01
1d
0e
0f
0_
1[
1U
1H
#550000
b111 #
0!
1:
08
11
#555000
1!
18
01
1f
0[
1W
0U
1K
0H
1L
#560000
b1111 #
b1011 #
b1001 #
b1000 #
0!
0:
0F
0M
1D
08
11
#565000
1!
18
01
1e
0f
0]
1H
#570000
b1001 #
0!
1:
08
11
#575000
1!
18
01
1f
0a
1_
1]
1[
0W
1P
0N
0K
0H
1Q
0O
0L
#580000
b1011 #
b1010 #
0!
0:
1F
08
11
#585000
1!
18
01
1c
0d
0e
0f
1a
0_
0]
0[
0R
1H
1S
1;
1/
0S
0;
0/
#590000
b1011 #
0!
1:
08
11
#595000
1!
18
01
1f
1]
1R
1K
0H
1L
1S
1;
1/
#600000
b1111 #
b1101 #
b1100 #
0!
0:
0F
1M
08
11
#605000
1!
18
01
1e
0f
0a
1_
1[
1Y
1W
1U
1H
#610000
b1101 #
0!
1:
08
11
#615000
1!
18
01
1f
1N
0K
0H
1O
0L
#620000
b1111 #
b1110 #
0!
0:
1F
08
11
#625000
1!
18
01
1d
0e
0f
1H
#630000
b1111 #
0!
1:
08
11
#635000
1!
18
01
1f
1K
0H
1L
#640000
0'
b111 #
b11 #
b1 #
b0 #
0!
0T
0:
0F
0M
0D
08
11
#645000
1!
18
01
1e
0f
1H
#650000
b1 #
0!
1:
08
11
#655000
1!
18
01
1f
0P
0N
0K
0H
0Q
0O
0L
#660000
b11 #
b10 #
0!
0:
1F
08
11
#665000
1!
18
01
0c
0d
0e
0f
0_
0]
0[
0Y
0W
0U
0R
1H
0S
0`
0^
0\
0Z
0X
0V
0;
0/
1A
1@
1?
1>
1=
1<
1-
1,
1+
1*
1)
1(
#670000
b11 #
0!
1:
08
11
#675000
1!
18
01
1f
1_
1]
1[
1U
1R
1K
0H
1`
1^
1\
1V
1L
0A
0@
0?
0<
0-
0,
0+
0(
#680000
b111 #
b101 #
b100 #
0!
0:
0F
1M
08
11
#685000
1!
18
01
1e
0f
1a
0]
0[
1Y
0U
1H
0^
0\
1Z
0V
1b
1@
1?
0>
1<
1B
1,
1+
0*
1(
1.
#690000
b101 #
0!
1:
08
11
#695000
1!
18
01
1f
1]
0Y
1N
0K
0H
1^
0Z
1O
0L
0@
1>
0,
1*
#700000
b111 #
b110 #
0!
0:
1F
08
11
#705000
1!
18
01
1d
0e
0f
0_
1[
1U
1H
0`
1\
1V
1A
0?
0<
1-
0+
0(
#710000
b111 #
0!
1:
08
11
#715000
1!
18
01
1f
0[
1W
0U
1K
0H
0\
1X
0V
1L
1?
0=
1<
1+
0)
1(
#720000
b1111 #
b1011 #
b1001 #
b1000 #
0!
0:
0F
0M
1D
08
11
#725000
1!
18
01
1e
0f
0]
1H
0^
1@
1,
#730000
b1001 #
0!
1:
08
11
#735000
1!
18
01
1f
0a
1_
1]
1[
0W
1P
0N
0K
0H
1`
1^
1\
0X
1Q
0O
0L
0b
0A
0@
0?
1=
0B
0-
0,
0+
1)
0.
#740000
b1011 #
b1010 #
0!
0:
1F
08
11
#745000
1!
18
01
1c
0d
0e
0f
1a
0_
0]
0[
0R
1H
1S
0`
0^
0\
1;
1/
1b
0S
1A
1@
1?
1B
0;
1-
1,
1+
1.
0/
#750000
b1011 #
0!
1:
08
11
#755000
1!
18
01
1f
1]
1R
1K
0H
1^
1L
1S
0@
1;
0,
1/
#760000
b1111 #
b1101 #
b1100 #
0!
0:
0F
1M
08
11
#765000
1!
18
01
1e
0f
0a
1_
1[
1Y
1W
1U
1H
1`
1\
1Z
1X
1V
0b
0A
0?
0>
0=
0<
0B
0-
0+
0*
0)
0(
0.
#770000
b1101 #
0!
1:
08
11
#775000
1!
18
01
1f
1N
0K
0H
1O
0L
#780000
b1111 #
b1110 #
0!
0:
1F
08
11
#785000
1!
18
01
1d
0e
0f
1H
#790000
b1111 #
0!
1:
08
11
#795000
1!
18
01
1f
1K
0H
1L
#800000
1'
b111 #
b11 #
b1 #
b0 #
0!
1T
0:
0F
0M
0D
08
11
#805000
1!
18
01
1e
0f
1H
#810000
b1 #
0!
1:
08
11
#815000
1!
18
01
1f
0P
0N
0K
0H
0Q
0O
0L
#820000
b11 #
b10 #
0!
0:
1F
08
11
#825000
1!
18
01
0c
0d
0e
0f
0_
0]
0[
0Y
0W
0U
0R
1H
0S
0;
0/
#830000
b11 #
0!
1:
08
11
#835000
1!
18
01
1f
1_
1]
1[
1U
1R
1K
0H
1L
#840000
b111 #
b101 #
b100 #
0!
0:
0F
1M
08
11
#845000
1!
18
01
1e
0f
1a
0]
0[
1Y
0U
1H
#850000
b101 #
0!
1:
08
11
#855000
1!
18
01
1f
1]
0Y
1N
0K
0H
1O
0L
#860000
b111 #
b110 #
0!
0:
1F
08
11
#865000
1!
18
01
1d
0e
0f
0_
1[
1U
1H
#870000
b111 #
0!
1:
08
11
#875000
1!
18
01
1f
0[
1W
0U
1K
0H
1L
#880000
b1111 #
b1011 #
b1001 #
b1000 #
0!
0:
0F
0M
1D
08
11
#885000
1!
18
01
1e
0f
0]
1H
#890000
b1001 #
0!
1:
08
11
#895000
1!
18
01
1f
0a
1_
1]
1[
0W
1P
0N
0K
0H
1Q
0O
0L
#900000
b1011 #
b1010 #
0!
0:
1F
08
11
#905000
1!
18
01
1c
0d
0e
0f
1a
0_
0]
0[
0R
1H
1S
1;
1/
0S
0;
0/
#910000
b1011 #
0!
1:
08
11
#915000
1!
18
01
1f
1]
1R
1K
0H
1L
1S
1;
1/
#920000
b1111 #
b1101 #
b1100 #
0!
0:
0F
1M
08
11
#925000
1!
18
01
1e
0f
0a
1_
1[
1Y
1W
1U
1H
#930000
b1101 #
0!
1:
08
11
#935000
1!
18
01
1f
1N
0K
0H
1O
0L
#940000
b1111 #
b1110 #
0!
0:
1F
08
11
#945000
1!
18
01
1d
0e
0f
1H
#950000
b1111 #
0!
1:
08
11
#955000
1!
18
01
1f
1K
0H
1L
#960000
0'
b111 #
b11 #
b1 #
b0 #
0!
0T
0:
0F
0M
0D
08
11
#965000
1!
18
01
1e
0f
1H
#970000
b1 #
0!
1:
08
11
#975000
1!
18
01
1f
0P
0N
0K
0H
0Q
0O
0L
#980000
b11 #
b10 #
0!
0:
1F
08
11
#985000
1!
18
01
0c
0d
0e
0f
0_
0]
0[
0Y
0W
0U
0R
1H
0S
0`
0^
0\
0Z
0X
0V
0;
0/
1A
1@
1?
1>
1=
1<
1-
1,
1+
1*
1)
1(
#990000
b11 #
0!
1:
08
11
#995000
1!
18
01
1f
1_
1]
1[
1U
1R
1K
0H
1`
1^
1\
1V
1L
0A
0@
0?
0<
0-
0,
0+
0(
