数字逻辑全套/实验/210710_43/Experiment3/exp3_project1/QSW/led/simulation/qsim/led.msim.vcd
$comment
	File created using the following command:
		vcd file led.msim.vcd -direction
$end
$date
	Thu Nov 03 18:52:48 2022
$end
$version
	ModelSim Version 10.1d
$end
$timescale
	1ps
$end
$scope module led_vlg_vec_tst $end
$var reg 4 ! in [3:0] $end
$var reg 1 " n_en $end
$var wire 1 # out [6] $end
$var wire 1 $ out [5] $end
$var wire 1 % out [4] $end
$var wire 1 & out [3] $end
$var wire 1 ' out [2] $end
$var wire 1 ( out [1] $end
$var wire 1 ) out [0] $end
$var wire 1 * sel $end
$var wire 1 + sampler $end
$scope module i1 $end
$var wire 1 , gnd $end
$var wire 1 - vcc $end
$var wire 1 . unknown $end
$var tri1 1 / devclrn $end
$var tri1 1 0 devpor $end
$var tri1 1 1 devoe $end
$var wire 1 2 in[3]~input_o $end
$var wire 1 3 out[0]~output_o $end
$var wire 1 4 out[1]~output_o $end
$var wire 1 5 out[2]~output_o $end
$var wire 1 6 out[3]~output_o $end
$var wire 1 7 out[4]~output_o $end
$var wire 1 8 out[5]~output_o $end
$var wire 1 9 out[6]~output_o $end
$var wire 1 : sel~output_o $end
$var wire 1 ; n_en~input_o $end
$var wire 1 < in[1]~input_o $end
$var wire 1 = in[0]~input_o $end
$var wire 1 > in[2]~input_o $end
$var wire 1 ? WideOr6~0_combout $end
$var wire 1 @ out~0_combout $end
$var wire 1 A WideOr5~0_combout $end
$var wire 1 B out~1_combout $end
$var wire 1 C WideOr4~0_combout $end
$var wire 1 D out~2_combout $end
$var wire 1 E WideOr3~0_combout $end
$var wire 1 F out~3_combout $end
$var wire 1 G WideOr2~0_combout $end
$var wire 1 H out~4_combout $end
$var wire 1 I WideOr1~0_combout $end
$var wire 1 J out~5_combout $end
$var wire 1 K WideOr0~0_combout $end
$var wire 1 L out~6_combout $end
$upscope $end
$upscope $end
$enddefinitions $end
#0
$dumpvars
b0 !
0"
0)
1(
1'
1&
1%
1$
1#
0*
x+
0,
1-
x.
1/
10
11
02
03
14
15
16
17
18
19
0:
0;
0<
0=
0>
0?
0@
0A
0B
0C
0D
0E
0F
0G
0H
0I
0J
0K
0L
$end
#10000
b1 !
1=
0+
1K
1E
1C
1A
1L
1F
1D
1B
09
06
05
04
0#
0&
0'
0(
#20000
b11 !
b10 !
0=
1<
1+
0K
1G
0E
0C
1?
0L
1H
0F
0D
1@
19
07
16
15
13
1#
0%
1&
1'
1)
#30000
b11 !
1=
0+
0G
1C
0H
1D
17
05
1%
0'
#40000
b111 !
b101 !
b100 !
0=
0<
1>
1+
1K
1E
0A
1L
1F
0B
09
06
14
0#
0&
1(
#50000
b101 !
1=
0+
0K
1I
0E
0L
1J
0F
19
08
16
1#
0$
1&
#60000
b111 !
b110 !
0=
1<
1+
0C
0D
15
1'
#70000
b111 !
1=
0+
0I
1E
1C
1A
0?
0J
1F
1D
1B
0@
18
06
05
04
03
1$
0&
0'
0(
0)
#80000
b1111 !
b1011 !
b1001 !
b1000 !
0=
0<
0>
12
1+
0E
0C
0A
1?
0F
0D
0B
1@
16
15
14
13
1&
1'
1(
1)
#90000
b1001 !
1=
0+
1C
1D
05
0'
#100000
b1011 !
b1010 !
0=
1<
1+
1K
1I
1G
1E
1A
0?
1L
1J
1H
1F
1B
0@
09
08
07
06
04
03
0#
0$
0%
0&
0(
0)
#110000
b1011 !
1=
0+
#120000
b1111 !
b1101 !
b1100 !
0=
0<
1>
1+
#130000
b1101 !
1=
0+
#140000
b1111 !
b1110 !
0=
1<
1+
#150000
b1111 !
1=
0+
#160000
1"
b111 !
b11 !
b1 !
b0 !
1;
0=
0<
0>
02
1+
0K
0I
0G
0E
0C
0A
#170000
b1 !
1=
0+
1K
1E
1C
1A
#180000
b11 !
b10 !
0=
1<
1+
0K
1G
0E
0C
1?
#190000
b11 !
1=
0+
0G
1C
#200000
b111 !
b101 !
b100 !
0=
0<
1>
1+
1K
1E
0A
#210000
b101 !
1=
0+
0K
1I
0E
#220000
b111 !
b110 !
0=
1<
1+
0C
#230000
b111 !
1=
0+
0I
1E
1C
1A
0?
#240000
b1111 !
b1011 !
b1001 !
b1000 !
0=
0<
0>
12
1+
0E
0C
0A
1?
#250000
b1001 !
1=
0+
1C
#260000
b1011 !
b1010 !
0=
1<
1+
1K
1I
1G
1E
1A
0?
#270000
b1011 !
1=
0+
#280000
b1111 !
b1101 !
b1100 !
0=
0<
1>
1+
#290000
b1101 !
1=
0+
#300000
b1111 !
b1110 !
0=
1<
1+
#310000
b1111 !
1=
0+
#320000
0"
b111 !
b11 !
b1 !
b0 !
0;
0=
0<
0>
02
1+
0K
0I
0G
0E
0C
0A
0L
0J
0H
0F
0D
0B
19
18
17
16
15
14
1#
1$
1%
1&
1'
1(
#330000
b1 !
1=
0+
1K
1E
1C
1A
1L
1F
1D
1B
09
06
05
04
0#
0&
0'
0(
#340000
b11 !
b10 !
0=
1<
1+
0K
1G
0E
0C
1?
0L
1H
0F
0D
1@
19
07
16
15
13
1#
0%
1&
1'
1)
#350000
b11 !
1=
0+
0G
1C
0H
1D
17
05
1%
0'
#360000
b111 !
b101 !
b100 !
0=
0<
1>
1+
1K
1E
0A
1L
1F
0B
09
06
14
0#
0&
1(
#370000
b101 !
1=
0+
0K
1I
0E
0L
1J
0F
19
08
16
1#
0$
1&
#380000
b111 !
b110 !
0=
1<
1+
0C
0D
15
1'
#390000
b111 !
1=
0+
0I
1E
1C
1A
0?
0J
1F
1D
1B
0@
18
06
05
04
03
1$
0&
0'
0(
0)
#400000
b1111 !
b1011 !
b1001 !
b1000 !
0=
0<
0>
12
1+
0E
0C
0A
1?
0F
0D
0B
1@
16
15
14
13
1&
1'
1(
1)
#410000
b1001 !
1=
0+
1C
1D
05
0'
#420000
b1011 !
b1010 !
0=
1<
1+
1K
1I
1G
1E
1A
0?
1L
1J
1H
1F
1B
0@
09
08
07
06
04
03
0#
0$
0%
0&
0(
0)
#430000
b1011 !
1=
0+
#440000
b1111 !
b1101 !
b1100 !
0=
0<
1>
1+
#450000
b1101 !
1=
0+
#460000
b1111 !
b1110 !
0=
1<
1+
#470000
b1111 !
1=
0+
#480000
1"
b111 !
b11 !
b1 !
b0 !
1;
0=
0<
0>
02
1+
0K
0I
0G
0E
0C
0A
#490000
b1 !
1=
0+
1K
1E
1C
1A
#500000
b11 !
b10 !
0=
1<
1+
0K
1G
0E
0C
1?
#510000
b11 !
1=
0+
0G
1C
#520000
b111 !
b101 !
b100 !
0=
0<
1>
1+
1K
1E
0A
#530000
b101 !
1=
0+
0K
1I
0E
#540000
b111 !
b110 !
0=
1<
1+
0C
#550000
b111 !
1=
0+
0I
1E
1C
1A
0?
#560000
b1111 !
b1011 !
b1001 !
b1000 !
0=
0<
0>
12
1+
0E
0C
0A
1?
#570000
b1001 !
1=
0+
1C
#580000
b1011 !
b1010 !
0=
1<
1+
1K
1I
1G
1E
1A
0?
#590000
b1011 !
1=
0+
#600000
b1111 !
b1101 !
b1100 !
0=
0<
1>
1+
#610000
b1101 !
1=
0+
#620000
b1111 !
b1110 !
0=
1<
1+
#630000
b1111 !
1=
0+
#640000
0"
b111 !
b11 !
b1 !
b0 !
0;
0=
0<
0>
02
1+
0K
0I
0G
0E
0C
0A
0L
0J
0H
0F
0D
0B
19
18
17
16
15
14
1#
1$
1%
1&
1'
1(
#650000
b1 !
1=
0+
1K
1E
1C
1A
1L
1F
1D
1B
09
06
05
04
0#
0&
0'
0(
#660000
b11 !
b10 !
0=
1<
1+
0K
1G
0E
0C
1?
0L
1H
0F
0D
1@
19
07
16
15
13
1#
0%
1&
1'
1)
#670000
b11 !
1=
0+
0G
1C
0H
1D
17
05
1%
0'
#680000
b111 !
b101 !
b100 !
0=
0<
1>
1+
1K
1E
0A
1L
1F
0B
09
06
14
0#
0&
1(
#690000
b101 !
1=
0+
0K
1I
0E
0L
1J
0F
19
08
16
1#
0$
1&
#700000
b111 !
b110 !
0=
1<
1+
0C
0D
15
1'
#710000
b111 !
1=
0+
0I
1E
1C
1A
0?
0J
1F
1D
1B
0@
18
06
05
04
03
1$
0&
0'
0(
0)
#720000
b1111 !
b1011 !
b1001 !
b1000 !
0=
0<
0>
12
1+
0E
0C
0A
1?
0F
0D
0B
1@
16
15
14
13
1&
1'
1(
1)
#730000
b1001 !
1=
0+
1C
1D
05
0'
#740000
b1011 !
b1010 !
0=
1<
1+
1K
1I
1G
1E
1A
0?
1L
1J
1H
1F
1B
0@
09
08
07
06
04
03
0#
0$
0%
0&
0(
0)
#750000
b1011 !
1=
0+
#760000
b1111 !
b1101 !
b1100 !
0=
0<
1>
1+
#770000
b1101 !
1=
0+
#780000
b1111 !
b1110 !
0=
1<
1+
#790000
b1111 !
1=
0+
#800000
1"
b111 !
b11 !
b1 !
b0 !
1;
0=
0<
0>
02
1+
0K
0I
0G
0E
0C
0A
#810000
b1 !
1=
0+
1K
1E
1C
1A
#820000
b11 !
b10 !
0=
1<
1+
0K
1G
0E
0C
1?
#830000
b11 !
1=
0+
0G
1C
#840000
b111 !
b101 !
b100 !
0=
0<
1>
1+
1K
1E
0A
#850000
b101 !
1=
0+
0K
1I
0E
#860000
b111 !
b110 !
0=
1<
1+
0C
#870000
b111 !
1=
0+
0I
1E
1C
1A
0?
#880000
b1111 !
b1011 !
b1001 !
b1000 !
0=
0<
0>
12
1+
0E
0C
0A
1?
#890000
b1001 !
1=
0+
1C
#900000
b1011 !
b1010 !
0=
1<
1+
1K
1I
1G
1E
1A
0?
#910000
b1011 !
1=
0+
#920000
b1111 !
b1101 !
b1100 !
0=
0<
1>
1+
#930000
b1101 !
1=
0+
#940000
b1111 !
b1110 !
0=
1<
1+
#950000
b1111 !
1=
0+
#960000
0"
b111 !
b11 !
b1 !
b0 !
0;
0=
0<
0>
02
1+
0K
0I
0G
0E
0C
0A
0L
0J
0H
0F
0D
0B
19
18
17
16
15
14
1#
1$
1%
1&
1'
1(
#970000
b1 !
1=
0+
1K
1E
1C
1A
1L
1F
1D
1B
09
06
05
04
0#
0&
0'
0(
#980000
b11 !
b10 !
0=
1<
1+
0K
1G
0E
0C
1?
0L
1H
0F
0D
1@
19
07
16
15
13
1#
0%
1&
1'
1)
#990000
b11 !
1=
0+
0G
1C
0H
1D
17
05
1%
0'
