数字逻辑全套/实验/210710_43/Experiment4/exp4_project2/top/simulation/qsim/top.msim.vcd
$comment
	File created using the following command:
		vcd file top.msim.vcd -direction
$end
$date
	Thu Nov 10 22:29:42 2022
$end
$version
	ModelSim Version 10.1d
$end
$timescale
	1ps
$end
$scope module top_vlg_vec_tst $end
$var reg 1 ! clk $end
$var reg 1 " clr $end
$var reg 1 # reset $end
$var reg 1 $ rst $end
$var wire 1 % c_state [3] $end
$var wire 1 & c_state [2] $end
$var wire 1 ' c_state [1] $end
$var wire 1 ( c_state [0] $end
$var wire 1 ) n_state [3] $end
$var wire 1 * n_state [2] $end
$var wire 1 + n_state [1] $end
$var wire 1 , n_state [0] $end
$var wire 1 - z $end
$var wire 1 . sampler $end
$scope module i1 $end
$var wire 1 / gnd $end
$var wire 1 0 vcc $end
$var wire 1 1 unknown $end
$var tri1 1 2 devclrn $end
$var tri1 1 3 devpor $end
$var tri1 1 4 devoe $end
$var wire 1 5 clk~input_o $end
$var wire 1 6 z~output_o $end
$var wire 1 7 c_state[0]~output_o $end
$var wire 1 8 c_state[1]~output_o $end
$var wire 1 9 c_state[2]~output_o $end
$var wire 1 : c_state[3]~output_o $end
$var wire 1 ; n_state[0]~output_o $end
$var wire 1 < n_state[1]~output_o $end
$var wire 1 = n_state[2]~output_o $end
$var wire 1 > n_state[3]~output_o $end
$var wire 1 ? rst~input_o $end
$var wire 1 @ comb_3|clk_1hz~0_combout $end
$var wire 1 A comb_3|clk_1hz~feeder_combout $end
$var wire 1 B comb_3|clk_1hz~q $end
$var wire 1 C comb_3|clk_1hz~clkctrl_outclk $end
$var wire 1 D comb_4|data~6_combout $end
$var wire 1 E clr~input_o $end
$var wire 1 F comb_4|data~5_combout $end
$var wire 1 G comb_4|data~4_combout $end
$var wire 1 H comb_4|data~3_combout $end
$var wire 1 I comb_4|data~2_combout $end
$var wire 1 J comb_4|data~1_combout $end
$var wire 1 K comb_4|data~0_combout $end
$var wire 1 L comb_4|dout~0_combout $end
$var wire 1 M reset~input_o $end
$var wire 1 N comb_5|Mux0~0_combout $end
$var wire 1 O comb_5|c_state~1_combout $end
$var wire 1 P comb_5|Mux1~0_combout $end
$var wire 1 Q comb_5|c_state~0_combout $end
$var wire 1 R comb_5|c_state~2_combout $end
$var wire 1 S comb_5|c_state~3_combout $end
$var wire 1 T comb_5|Equal0~0_combout $end
$var wire 1 U comb_5|z~q $end
$var wire 1 V comb_5|n_state[2]~0_combout $end
$var wire 1 W comb_4|data [7] $end
$var wire 1 X comb_4|data [6] $end
$var wire 1 Y comb_4|data [5] $end
$var wire 1 Z comb_4|data [4] $end
$var wire 1 [ comb_4|data [3] $end
$var wire 1 \ comb_4|data [2] $end
$var wire 1 ] comb_4|data [1] $end
$var wire 1 ^ comb_4|data [0] $end
$var wire 1 _ comb_5|c_state [3] $end
$var wire 1 ` comb_5|c_state [2] $end
$var wire 1 a comb_5|c_state [1] $end
$var wire 1 b comb_5|c_state [0] $end
$upscope $end
$upscope $end
$enddefinitions $end
#0
$dumpvars
0!
1"
0#
0$
0(
0'
0&
0%
0,
0+
0*
0)
0-
x.
0/
10
x1
12
13
14
05
06
07
08
09
0:
0;
0<
0=
0>
0?
0@
0A
0B
0C
0D
1E
0F
0G
0H
0I
0J
0K
0L
0M
0N
0O
0P
0Q
1R
0S
0T
0U
0V
0^
0]
0\
0[
0Z
0Y
0X
0W
0b
0a
0`
z_
$end
#10000
1!
15
0.
#20000
0"
1#
1$
0!
0E
1M
1?
05
1.
1H
1F
1@
1A
#30000
1!
15
0.
1B
1C
0@
0A
1Z
1\
#40000
1"
0!
1E
05
1.
1I
0H
1G
0F
#50000
1!
15
0.
0B
0C
1@
1A
#60000
0!
05
1.
#70000
1!
15
0.
1B
1C
0@
0A
1Y
0Z
1[
0\
1J
0I
1H
0G
#80000
0!
05
1.
#90000
1!
15
0.
0B
0C
1@
1A
#100000
0!
05
1.
#110000
1!
15
0.
1B
1C
0@
0A
1X
0Y
1Z
0[
1K
0J
1I
0H
#120000
0!
05
1.
#130000
1!
15
0.
0B
0C
1@
1A
#140000
0!
05
1.
#150000
1!
15
0.
1B
1C
0@
0A
1W
0X
1Y
0Z
1L
0K
1J
0I
#160000
0!
05
1.
#170000
1!
15
0.
0B
0C
1@
1A
#180000
0!
05
1.
#190000
1!
15
0.
1B
1C
0@
0A
1^
0W
1X
0Y
1D
0L
1K
0J
1P
1Q
1;
1,
#200000
0!
05
1.
#210000
1!
15
0.
0B
0C
1@
1A
#220000
0!
05
1.
#230000
1!
15
0.
1B
1C
0@
0A
0^
1W
0X
1]
1b
0D
1L
0K
1F
0R
17
1(
0P
1N
0Q
1O
0;
1<
0,
1+
#240000
0!
05
1.
#250000
1!
15
0.
0B
0C
1@
1A
#260000
0!
05
1.
#270000
1!
15
0.
1B
1C
0@
0A
1^
0W
1\
0]
0b
1a
1D
0L
1G
0F
1R
07
18
0(
1'
1P
1Q
1;
1,
#280000
0!
05
1.
#290000
1!
15
0.
0B
0C
1@
1A
#300000
0!
05
1.
#310000
1!
15
0.
1B
1C
0@
0A
0^
1[
0\
1]
1b
0D
1H
0G
1F
0R
17
1(
1V
0P
0N
1S
0Q
0O
1=
0;
0<
1*
0,
0+
#320000
0!
05
1.
#330000
1!
15
0.
0B
0C
1@
1A
#340000
0!
05
1.
#350000
1!
15
0.
1B
1C
0@
0A
1Z
0[
1\
0]
1`
0b
0a
1I
0H
1G
0F
1T
0S
1R
19
07
08
1&
0(
0'
0V
0=
0*
#360000
0!
05
1.
#370000
1!
15
0.
0B
0C
1@
1A
#380000
0!
05
1.
#390000
1!
15
0.
1B
1C
0@
0A
1Y
0Z
1[
0\
1U
0`
1J
0I
1H
0G
0T
16
09
1-
0&
#400000
0!
05
1.
#410000
1!
15
0.
0B
0C
1@
1A
#420000
0!
05
1.
#430000
1!
15
0.
1B
1C
0@
0A
1X
0Y
1Z
0[
0U
1K
0J
1I
0H
06
0-
#440000
0!
05
1.
#450000
1!
15
0.
0B
0C
1@
1A
#460000
0!
05
1.
#470000
1!
15
0.
1B
1C
0@
0A
1W
0X
1Y
0Z
1L
0K
1J
0I
#480000
0!
05
1.
#490000
1!
15
0.
0B
0C
1@
1A
#500000
0!
05
1.
#510000
1!
15
0.
1B
1C
0@
0A
1^
0W
1X
0Y
1D
0L
1K
0J
1P
1Q
1;
1,
#520000
0!
05
1.
#530000
1!
15
0.
0B
0C
1@
1A
#540000
0!
05
1.
#550000
1!
15
0.
1B
1C
0@
0A
0^
1W
0X
1]
1b
0D
1L
0K
1F
0R
17
1(
0P
1N
0Q
1O
0;
1<
0,
1+
#560000
0!
05
1.
#570000
1!
15
0.
0B
0C
1@
1A
#580000
0!
05
1.
#590000
1!
15
0.
1B
1C
0@
0A
1^
0W
1\
0]
0b
1a
1D
0L
1G
0F
1R
07
18
0(
1'
1P
1Q
1;
1,
#600000
0!
05
1.
#610000
1!
15
0.
0B
0C
1@
1A
#620000
0!
05
1.
#630000
1!
15
0.
1B
1C
0@
0A
0^
1[
0\
1]
1b
0D
1H
0G
1F
0R
17
1(
1V
0P
0N
1S
0Q
0O
1=
0;
0<
1*
0,
0+
#640000
0!
05
1.
#650000
1!
15
0.
0B
0C
1@
1A
#660000
0!
05
1.
#670000
1!
15
0.
1B
1C
0@
0A
1Z
0[
1\
0]
1`
0b
0a
1I
0H
1G
0F
1T
0S
1R
19
07
08
1&
0(
0'
0V
0=
0*
#680000
0!
05
1.
#690000
1!
15
0.
0B
0C
1@
1A
#700000
0!
05
1.
#710000
1!
15
0.
1B
1C
0@
0A
1Y
0Z
1[
0\
1U
0`
1J
0I
1H
0G
0T
16
09
1-
0&
#720000
0!
05
1.
#730000
1!
15
0.
0B
0C
1@
1A
#740000
0!
05
1.
#750000
1!
15
0.
1B
1C
0@
0A
1X
0Y
1Z
0[
0U
1K
0J
1I
0H
06
0-
#760000
0!
05
1.
#770000
1!
15
0.
0B
0C
1@
1A
#780000
0!
05
1.
#790000
1!
15
0.
1B
1C
0@
0A
1W
0X
1Y
0Z
1L
0K
1J
0I
#800000
0!
05
1.
#810000
1!
15
0.
0B
0C
1@
1A
#820000
0!
05
1.
#830000
1!
15
0.
1B
1C
0@
0A
1^
0W
1X
0Y
1D
0L
1K
0J
1P
1Q
1;
1,
#840000
0!
05
1.
#850000
1!
15
0.
0B
0C
1@
1A
#860000
0!
05
1.
#870000
1!
15
0.
1B
1C
0@
0A
0^
1W
0X
1]
1b
0D
1L
0K
1F
0R
17
1(
0P
1N
0Q
1O
0;
1<
0,
1+
#880000
0!
05
1.
#890000
1!
15
0.
0B
0C
1@
1A
#900000
0!
05
1.
#910000
1!
15
0.
1B
1C
0@
0A
1^
0W
1\
0]
0b
1a
1D
0L
1G
0F
1R
07
18
0(
1'
1P
1Q
1;
1,
#920000
0!
05
1.
#930000
1!
15
0.
0B
0C
1@
1A
#940000
0!
05
1.
#950000
1!
15
0.
1B
1C
0@
0A
0^
1[
0\
1]
1b
0D
1H
0G
1F
0R
17
1(
1V
0P
0N
1S
0Q
0O
1=
0;
0<
1*
0,
0+
#960000
0!
05
1.
#970000
1!
15
0.
0B
0C
1@
1A
#980000
0!
05
1.
#990000
1!
15
0.
1B
1C
0@
0A
1Z
0[
1\
0]
1`
0b
0a
1I
0H
1G
0F
1T
0S
1R
19
07
08
1&
0(
0'
0V
0=
0*
