数字逻辑全套/实验/210710_43/Experiment4/exp4_project2/seqdet/simulation/qsim/seqdet.msim.vcd
$comment
	File created using the following command:
		vcd file seqdet.msim.vcd -direction
$end
$date
	Thu Nov 10 22:12:28 2022
$end
$version
	ModelSim Version 10.1d
$end
$timescale
	1ps
$end
$scope module seqdet_vlg_vec_tst $end
$var reg 1 ! clk $end
$var reg 1 " reset $end
$var reg 1 # x $end
$var wire 1 $ c_state [3] $end
$var wire 1 % c_state [2] $end
$var wire 1 & c_state [1] $end
$var wire 1 ' c_state [0] $end
$var wire 1 ( n_state [3] $end
$var wire 1 ) n_state [2] $end
$var wire 1 * n_state [1] $end
$var wire 1 + n_state [0] $end
$var wire 1 , z $end
$var wire 1 - sampler $end
$scope module i1 $end
$var wire 1 . gnd $end
$var wire 1 / vcc $end
$var wire 1 0 unknown $end
$var tri1 1 1 devclrn $end
$var tri1 1 2 devpor $end
$var tri1 1 3 devoe $end
$var wire 1 4 z~output_o $end
$var wire 1 5 c_state[0]~output_o $end
$var wire 1 6 c_state[1]~output_o $end
$var wire 1 7 c_state[2]~output_o $end
$var wire 1 8 c_state[3]~output_o $end
$var wire 1 9 n_state[0]~output_o $end
$var wire 1 : n_state[1]~output_o $end
$var wire 1 ; n_state[2]~output_o $end
$var wire 1 < n_state[3]~output_o $end
$var wire 1 = clk~input_o $end
$var wire 1 > clk~inputclkctrl_outclk $end
$var wire 1 ? x~input_o $end
$var wire 1 @ c_state~2_combout $end
$var wire 1 A reset~input_o $end
$var wire 1 B Mux1~0_combout $end
$var wire 1 C c_state~0_combout $end
$var wire 1 D c_state[0]~reg0_q $end
$var wire 1 E Mux0~0_combout $end
$var wire 1 F c_state~1_combout $end
$var wire 1 G c_state[1]~reg0_q $end
$var wire 1 H c_state~3_combout $end
$var wire 1 I c_state[2]~reg0_q $end
$var wire 1 J Equal0~0_combout $end
$var wire 1 K z~reg0_q $end
$var wire 1 L n_state~0_combout $end
$upscope $end
$upscope $end
$enddefinitions $end
#0
$dumpvars
0!
0"
0#
0'
0&
0%
0$
0+
0*
0)
0(
0,
x-
0.
1/
x0
11
12
13
04
05
06
07
08
09
0:
0;
0<
0=
0>
0?
1@
0A
0B
0C
0D
0E
0F
0G
0H
0I
0J
0K
0L
$end
#20000
1!
1=
1>
0-
#40000
0!
0=
0>
1-
#60000
1"
1!
1A
1=
1>
0-
0@
#80000
1#
0!
1?
0=
0>
1-
1@
1B
1C
19
1+
#100000
0#
1!
0?
1=
1>
0-
0@
0B
0C
09
0+
1D
15
1'
1E
1F
1:
1*
#120000
0!
0=
0>
1-
#140000
1!
1=
1>
0-
1G
0D
16
05
1&
0'
0E
0F
0:
0*
#150000
1#
1?
1-
1@
1E
1B
1F
1C
1:
19
1*
1+
#160000
0!
0=
0>
0-
#180000
0#
1!
0?
1=
1>
1-
0@
0E
0B
0F
0C
0:
09
0*
0+
1D
1H
15
1'
1L
1;
1)
#200000
0!
0=
0>
0-
#220000
1!
1=
1>
1-
1I
0G
0D
1J
0H
17
06
05
1%
0&
0'
0L
0;
0)
#240000
1#
0!
1?
0=
0>
0-
1@
1B
1C
19
1+
#260000
1!
1=
1>
1-
1K
0I
1D
0J
14
07
15
1,
0%
1'
#280000
0!
0=
0>
0-
#300000
1!
1=
1>
1-
0K
04
0,
#320000
0!
0=
0>
0-
#340000
0#
1!
0?
1=
1>
1-
0@
1E
0B
1F
0C
1:
09
1*
0+
#360000
0!
0=
0>
0-
#380000
1!
1=
1>
1-
1G
0D
16
05
1&
0'
0E
0F
0:
0*
#400000
0!
0=
0>
0-
#420000
1!
1=
1>
1-
0G
06
0&
#440000
0!
0=
0>
0-
#460000
1!
1=
1>
1-
#480000
0!
0=
0>
0-
#500000
1!
1=
1>
1-
#520000
0!
0=
0>
0-
#540000
1!
1=
1>
1-
#560000
0!
0=
0>
0-
#580000
1!
1=
1>
1-
#600000
0!
0=
0>
0-
#620000
1!
1=
1>
1-
#640000
0!
0=
0>
0-
#660000
1!
1=
1>
1-
#680000
0!
0=
0>
0-
#700000
1!
1=
1>
1-
#720000
0!
0=
0>
0-
#740000
1!
1=
1>
1-
#760000
0!
0=
0>
0-
#780000
1!
1=
1>
1-
#800000
0!
0=
0>
0-
#820000
1!
1=
1>
1-
#840000
0!
0=
0>
0-
#860000
1!
1=
1>
1-
#880000
0!
0=
0>
0-
#900000
1!
1=
1>
1-
#920000
0!
0=
0>
0-
#940000
1!
1=
1>
1-
#960000
0!
0=
0>
0-
#980000
1!
1=
1>
1-
