数字逻辑全套/实验/210710_43/Experiment2/exp2_project1/D/simulation/qsim/D.msim.vcd
$comment
	File created using the following command:
		vcd file D.msim.vcd -direction
$end
$date
	Thu Oct 27 18:37:54 2022
$end
$version
	ModelSim Version 10.1d
$end
$timescale
	1ps
$end
$scope module D_vlg_vec_tst $end
$var reg 1 ! Clk $end
$var reg 1 " D $end
$var reg 1 # EN $end
$var wire 1 $ LED1 $end
$var wire 1 % LED2 $end
$var wire 1 & sampler $end
$scope module i1 $end
$var wire 1 ' gnd $end
$var wire 1 ( vcc $end
$var wire 1 ) unknown $end
$var tri1 1 * devclrn $end
$var tri1 1 + devpor $end
$var tri1 1 , devoe $end
$var wire 1 - LED1~output_o $end
$var wire 1 . LED2~output_o $end
$var wire 1 / Clk~input_o $end
$var wire 1 0 D~input_o $end
$var wire 1 1 DFF|Q~feeder_combout $end
$var wire 1 2 DFF|Q~q $end
$var wire 1 3 EN~input_o $end
$var wire 1 4 D_Latch|Q~combout $end
$upscope $end
$upscope $end
$enddefinitions $end
#0
$dumpvars
0!
0"
0#
0$
x%
x&
0'
1(
x)
1*
1+
1,
0-
x.
0/
00
01
02
03
x4
$end
#4500
1"
10
0&
11
#10000
1!
1/
1&
12
1-
1$
#12000
0"
00
0&
01
#19500
1"
10
1&
11
#20000
0!
0/
0&
#27000
0"
00
1&
01
#30000
1!
1/
0&
02
0-
0$
#34500
1"
10
1&
11
#40000
1#
0!
13
0/
0&
14
1.
1%
#42000
0"
00
1&
01
04
0.
0%
#49500
1"
10
0&
11
14
1.
1%
#50000
1!
1/
1&
12
1-
1$
#57000
0"
00
0&
01
04
0.
0%
#60000
0!
0/
1&
#64500
1"
10
0&
11
14
1.
1%
#70000
1!
1/
1&
#72000
0"
00
0&
01
04
0.
0%
#79500
1"
10
1&
11
14
1.
1%
#80000
0#
0!
03
0/
0&
#87000
0"
00
1&
01
#90000
1!
1/
0&
02
0-
0$
#94500
1"
10
1&
11
#100000
0!
0/
0&
#102000
0"
00
1&
01
#109500
1"
10
0&
11
#110000
1!
1/
1&
12
1-
1$
#117000
0"
00
0&
01
#120000
1#
0!
13
0/
1&
04
0.
0%
#124500
1"
10
0&
11
14
1.
1%
#130000
1!
1/
1&
#132000
0"
00
0&
01
04
0.
0%
#139500
1"
10
1&
11
14
1.
1%
#140000
0!
0/
0&
#147000
0"
00
1&
01
04
0.
0%
#150000
1!
1/
0&
02
0-
0$
#154500
1"
10
1&
11
14
1.
1%
#160000
0#
0!
03
0/
0&
#162000
0"
00
1&
01
#169500
1"
10
0&
11
#170000
1!
1/
1&
12
1-
1$
#177000
0"
00
0&
01
#180000
0!
0/
1&
#184500
1"
10
0&
11
#190000
1!
1/
1&
#192000
0"
00
0&
01
#199500
1"
10
1&
11
#200000
1#
0!
13
0/
0&
#207000
0"
00
1&
01
04
0.
0%
#210000
1!
1/
0&
02
0-
0$
#214500
1"
10
1&
11
14
1.
1%
#220000
0!
0/
0&
#222000
0"
00
1&
01
04
0.
0%
#229500
1"
10
0&
11
14
1.
1%
#230000
1!
1/
1&
12
1-
1$
#237000
0"
00
0&
01
04
0.
0%
#240000
0#
0!
03
0/
1&
#244500
1"
10
0&
11
#250000
1!
1/
1&
#252000
0"
00
0&
01
#259500
1"
10
1&
11
#260000
0!
0/
0&
#267000
0"
00
1&
01
#270000
1!
1/
0&
02
0-
0$
#274500
1"
10
1&
11
#280000
1#
0!
13
0/
0&
14
1.
1%
#282000
0"
00
1&
01
04
0.
0%
#289500
1"
10
0&
11
14
1.
1%
#290000
1!
1/
1&
12
1-
1$
#297000
0"
00
0&
01
04
0.
0%
#300000
0!
0/
1&
#304500
1"
10
0&
11
14
1.
1%
#310000
1!
1/
1&
#312000
0"
00
0&
01
04
0.
0%
#319500
1"
10
1&
11
14
1.
1%
#320000
0#
0!
03
0/
0&
#327000
0"
00
1&
01
#330000
1!
1/
0&
02
0-
0$
#334500
1"
10
1&
11
#340000
0!
0/
0&
#342000
0"
00
1&
01
#349500
1"
10
0&
11
#350000
1!
1/
1&
12
1-
1$
#357000
0"
00
0&
01
#360000
1#
0!
13
0/
1&
04
0.
0%
#364500
1"
10
0&
11
14
1.
1%
#370000
1!
1/
1&
#372000
0"
00
0&
01
04
0.
0%
#379500
1"
10
1&
11
14
1.
1%
#380000
0!
0/
0&
#387000
0"
00
1&
01
04
0.
0%
#390000
1!
1/
0&
02
0-
0$
#394500
1"
10
1&
11
14
1.
1%
#400000
0#
0!
03
0/
0&
#402000
0"
00
1&
01
#409500
1"
10
0&
11
#410000
1!
1/
1&
12
1-
1$
#417000
0"
00
0&
01
#420000
0!
0/
1&
#424500
1"
10
0&
11
#430000
1!
1/
1&
#432000
0"
00
0&
01
#439500
1"
10
1&
11
#440000
1#
0!
13
0/
0&
#447000
0"
00
1&
01
04
0.
0%
#450000
1!
1/
0&
02
0-
0$
#454500
1"
10
1&
11
14
1.
1%
#460000
0!
0/
0&
#462000
0"
00
1&
01
04
0.
0%
#469500
1"
10
0&
11
14
1.
1%
#470000
1!
1/
1&
12
1-
1$
#477000
0"
00
0&
01
04
0.
0%
#480000
0#
0!
03
0/
1&
#484500
1"
10
0&
11
#490000
1!
1/
1&
#492000
0"
00
0&
01
#499500
1"
10
1&
11
#500000
0!
0/
0&
#507000
0"
00
1&
01
#510000
1!
1/
0&
02
0-
0$
#514500
1"
10
1&
11
#520000
1#
0!
13
0/
0&
14
1.
1%
#522000
0"
00
1&
01
04
0.
0%
#529500
1"
10
0&
11
14
1.
1%
#530000
1!
1/
1&
12
1-
1$
#537000
0"
00
0&
01
04
0.
0%
#540000
0!
0/
1&
#544500
1"
10
0&
11
14
1.
1%
#550000
1!
1/
1&
#552000
0"
00
0&
01
04
0.
0%
#559500
1"
10
1&
11
14
1.
1%
#560000
0#
0!
03
0/
0&
#567000
0"
00
1&
01
#570000
1!
1/
0&
02
0-
0$
#574500
1"
10
1&
11
#580000
0!
0/
0&
#582000
0"
00
1&
01
#589500
1"
10
0&
11
#590000
1!
1/
1&
12
1-
1$
#597000
0"
00
0&
01
#600000
1#
0!
13
0/
1&
04
0.
0%
#604500
1"
10
0&
11
14
1.
1%
#610000
1!
1/
1&
#612000
0"
00
0&
01
04
0.
0%
#619500
1"
10
1&
11
14
1.
1%
#620000
0!
0/
0&
#627000
0"
00
1&
01
04
0.
0%
#630000
1!
1/
0&
02
0-
0$
#634500
1"
10
1&
11
14
1.
1%
#640000
0#
0!
03
0/
0&
#642000
0"
00
1&
01
#649500
1"
10
0&
11
#650000
1!
1/
1&
12
1-
1$
#657000
0"
00
0&
01
#660000
0!
0/
1&
#664500
1"
10
0&
11
#670000
1!
1/
1&
#672000
0"
00
0&
01
#679500
1"
10
1&
11
#680000
1#
0!
13
0/
0&
#687000
0"
00
1&
01
04
0.
0%
#690000
1!
1/
0&
02
0-
0$
#694500
1"
10
1&
11
14
1.
1%
#700000
0!
0/
0&
#702000
0"
00
1&
01
04
0.
0%
#709500
1"
10
0&
11
14
1.
1%
#710000
1!
1/
1&
12
1-
1$
#717000
0"
00
0&
01
04
0.
0%
#720000
0#
0!
03
0/
1&
#724500
1"
10
0&
11
#730000
1!
1/
1&
#732000
0"
00
0&
01
#739500
1"
10
1&
11
#740000
0!
0/
0&
#747000
0"
00
1&
01
#750000
1!
1/
0&
02
0-
0$
#754500
1"
10
1&
11
#760000
1#
0!
13
0/
0&
14
1.
1%
#762000
0"
00
1&
01
04
0.
0%
#769500
1"
10
0&
11
14
1.
1%
#770000
1!
1/
1&
12
1-
1$
#777000
0"
00
0&
01
04
0.
0%
#780000
0!
0/
1&
#784500
1"
10
0&
11
14
1.
1%
#790000
1!
1/
1&
#792000
0"
00
0&
01
04
0.
0%
#799500
1"
10
1&
11
14
1.
1%
#800000
0#
0!
03
0/
0&
#807000
0"
00
1&
01
#810000
1!
1/
0&
02
0-
0$
#814500
1"
10
1&
11
#820000
0!
0/
0&
#822000
0"
00
1&
01
#829500
1"
10
0&
11
#830000
1!
1/
1&
12
1-
1$
#837000
0"
00
0&
01
#840000
1#
0!
13
0/
1&
04
0.
0%
#844500
1"
10
0&
11
14
1.
1%
#850000
1!
1/
1&
#852000
0"
00
0&
01
04
0.
0%
#859500
1"
10
1&
11
14
1.
1%
#860000
0!
0/
0&
#867000
0"
00
1&
01
04
0.
0%
#870000
1!
1/
0&
02
0-
0$
#874500
1"
10
1&
11
14
1.
1%
#880000
0#
0!
03
0/
0&
#882000
0"
00
1&
01
#889500
1"
10
0&
11
#890000
1!
1/
1&
12
1-
1$
#897000
0"
00
0&
01
#900000
0!
0/
1&
#904500
1"
10
0&
11
#910000
1!
1/
1&
#912000
0"
00
0&
01
#919500
1"
10
1&
11
#920000
1#
0!
13
0/
0&
#927000
0"
00
1&
01
04
0.
0%
#930000
1!
1/
0&
02
0-
0$
#934500
1"
10
1&
11
14
1.
1%
#940000
0!
0/
0&
#942000
0"
00
1&
01
04
0.
0%
#949500
1"
10
0&
11
14
1.
1%
#950000
1!
1/
1&
12
1-
1$
#957000
0"
00
0&
01
04
0.
0%
#960000
0#
0!
03
0/
1&
#964500
1"
10
0&
11
#970000
1!
1/
1&
#972000
0"
00
0&
01
#979500
1"
10
1&
11
#980000
0!
0/
0&
#987000
0"
00
1&
01
#990000
1!
1/
0&
02
0-
0$
#994500
1"
10
1&
11
