数字逻辑全套/实验/210710_43/Experiment2/exp2_project1/D_FF/simulation/qsim/D_FF.msim.vcd
$comment
	File created using the following command:
		vcd file D_FF.msim.vcd -direction
$end
$date
	Sun Oct 23 22:26:21 2022
$end
$version
	ModelSim Version 10.1d
$end
$timescale
	1ps
$end
$scope module D_FF_vlg_vec_tst $end
$var reg 1 ! CLK $end
$var reg 1 " D $end
$var wire 1 # Q $end
$var wire 1 $ QN $end
$var wire 1 % sampler $end
$scope module i1 $end
$var wire 1 & gnd $end
$var wire 1 ' vcc $end
$var wire 1 ( unknown $end
$var tri1 1 ) devclrn $end
$var tri1 1 * devpor $end
$var tri1 1 + devoe $end
$var wire 1 , Q~output_o $end
$var wire 1 - QN~output_o $end
$var wire 1 . CLK~input_o $end
$var wire 1 / CLK~inputclkctrl_outclk $end
$var wire 1 0 D~input_o $end
$var wire 1 1 Q~reg0feeder_combout $end
$var wire 1 2 Q~reg0_q $end
$var wire 1 3 QN~0_combout $end
$var wire 1 4 QN~reg0_q $end
$upscope $end
$upscope $end
$enddefinitions $end
#0
$dumpvars
0!
0"
x#
x$
x%
0&
1'
x(
1)
1*
1+
x,
x-
0.
x/
00
x1
02
x3
04
$end
#176
0/
#2945
0,
0#
#2946
0-
0$
#3694
01
#3716
13
#10000
1!
0%
#10897
1.
#11083
1/
#13495
14
#16520
1-
1$
#20000
0!
1%
#20948
0.
#21124
0/
#30000
1!
0%
#30897
1.
#31083
1/
#40000
1"
0!
1%
#40857
10
#40948
0.
#41124
0/
#44341
03
#44364
11
#50000
1!
0%
#50897
1.
#51083
1/
#53495
12
04
#56441
0-
0$
#56521
1,
1#
#60000
0!
1%
#60948
0.
#61124
0/
#70000
1!
0%
#70897
1.
#71083
1/
#80000
0"
0!
1%
#80907
00
#80948
0.
#81124
0/
#84601
01
#84623
13
#90000
1!
0%
#90897
1.
#91083
1/
#93495
02
14
#96440
0,
0#
#96520
1-
1$
#100000
0!
1%
#100948
0.
#101124
0/
#110000
1!
0%
#110897
1.
#111083
1/
#120000
1"
0!
1%
#120857
10
#120948
0.
#121124
0/
#124341
03
#124364
11
#130000
1!
0%
#130897
1.
#131083
1/
#133495
12
04
#136441
0-
0$
#136521
1,
1#
#140000
0!
1%
#140948
0.
#141124
0/
#150000
1!
0%
#150897
1.
#151083
1/
#160000
0"
0!
1%
#160907
00
#160948
0.
#161124
0/
#164601
01
#164623
13
#170000
1!
0%
#170897
1.
#171083
1/
#173495
02
14
#176440
0,
0#
#176520
1-
1$
#180000
0!
1%
#180948
0.
#181124
0/
#190000
1!
0%
#190897
1.
#191083
1/
#200000
1"
0!
1%
#200857
10
#200948
0.
#201124
0/
#204341
03
#204364
11
#210000
1!
0%
#210897
1.
#211083
1/
#213495
12
04
#216441
0-
0$
#216521
1,
1#
#220000
0!
1%
#220948
0.
#221124
0/
#230000
1!
0%
#230897
1.
#231083
1/
#240000
0"
0!
1%
#240907
00
#240948
0.
#241124
0/
#244601
01
#244623
13
#250000
1!
0%
#250897
1.
#251083
1/
#253495
02
14
#256440
0,
0#
#256520
1-
1$
#260000
0!
1%
#260948
0.
#261124
0/
#270000
1!
0%
#270897
1.
#271083
1/
#280000
1"
0!
1%
#280857
10
#280948
0.
#281124
0/
#284341
03
#284364
11
#290000
1!
0%
#290897
1.
#291083
1/
#293495
12
04
#296441
0-
0$
#296521
1,
1#
#300000
0!
1%
#300948
0.
#301124
0/
#310000
1!
0%
#310897
1.
#311083
1/
#320000
0"
0!
1%
#320907
00
#320948
0.
#321124
0/
#324601
01
#324623
13
#330000
1!
0%
#330897
1.
#331083
1/
#333495
02
14
#336440
0,
0#
#336520
1-
1$
#340000
0!
1%
#340948
0.
#341124
0/
#350000
1!
0%
#350897
1.
#351083
1/
#360000
1"
0!
1%
#360857
10
#360948
0.
#361124
0/
#364341
03
#364364
11
#370000
1!
0%
#370897
1.
#371083
1/
#373495
12
04
#376441
0-
0$
#376521
1,
1#
#380000
0!
1%
#380948
0.
#381124
0/
#390000
1!
0%
#390897
1.
#391083
1/
#400000
0"
0!
1%
#400907
00
#400948
0.
#401124
0/
#404601
01
#404623
13
#410000
1!
0%
#410897
1.
#411083
1/
#413495
02
14
#416440
0,
0#
#416520
1-
1$
#420000
0!
1%
#420948
0.
#421124
0/
#430000
1!
0%
#430897
1.
#431083
1/
#440000
1"
0!
1%
#440857
10
#440948
0.
#441124
0/
#444341
03
#444364
11
#450000
1!
0%
#450897
1.
#451083
1/
#453495
12
04
#456441
0-
0$
#456521
1,
1#
#460000
0!
1%
#460948
0.
#461124
0/
#470000
1!
0%
#470897
1.
#471083
1/
#480000
0"
0!
1%
#480907
00
#480948
0.
#481124
0/
#484601
01
#484623
13
#490000
1!
0%
#490897
1.
#491083
1/
#493495
02
14
#496440
0,
0#
#496520
1-
1$
#500000
0!
1%
#500948
0.
#501124
0/
#510000
1!
0%
#510897
1.
#511083
1/
#520000
1"
0!
1%
#520857
10
#520948
0.
#521124
0/
#524341
03
#524364
11
#530000
1!
0%
#530897
1.
#531083
1/
#533495
12
04
#536441
0-
0$
#536521
1,
1#
#540000
0!
1%
#540948
0.
#541124
0/
#550000
1!
0%
#550897
1.
#551083
1/
#560000
0"
0!
1%
#560907
00
#560948
0.
#561124
0/
#564601
01
#564623
13
#570000
1!
0%
#570897
1.
#571083
1/
#573495
02
14
#576440
0,
0#
#576520
1-
1$
#580000
0!
1%
#580948
0.
#581124
0/
#590000
1!
0%
#590897
1.
#591083
1/
#600000
1"
0!
1%
#600857
10
#600948
0.
#601124
0/
#604341
03
#604364
11
#610000
1!
0%
#610897
1.
#611083
1/
#613495
12
04
#616441
0-
0$
#616521
1,
1#
#620000
0!
1%
#620948
0.
#621124
0/
#630000
1!
0%
#630897
1.
#631083
1/
#640000
0"
0!
1%
#640907
00
#640948
0.
#641124
0/
#644601
01
#644623
13
#650000
1!
0%
#650897
1.
#651083
1/
#653495
02
14
#656440
0,
0#
#656520
1-
1$
#660000
0!
1%
#660948
0.
#661124
0/
#670000
1!
0%
#670897
1.
#671083
1/
#680000
1"
0!
1%
#680857
10
#680948
0.
#681124
0/
#684341
03
#684364
11
#690000
1!
0%
#690897
1.
#691083
1/
#693495
12
04
#696441
0-
0$
#696521
1,
1#
#700000
0!
1%
#700948
0.
#701124
0/
#710000
1!
0%
#710897
1.
#711083
1/
#720000
0"
0!
1%
#720907
00
#720948
0.
#721124
0/
#724601
01
#724623
13
#730000
1!
0%
#730897
1.
#731083
1/
#733495
02
14
#736440
0,
0#
#736520
1-
1$
#740000
0!
1%
#740948
0.
#741124
0/
#750000
1!
0%
#750897
1.
#751083
1/
#760000
1"
0!
1%
#760857
10
#760948
0.
#761124
0/
#764341
03
#764364
11
#770000
1!
0%
#770897
1.
#771083
1/
#773495
12
04
#776441
0-
0$
#776521
1,
1#
#780000
0!
1%
#780948
0.
#781124
0/
#790000
1!
0%
#790897
1.
#791083
1/
#800000
0"
0!
1%
#800907
00
#800948
0.
#801124
0/
#804601
01
#804623
13
#810000
1!
0%
#810897
1.
#811083
1/
#813495
02
14
#816440
0,
0#
#816520
1-
1$
#820000
0!
1%
#820948
0.
#821124
0/
#830000
1!
0%
#830897
1.
#831083
1/
#840000
1"
0!
1%
#840857
10
#840948
0.
#841124
0/
#844341
03
#844364
11
#850000
1!
0%
#850897
1.
#851083
1/
#853495
12
04
#856441
0-
0$
#856521
1,
1#
#860000
0!
1%
#860948
0.
#861124
0/
#870000
1!
0%
#870897
1.
#871083
1/
#880000
0"
0!
1%
#880907
00
#880948
0.
#881124
0/
#884601
01
#884623
13
#890000
1!
0%
#890897
1.
#891083
1/
#893495
02
14
#896440
0,
0#
#896520
1-
1$
#900000
0!
1%
#900948
0.
#901124
0/
#910000
1!
0%
#910897
1.
#911083
1/
#920000
1"
0!
1%
#920857
10
#920948
0.
#921124
0/
#924341
03
#924364
11
#930000
1!
0%
#930897
1.
#931083
1/
#933495
12
04
#936441
0-
0$
#936521
1,
1#
#940000
0!
1%
#940948
0.
#941124
0/
#950000
1!
0%
#950897
1.
#951083
1/
#960000
0"
0!
1%
#960907
00
#960948
0.
#961124
0/
#964601
01
#964623
13
#970000
1!
0%
#970897
1.
#971083
1/
#973495
02
14
#976440
0,
0#
#976520
1-
1$
#980000
0!
1%
#980948
0.
#981124
0/
#990000
1!
0%
#990897
1.
