数字逻辑全套/实验/210710_43/Experiment3/exp3_project2/frequency_divider/simulation/qsim/frequency_divider.msim.vcd
$comment
	File created using the following command:
		vcd file frequency_divider.msim.vcd -direction
$end
$date
	Wed Nov 02 16:08:53 2022
$end
$version
	ModelSim Version 10.1d
$end
$timescale
	1ps
$end
$scope module frequency_divider_vlg_vec_tst $end
$var reg 1 ! clk_50mhz $end
$var reg 1 " rst $end
$var wire 1 # clk_1hz $end
$var wire 1 $ clk_1khz $end
$var wire 1 % clk_10hz $end
$var wire 1 & clk_100hz $end
$var wire 1 ' sampler $end
$scope module i1 $end
$var wire 1 ( gnd $end
$var wire 1 ) vcc $end
$var wire 1 * unknown $end
$var tri1 1 + devclrn $end
$var tri1 1 , devpor $end
$var tri1 1 - devoe $end
$var wire 1 . cnt1[3]~38_combout $end
$var wire 1 / cnt1[5]~42_combout $end
$var wire 1 0 cnt1[15]~62_combout $end
$var wire 1 1 cnt1[29]~91_combout $end
$var wire 1 2 cnt2[5]~42_combout $end
$var wire 1 3 cnt2[6]~44_combout $end
$var wire 1 4 cnt2[13]~58_combout $end
$var wire 1 5 cnt2[19]~71_combout $end
$var wire 1 6 cnt2[21]~75_combout $end
$var wire 1 7 cnt2[27]~87_combout $end
$var wire 1 8 cnt3[5]~42_combout $end
$var wire 1 9 cnt3[6]~44_combout $end
$var wire 1 : cnt3[15]~62_combout $end
$var wire 1 ; cnt3[19]~70_combout $end
$var wire 1 < cnt3[21]~74_combout $end
$var wire 1 = cnt3[22]~76_combout $end
$var wire 1 > cnt3[29]~92_combout $end
$var wire 1 ? cnt4[6]~44_combout $end
$var wire 1 @ cnt4[13]~58_combout $end
$var wire 1 A cnt4[21]~74_combout $end
$var wire 1 B cnt4[23]~79 $end
$var wire 1 C cnt4[24]~80_combout $end
$var wire 1 D cnt4[24]~81 $end
$var wire 1 E cnt4[25]~82_combout $end
$var wire 1 F cnt4[25]~83 $end
$var wire 1 G cnt4[26]~85_combout $end
$var wire 1 H cnt4[26]~86 $end
$var wire 1 I cnt4[27]~87_combout $end
$var wire 1 J cnt4[27]~88 $end
$var wire 1 K cnt4[28]~89_combout $end
$var wire 1 L cnt4[28]~90 $end
$var wire 1 M cnt4[29]~91_combout $end
$var wire 1 N cnt4[29]~92 $end
$var wire 1 O cnt4[30]~93_combout $end
$var wire 1 P cnt4[30]~94 $end
$var wire 1 Q cnt4[31]~95_combout $end
$var wire 1 R LessThan0~0_combout $end
$var wire 1 S LessThan0~5_combout $end
$var wire 1 T LessThan1~3_combout $end
$var wire 1 U LessThan1~6_combout $end
$var wire 1 V LessThan2~0_combout $end
$var wire 1 W LessThan2~3_combout $end
$var wire 1 X LessThan3~0_combout $end
$var wire 1 Y LessThan3~1_combout $end
$var wire 1 Z LessThan3~2_combout $end
$var wire 1 [ clk_1khz~output_o $end
$var wire 1 \ clk_100hz~output_o $end
$var wire 1 ] clk_10hz~output_o $end
$var wire 1 ^ clk_1hz~output_o $end
$var wire 1 _ clk_50mhz~input_o $end
$var wire 1 ` clk_50mhz~inputclkctrl_outclk $end
$var wire 1 a rst~input_o $end
$var wire 1 b cnt1[0]~32_combout $end
$var wire 1 c cnt1[19]~64_combout $end
$var wire 1 d cnt1[0]~33 $end
$var wire 1 e cnt1[1]~34_combout $end
$var wire 1 f cnt1[1]~35 $end
$var wire 1 g cnt1[2]~36_combout $end
$var wire 1 h cnt1[2]~37 $end
$var wire 1 i cnt1[3]~39 $end
$var wire 1 j cnt1[4]~40_combout $end
$var wire 1 k cnt1[4]~41 $end
$var wire 1 l cnt1[5]~43 $end
$var wire 1 m cnt1[6]~45 $end
$var wire 1 n cnt1[7]~46_combout $end
$var wire 1 o cnt1[7]~47 $end
$var wire 1 p cnt1[8]~48_combout $end
$var wire 1 q cnt1[8]~49 $end
$var wire 1 r cnt1[9]~50_combout $end
$var wire 1 s cnt1[9]~51 $end
$var wire 1 t cnt1[10]~52_combout $end
$var wire 1 u cnt1[10]~53 $end
$var wire 1 v cnt1[11]~54_combout $end
$var wire 1 w cnt1[11]~55 $end
$var wire 1 x cnt1[12]~56_combout $end
$var wire 1 y cnt1[12]~57 $end
$var wire 1 z cnt1[13]~58_combout $end
$var wire 1 { cnt1[13]~59 $end
$var wire 1 | cnt1[14]~60_combout $end
$var wire 1 } cnt1[14]~61 $end
$var wire 1 ~ cnt1[15]~63 $end
$var wire 1 !! cnt1[16]~65_combout $end
$var wire 1 "! cnt1[16]~66 $end
$var wire 1 #! cnt1[17]~67_combout $end
$var wire 1 $! cnt1[17]~68 $end
$var wire 1 %! cnt1[18]~69_combout $end
$var wire 1 &! cnt1[18]~70 $end
$var wire 1 '! cnt1[19]~72 $end
$var wire 1 (! cnt1[20]~73_combout $end
$var wire 1 )! cnt1[20]~74 $end
$var wire 1 *! cnt1[21]~76 $end
$var wire 1 +! cnt1[22]~78 $end
$var wire 1 ,! cnt1[23]~79_combout $end
$var wire 1 -! cnt1[23]~80 $end
$var wire 1 .! cnt1[24]~81_combout $end
$var wire 1 /! cnt1[24]~82 $end
$var wire 1 0! cnt1[25]~83_combout $end
$var wire 1 1! cnt1[25]~84 $end
$var wire 1 2! cnt1[26]~85_combout $end
$var wire 1 3! cnt1[26]~86 $end
$var wire 1 4! cnt1[27]~88 $end
$var wire 1 5! cnt1[28]~89_combout $end
$var wire 1 6! cnt1[28]~90 $end
$var wire 1 7! cnt1[29]~92 $end
$var wire 1 8! cnt1[30]~93_combout $end
$var wire 1 9! cnt1[30]~94 $end
$var wire 1 :! cnt1[31]~95_combout $end
$var wire 1 ;! cnt1[19]~71_combout $end
$var wire 1 <! cnt1[21]~75_combout $end
$var wire 1 =! cnt1[22]~77_combout $end
$var wire 1 >! LessThan0~1_combout $end
$var wire 1 ?! LessThan0~2_combout $end
$var wire 1 @! cnt1[27]~87_combout $end
$var wire 1 A! LessThan0~3_combout $end
$var wire 1 B! LessThan0~4_combout $end
$var wire 1 C! LessThan0~6_combout $end
$var wire 1 D! cnt1[6]~44_combout $end
$var wire 1 E! LessThan0~7_combout $end
$var wire 1 F! LessThan0~8_combout $end
$var wire 1 G! LessThan0~9_combout $end
$var wire 1 H! LessThan0~10_combout $end
$var wire 1 I! clk_1khz~0_combout $end
$var wire 1 J! clk_1khz~reg0_q $end
$var wire 1 K! cnt2[0]~32_combout $end
$var wire 1 L! cnt2[2]~60_combout $end
$var wire 1 M! cnt2[0]~33 $end
$var wire 1 N! cnt2[1]~34_combout $end
$var wire 1 O! cnt2[1]~35 $end
$var wire 1 P! cnt2[2]~36_combout $end
$var wire 1 Q! cnt2[2]~37 $end
$var wire 1 R! cnt2[3]~39 $end
$var wire 1 S! cnt2[4]~40_combout $end
$var wire 1 T! cnt2[4]~41 $end
$var wire 1 U! cnt2[5]~43 $end
$var wire 1 V! cnt2[6]~45 $end
$var wire 1 W! cnt2[7]~46_combout $end
$var wire 1 X! cnt2[7]~47 $end
$var wire 1 Y! cnt2[8]~48_combout $end
$var wire 1 Z! cnt2[8]~49 $end
$var wire 1 [! cnt2[9]~50_combout $end
$var wire 1 \! cnt2[9]~51 $end
$var wire 1 ]! cnt2[10]~52_combout $end
$var wire 1 ^! cnt2[10]~53 $end
$var wire 1 _! cnt2[11]~55 $end
$var wire 1 `! cnt2[12]~56_combout $end
$var wire 1 a! cnt2[12]~57 $end
$var wire 1 b! cnt2[13]~59 $end
$var wire 1 c! cnt2[14]~61_combout $end
$var wire 1 d! cnt2[14]~62 $end
$var wire 1 e! cnt2[15]~64 $end
$var wire 1 f! cnt2[16]~65_combout $end
$var wire 1 g! cnt2[16]~66 $end
$var wire 1 h! cnt2[17]~68 $end
$var wire 1 i! cnt2[18]~69_combout $end
$var wire 1 j! cnt2[18]~70 $end
$var wire 1 k! cnt2[19]~72 $end
$var wire 1 l! cnt2[20]~73_combout $end
$var wire 1 m! cnt2[20]~74 $end
$var wire 1 n! cnt2[21]~76 $end
$var wire 1 o! cnt2[22]~78 $end
$var wire 1 p! cnt2[23]~79_combout $end
$var wire 1 q! cnt2[23]~80 $end
$var wire 1 r! cnt2[24]~81_combout $end
$var wire 1 s! cnt2[24]~82 $end
$var wire 1 t! cnt2[25]~83_combout $end
$var wire 1 u! cnt2[22]~77_combout $end
$var wire 1 v! LessThan1~7_combout $end
$var wire 1 w! cnt2[25]~84 $end
$var wire 1 x! cnt2[26]~85_combout $end
$var wire 1 y! cnt2[26]~86 $end
$var wire 1 z! cnt2[27]~88 $end
$var wire 1 {! cnt2[28]~89_combout $end
$var wire 1 |! cnt2[28]~90 $end
$var wire 1 }! cnt2[29]~92 $end
$var wire 1 ~! cnt2[30]~93_combout $end
$var wire 1 !" cnt2[30]~94 $end
$var wire 1 "" cnt2[31]~95_combout $end
$var wire 1 #" cnt2[29]~91_combout $end
$var wire 1 $" LessThan1~8_combout $end
$var wire 1 %" LessThan1~9_combout $end
$var wire 1 &" cnt2[17]~67_combout $end
$var wire 1 '" cnt2[15]~63_combout $end
$var wire 1 (" LessThan1~0_combout $end
$var wire 1 )" cnt2[11]~54_combout $end
$var wire 1 *" LessThan1~1_combout $end
$var wire 1 +" cnt2[3]~38_combout $end
$var wire 1 ," LessThan1~2_combout $end
$var wire 1 -" LessThan1~4_combout $end
$var wire 1 ." LessThan1~5_combout $end
$var wire 1 /" LessThan1~10_combout $end
$var wire 1 0" clk_100hz~0_combout $end
$var wire 1 1" clk_100hz~reg0_q $end
$var wire 1 2" cnt3[0]~32_combout $end
$var wire 1 3" cnt3[1]~78_combout $end
$var wire 1 4" cnt3[11]~54_combout $end
$var wire 1 5" cnt3[13]~58_combout $end
$var wire 1 6" LessThan2~7_combout $end
$var wire 1 7" LessThan2~8_combout $end
$var wire 1 8" cnt3[3]~38_combout $end
$var wire 1 9" LessThan2~5_combout $end
$var wire 1 :" LessThan2~4_combout $end
$var wire 1 ;" LessThan2~6_combout $end
$var wire 1 <" LessThan2~9_combout $end
$var wire 1 =" cnt3[18]~69 $end
$var wire 1 >" cnt3[19]~71 $end
$var wire 1 ?" cnt3[20]~72_combout $end
$var wire 1 @" cnt3[20]~73 $end
$var wire 1 A" cnt3[21]~75 $end
$var wire 1 B" cnt3[22]~77 $end
$var wire 1 C" cnt3[23]~80_combout $end
$var wire 1 D" cnt3[23]~81 $end
$var wire 1 E" cnt3[24]~82_combout $end
$var wire 1 F" cnt3[24]~83 $end
$var wire 1 G" cnt3[25]~84_combout $end
$var wire 1 H" cnt3[25]~85 $end
$var wire 1 I" cnt3[26]~86_combout $end
$var wire 1 J" cnt3[26]~87 $end
$var wire 1 K" cnt3[27]~89 $end
$var wire 1 L" cnt3[28]~90_combout $end
$var wire 1 M" cnt3[28]~91 $end
$var wire 1 N" cnt3[29]~93 $end
$var wire 1 O" cnt3[30]~94_combout $end
$var wire 1 P" cnt3[30]~95 $end
$var wire 1 Q" cnt3[31]~96_combout $end
$var wire 1 R" cnt3[27]~88_combout $end
$var wire 1 S" LessThan2~1_combout $end
$var wire 1 T" LessThan2~2_combout $end
$var wire 1 U" cnt3[1]~79_combout $end
$var wire 1 V" cnt3[0]~33 $end
$var wire 1 W" cnt3[1]~34_combout $end
$var wire 1 X" cnt3[1]~35 $end
$var wire 1 Y" cnt3[2]~36_combout $end
$var wire 1 Z" cnt3[2]~37 $end
$var wire 1 [" cnt3[3]~39 $end
$var wire 1 \" cnt3[4]~40_combout $end
$var wire 1 ]" cnt3[4]~41 $end
$var wire 1 ^" cnt3[5]~43 $end
$var wire 1 _" cnt3[6]~45 $end
$var wire 1 `" cnt3[7]~46_combout $end
$var wire 1 a" cnt3[7]~47 $end
$var wire 1 b" cnt3[8]~48_combout $end
$var wire 1 c" cnt3[8]~49 $end
$var wire 1 d" cnt3[9]~50_combout $end
$var wire 1 e" cnt3[9]~51 $end
$var wire 1 f" cnt3[10]~52_combout $end
$var wire 1 g" cnt3[10]~53 $end
$var wire 1 h" cnt3[11]~55 $end
$var wire 1 i" cnt3[12]~56_combout $end
$var wire 1 j" cnt3[12]~57 $end
$var wire 1 k" cnt3[13]~59 $end
$var wire 1 l" cnt3[14]~60_combout $end
$var wire 1 m" cnt3[14]~61 $end
$var wire 1 n" cnt3[15]~63 $end
$var wire 1 o" cnt3[16]~64_combout $end
$var wire 1 p" cnt3[16]~65 $end
$var wire 1 q" cnt3[17]~66_combout $end
$var wire 1 r" cnt3[17]~67 $end
$var wire 1 s" cnt3[18]~68_combout $end
$var wire 1 t" LessThan2~10_combout $end
$var wire 1 u" LessThan2~11_combout $end
$var wire 1 v" clk_10hz~0_combout $end
$var wire 1 w" clk_10hz~reg0_q $end
$var wire 1 x" cnt4[0]~32_combout $end
$var wire 1 y" cnt4[0]~84_combout $end
$var wire 1 z" cnt4[0]~33 $end
$var wire 1 {" cnt4[1]~34_combout $end
$var wire 1 |" cnt4[1]~35 $end
$var wire 1 }" cnt4[2]~36_combout $end
$var wire 1 ~" cnt4[2]~37 $end
$var wire 1 !# cnt4[3]~39 $end
$var wire 1 "# cnt4[4]~40_combout $end
$var wire 1 ## cnt4[4]~41 $end
$var wire 1 $# cnt4[5]~43 $end
$var wire 1 %# cnt4[6]~45 $end
$var wire 1 &# cnt4[7]~46_combout $end
$var wire 1 '# cnt4[7]~47 $end
$var wire 1 (# cnt4[8]~48_combout $end
$var wire 1 )# cnt4[8]~49 $end
$var wire 1 *# cnt4[9]~50_combout $end
$var wire 1 +# cnt4[9]~51 $end
$var wire 1 ,# cnt4[10]~52_combout $end
$var wire 1 -# cnt4[10]~53 $end
$var wire 1 .# cnt4[11]~55 $end
$var wire 1 /# cnt4[12]~56_combout $end
$var wire 1 0# cnt4[12]~57 $end
$var wire 1 1# cnt4[13]~59 $end
$var wire 1 2# cnt4[14]~61 $end
$var wire 1 3# cnt4[15]~62_combout $end
$var wire 1 4# cnt4[15]~63 $end
$var wire 1 5# cnt4[16]~64_combout $end
$var wire 1 6# cnt4[16]~65 $end
$var wire 1 7# cnt4[17]~66_combout $end
$var wire 1 8# cnt4[17]~67 $end
$var wire 1 9# cnt4[18]~68_combout $end
$var wire 1 :# cnt4[18]~69 $end
$var wire 1 ;# cnt4[19]~71 $end
$var wire 1 <# cnt4[20]~72_combout $end
$var wire 1 =# cnt4[20]~73 $end
$var wire 1 ># cnt4[21]~75 $end
$var wire 1 ?# cnt4[22]~77 $end
$var wire 1 @# cnt4[23]~78_combout $end
$var wire 1 A# cnt4[14]~60_combout $end
$var wire 1 B# cnt4[11]~54_combout $end
$var wire 1 C# LessThan3~7_combout $end
$var wire 1 D# LessThan3~8_combout $end
$var wire 1 E# cnt4[19]~70_combout $end
$var wire 1 F# LessThan3~9_combout $end
$var wire 1 G# cnt4[22]~76_combout $end
$var wire 1 H# LessThan3~10_combout $end
$var wire 1 I# LessThan3~11_combout $end
$var wire 1 J# cnt4[3]~38_combout $end
$var wire 1 K# LessThan3~4_combout $end
$var wire 1 L# cnt4[5]~42_combout $end
$var wire 1 M# LessThan3~5_combout $end
$var wire 1 N# LessThan3~3_combout $end
$var wire 1 O# LessThan3~6_combout $end
$var wire 1 P# LessThan3~12_combout $end
$var wire 1 Q# clk_1hz~0_combout $end
$var wire 1 R# clk_1hz~reg0_q $end
$var wire 1 S# cnt4 [31] $end
$var wire 1 T# cnt4 [30] $end
$var wire 1 U# cnt4 [29] $end
$var wire 1 V# cnt4 [28] $end
$var wire 1 W# cnt4 [27] $end
$var wire 1 X# cnt4 [26] $end
$var wire 1 Y# cnt4 [25] $end
$var wire 1 Z# cnt4 [24] $end
$var wire 1 [# cnt4 [23] $end
$var wire 1 \# cnt4 [22] $end
$var wire 1 ]# cnt4 [21] $end
$var wire 1 ^# cnt4 [20] $end
$var wire 1 _# cnt4 [19] $end
$var wire 1 `# cnt4 [18] $end
$var wire 1 a# cnt4 [17] $end
$var wire 1 b# cnt4 [16] $end
$var wire 1 c# cnt4 [15] $end
$var wire 1 d# cnt4 [14] $end
$var wire 1 e# cnt4 [13] $end
$var wire 1 f# cnt4 [12] $end
$var wire 1 g# cnt4 [11] $end
$var wire 1 h# cnt4 [10] $end
$var wire 1 i# cnt4 [9] $end
$var wire 1 j# cnt4 [8] $end
$var wire 1 k# cnt4 [7] $end
$var wire 1 l# cnt4 [6] $end
$var wire 1 m# cnt4 [5] $end
$var wire 1 n# cnt4 [4] $end
$var wire 1 o# cnt4 [3] $end
$var wire 1 p# cnt4 [2] $end
$var wire 1 q# cnt4 [1] $end
$var wire 1 r# cnt4 [0] $end
$var wire 1 s# cnt3 [31] $end
$var wire 1 t# cnt3 [30] $end
$var wire 1 u# cnt3 [29] $end
$var wire 1 v# cnt3 [28] $end
$var wire 1 w# cnt3 [27] $end
$var wire 1 x# cnt3 [26] $end
$var wire 1 y# cnt3 [25] $end
$var wire 1 z# cnt3 [24] $end
$var wire 1 {# cnt3 [23] $end
$var wire 1 |# cnt3 [22] $end
$var wire 1 }# cnt3 [21] $end
$var wire 1 ~# cnt3 [20] $end
$var wire 1 !$ cnt3 [19] $end
$var wire 1 "$ cnt3 [18] $end
$var wire 1 #$ cnt3 [17] $end
$var wire 1 $$ cnt3 [16] $end
$var wire 1 %$ cnt3 [15] $end
$var wire 1 &$ cnt3 [14] $end
$var wire 1 '$ cnt3 [13] $end
$var wire 1 ($ cnt3 [12] $end
$var wire 1 )$ cnt3 [11] $end
$var wire 1 *$ cnt3 [10] $end
$var wire 1 +$ cnt3 [9] $end
$var wire 1 ,$ cnt3 [8] $end
$var wire 1 -$ cnt3 [7] $end
$var wire 1 .$ cnt3 [6] $end
$var wire 1 /$ cnt3 [5] $end
$var wire 1 0$ cnt3 [4] $end
$var wire 1 1$ cnt3 [3] $end
$var wire 1 2$ cnt3 [2] $end
$var wire 1 3$ cnt3 [1] $end
$var wire 1 4$ cnt3 [0] $end
$var wire 1 5$ cnt2 [31] $end
$var wire 1 6$ cnt2 [30] $end
$var wire 1 7$ cnt2 [29] $end
$var wire 1 8$ cnt2 [28] $end
$var wire 1 9$ cnt2 [27] $end
$var wire 1 :$ cnt2 [26] $end
$var wire 1 ;$ cnt2 [25] $end
$var wire 1 <$ cnt2 [24] $end
$var wire 1 =$ cnt2 [23] $end
$var wire 1 >$ cnt2 [22] $end
$var wire 1 ?$ cnt2 [21] $end
$var wire 1 @$ cnt2 [20] $end
$var wire 1 A$ cnt2 [19] $end
$var wire 1 B$ cnt2 [18] $end
$var wire 1 C$ cnt2 [17] $end
$var wire 1 D$ cnt2 [16] $end
$var wire 1 E$ cnt2 [15] $end
$var wire 1 F$ cnt2 [14] $end
$var wire 1 G$ cnt2 [13] $end
$var wire 1 H$ cnt2 [12] $end
$var wire 1 I$ cnt2 [11] $end
$var wire 1 J$ cnt2 [10] $end
$var wire 1 K$ cnt2 [9] $end
$var wire 1 L$ cnt2 [8] $end
$var wire 1 M$ cnt2 [7] $end
$var wire 1 N$ cnt2 [6] $end
$var wire 1 O$ cnt2 [5] $end
$var wire 1 P$ cnt2 [4] $end
$var wire 1 Q$ cnt2 [3] $end
$var wire 1 R$ cnt2 [2] $end
$var wire 1 S$ cnt2 [1] $end
$var wire 1 T$ cnt2 [0] $end
$var wire 1 U$ cnt1 [31] $end
$var wire 1 V$ cnt1 [30] $end
$var wire 1 W$ cnt1 [29] $end
$var wire 1 X$ cnt1 [28] $end
$var wire 1 Y$ cnt1 [27] $end
$var wire 1 Z$ cnt1 [26] $end
$var wire 1 [$ cnt1 [25] $end
$var wire 1 \$ cnt1 [24] $end
$var wire 1 ]$ cnt1 [23] $end
$var wire 1 ^$ cnt1 [22] $end
$var wire 1 _$ cnt1 [21] $end
$var wire 1 `$ cnt1 [20] $end
$var wire 1 a$ cnt1 [19] $end
$var wire 1 b$ cnt1 [18] $end
$var wire 1 c$ cnt1 [17] $end
$var wire 1 d$ cnt1 [16] $end
$var wire 1 e$ cnt1 [15] $end
$var wire 1 f$ cnt1 [14] $end
$var wire 1 g$ cnt1 [13] $end
$var wire 1 h$ cnt1 [12] $end
$var wire 1 i$ cnt1 [11] $end
$var wire 1 j$ cnt1 [10] $end
$var wire 1 k$ cnt1 [9] $end
$var wire 1 l$ cnt1 [8] $end
$var wire 1 m$ cnt1 [7] $end
$var wire 1 n$ cnt1 [6] $end
$var wire 1 o$ cnt1 [5] $end
$var wire 1 p$ cnt1 [4] $end
$var wire 1 q$ cnt1 [3] $end
$var wire 1 r$ cnt1 [2] $end
$var wire 1 s$ cnt1 [1] $end
$var wire 1 t$ cnt1 [0] $end
$upscope $end
$upscope $end
$enddefinitions $end
#0
$dumpvars
0!
0"
x#
x$
x%
x&
x'
0(
1)
x*
1+
1,
1-
x.
x/
x0
x1
x2
x3
x4
x5
x6
x7
x8
x9
x:
x;
x<
x=
x>
x?
x@
xA
xB
xC
xD
xE
xF
xG
xH
xI
xJ
xK
xL
xM
xN
xO
xP
xQ
xR
xS
xT
xU
xV
xW
xX
xY
xZ
x[
x\
x]
x^
0_
x`
0a
xb
xc
xd
xe
xf
xg
xh
xi
xj
xk
xl
xm
xn
xo
xp
xq
xr
xs
xt
xu
xv
xw
xx
xy
xz
x{
x|
x}
x~
x!!
x"!
x#!
x$!
x%!
x&!
x'!
x(!
x)!
x*!
x+!
x,!
x-!
x.!
x/!
x0!
x1!
x2!
x3!
x4!
x5!
x6!
x7!
x8!
x9!
x:!
x;!
x<!
x=!
x>!
x?!
x@!
xA!
xB!
xC!
xD!
xE!
xF!
xG!
xH!
xI!
0J!
xK!
xL!
xM!
xN!
xO!
xP!
xQ!
xR!
xS!
xT!
xU!
xV!
xW!
xX!
xY!
xZ!
x[!
x\!
x]!
x^!
x_!
x`!
xa!
xb!
xc!
xd!
xe!
xf!
xg!
xh!
xi!
xj!
xk!
xl!
xm!
xn!
xo!
xp!
xq!
xr!
xs!
xt!
xu!
xv!
xw!
xx!
xy!
xz!
x{!
x|!
x}!
x~!
x!"
x""
x#"
x$"
x%"
x&"
x'"
x("
x)"
x*"
x+"
x,"
x-"
x."
x/"
x0"
01"
x2"
x3"
x4"
x5"
x6"
x7"
x8"
x9"
x:"
x;"
x<"
x="
x>"
x?"
x@"
xA"
xB"
xC"
xD"
xE"
xF"
xG"
xH"
xI"
xJ"
xK"
xL"
xM"
xN"
xO"
xP"
xQ"
xR"
xS"
xT"
xU"
xV"
xW"
xX"
xY"
xZ"
x["
x\"
x]"
x^"
x_"
x`"
xa"
xb"
xc"
xd"
xe"
xf"
xg"
xh"
xi"
xj"
xk"
xl"
xm"
xn"
xo"
xp"
xq"
xr"
xs"
xt"
xu"
xv"
0w"
xx"
xy"
xz"
x{"
x|"
x}"
x~"
x!#
x"#
x##
x$#
x%#
x&#
x'#
x(#
x)#
x*#
x+#
x,#
x-#
x.#
x/#
x0#
x1#
x2#
x3#
x4#
x5#
x6#
x7#
x8#
x9#
x:#
x;#
x<#
x=#
x>#
x?#
x@#
xA#
xB#
1C#
xD#
xE#
xF#
xG#
xH#
xI#
xJ#
xK#
xL#
xM#
xN#
xO#
xP#
xQ#
0R#
0r#
0q#
0p#
0o#
0n#
0m#
0l#
0k#
0j#
0i#
0h#
0g#
0f#
0e#
0d#
0c#
0b#
0a#
0`#
0_#
0^#
0]#
0\#
0[#
0Z#
0Y#
0X#
0W#
0V#
0U#
0T#
0S#
04$
03$
02$
01$
00$
0/$
0.$
0-$
0,$
0+$
0*$
0)$
0($
0'$
0&$
0%$
0$$
0#$
0"$
0!$
0~#
0}#
0|#
0{#
0z#
0y#
0x#
0w#
0v#
0u#
0t#
0s#
0T$
0S$
0R$
0Q$
0P$
0O$
0N$
0M$
0L$
0K$
0J$
0I$
0H$
0G$
0F$
0E$
0D$
0C$
0B$
0A$
0@$
0?$
0>$
0=$
0<$
0;$
0:$
09$
08$
07$
06$
05$
0t$
0s$
0r$
0q$
0p$
0o$
0n$
0m$
0l$
0k$
0j$
0i$
0h$
0g$
0f$
0e$
0d$
0c$
0b$
0a$
0`$
0_$
0^$
0]$
0\$
0[$
0Z$
0Y$
0X$
0W$
0V$
0U$
$end
#176
0`
#567
1S
#746
1H#
#845
0("
#853
0z"
0V"
0M!
0d
#854
06#
0~"
0p"
0Z"
0g!
0Q!
0"!
0h
#855
0:#
0##
0="
0m"
0j"
0]"
0d!
0a!
0T!
0&!
0y
0k
#856
0)#
0c"
0Z!
0q
#857
0=#
0-#
0g"
0P"
0M"
0@"
0!"
0|!
0m!
0^!
09!
06!
0)!
0P
0L
#858
0J"
0F"
0y!
0s!
03!
0/!
0D
0H
#861
0m
0%#
0_"
0V!
#862
0?#
0o!
0+!
0B"
#872
1,"
19"
#904
1b
1K!
12"
1x"
#908
17"
#912
16"
#927
1h!
#929
1s
#996
1!#
1["
1k"
1R!
1e!
1n"
1b!
1i
1~
#997
1$#
1;#
1.#
1h"
1_!
1'!
1^"
1>"
1k!
1U!
1l
1|"
1X"
1O!
1f
#998
1K"
1}!
14!
1N
1J
1N"
1z!
17!
18#
1r"
#999
1*!
1>#
1A"
1n!
#1000
1'#
1a"
1X!
1o
#1001
1+#
1e"
1\!
#1002
1B
1H"
1D"
1w!
1q!
11!
1-!
1F
#1018
0j!
#1038
1F#
#1052
0}
#1054
1R
#1069
1."
#1072
1M#
#1084
1U
#1090
1X
#1094
1S"
#1105
1T
#1114
1*"
#1135
1D#
#1149
1:"
#1185
1>!
#1192
1A!
#1197
1{
#1200
1$!
#1263
1Z
#1295
0u
#1311
1I#
#1332
1?!
#1352
00#
#1362
1K#
#1367
02#
#1378
1C!
#1379
1W
#1395
1$"
#1405
1t"
#1430
0e
0N!
0W"
0{"
0r
#1431
0.
0#!
0+"
08"
0q"
0J#
07#
1N#
#1432
0/
0z
0;!
02
04
0'"
08
05"
0:
0;
0L#
0E#
#1433
0[!
0d"
0*#
#1434
0M
0Q
0<!
01
0:!
0)"
06
0#"
0""
0<
0>
0Q"
04"
0B#
0A
#1435
0I
0E
00!
0@!
0t!
07
0G"
0R"
#1438
0W!
0`"
0&#
0n
#1439
0C"
0,!
0p!
0@#
#1457
11#
#1462
1V
#1470
0&"
#1488
14#
#1504
0i!
#1506
0t
#1522
1w
#1564
1;"
#1573
0!!
0j
0c!
0o"
0f!
0S!
0l"
0\"
0"#
#1574
0g
0P!
0Y"
0}"
0D!
03
0l!
0?"
09
0(!
0`!
0i"
0/#
0<#
0?
#1575
0s"
09#
08!
0{!
0O"
0K
0O
05!
0~!
0L"
#1576
0u!
0=
0G#
0=!
#1577
0p
0Y!
0b"
0(#
#1578
0]!
0f"
0,#
#1579
0G
0.!
02!
0r!
0x!
0E"
0I"
0C
#1595
05
#1629
00
#1643
1v!
#1653
1Y
#1665
13"
#1678
1-"
#1724
1E!
#1774
0|
#1777
0%!
#1811
1%"
#1848
1O#
#1853
0F!
#1872
0v
#1894
1B!
#1929
0@
#1941
1G!
#1944
03#
#2034
0A#
#2065
05#
#2099
0x
#2111
1<"
#2146
1T"
#2370
1/"
#2386
1P#
#2456
1H!
#2568
1u"
#2788
0Q#
#2861
0I!
#2960
0v"
#3316
00"
#3508
0]
0%
#3661
0^
0#
#4043
0[
0$
#4406
0\
0&
#4409
1c
#4568
1U"
#5013
1L!
#5045
1y"
#10000
1!
0'
#10897
1_
#11083
1`
#20000
0!
1'
#20948
0_
#21124
0`
#30000
1!
0'
#30897
1_
#31083
1`
#40000
0!
1'
#40948
0_
#41124
0`
#50000
1!
0'
#50897
1_
#51083
1`
#60000
0!
1'
#60948
0_
#61124
0`
#70000
1!
0'
#70897
1_
#71083
1`
#80000
0!
1'
#80948
0_
#81124
0`
#90000
1!
0'
#90897
1_
#91083
1`
#100000
1"
0!
1'
#100867
1a
#100948
0_
#101124
0`
#105060
0c
#105215
0U"
#105660
0L!
#105680
0y"
#110000
1!
0'
#110897
1_
#111083
1`
#113469
14$
#113498
1T$
1r#
#113968
1t$
#114298
02"
#114327
0x"
0K!
#114390
1V"
#114419
1M!
1z"
#114797
0b
#114889
1d
#114997
1W"
#115026
1{"
1N!
#115496
1e
#120000
0!
1'
#120948
0_
#121124
0`
#130000
1!
0'
#130897
1_
#131083
1`
#133469
04$
13$
#133474
1s$
#133498
0T$
1S$
0r#
1q#
#133968
0t$
#134246
0X"
#134251
0f
#134275
0O!
0|"
#134312
0W"
#134317
0e
#134322
0V"
#134341
0{"
0N!
#134351
0M!
0z"
#134373
12"
#134395
1X"
#134402
1x"
1K!
#134424
1O!
1|"
#134821
0d
#134858
1g
#134872
1b
#134894
1f
#134929
1W"
#134958
1{"
1N!
#135428
1e
#135471
0g
#140000
0!
1'
#140948
0_
#141124
0`
#150000
1!
0'
#150897
1_
#151083
1`
#153469
14$
#153498
1T$
1r#
#153968
1t$
#154298
02"
#154327
0x"
0K!
#154390
1V"
#154419
1M!
1z"
#154463
0X"
#154492
0O!
0|"
#154797
0b
#154889
1d
#154962
0f
#154967
0W"
#154996
0{"
0N!
#155070
1Y"
#155099
1}"
1P!
#155466
0e
#155569
1g
#160000
0!
1'
#160948
0_
#161124
0`
#170000
1!
0'
#170897
1_
#171083
1`
#173469
04$
03$
12$
#173474
0s$
1r$
#173498
0T$
0S$
1R$
0r#
0q#
1p#
#173968
0t$
#174299
0Y"
#174304
0g
#174322
0V"
#174328
0}"
0P!
#174351
0M!
0z"
#174373
12"
#174379
1e
#174391
1Z"
#174396
1h
#174402
1x"
1K!
#174420
1Q!
1~"
#174466
1X"
#174471
1f
#174495
1O!
1|"
#174539
0Z"
#174544
0h
#174568
0Q!
0~"
#174821
0d
#174872
1b
#175073
1Y"
#175078
1g
#175102
1}"
1P!
#175398
0e
#180000
0!
1'
#180948
0_
#181124
0`
#190000
1!
0'
#190897
1_
#191083
1`
#193469
14$
#193498
1T$
1r#
#193968
1t$
#194298
02"
#194327
0x"
0K!
#194390
1V"
#194419
1M!
1z"
