数字逻辑全套/实验/210710_43/Experiment6/expand_task/simulation/qsim/expand_task.msim.vcd
$comment
	File created using the following command:
		vcd file expand_task.msim.vcd -direction
$end
$date
	Sat Jan 14 11:25:08 2023
$end
$version
	ModelSim Version 10.1d
$end
$timescale
	1ps
$end
$scope module expand_task_vlg_vec_tst $end
$var reg 1 ! clk_50mhz $end
$var wire 1 " I_COL [3] $end
$var wire 1 # I_COL [2] $end
$var wire 1 $ I_COL [1] $end
$var wire 1 % I_COL [0] $end
$var wire 1 & I_ROW [15] $end
$var wire 1 ' I_ROW [14] $end
$var wire 1 ( I_ROW [13] $end
$var wire 1 ) I_ROW [12] $end
$var wire 1 * I_ROW [11] $end
$var wire 1 + I_ROW [10] $end
$var wire 1 , I_ROW [9] $end
$var wire 1 - I_ROW [8] $end
$var wire 1 . I_ROW [7] $end
$var wire 1 / I_ROW [6] $end
$var wire 1 0 I_ROW [5] $end
$var wire 1 1 I_ROW [4] $end
$var wire 1 2 I_ROW [3] $end
$var wire 1 3 I_ROW [2] $end
$var wire 1 4 I_ROW [1] $end
$var wire 1 5 I_ROW [0] $end
$var wire 1 6 out $end
$var wire 1 7 sampler $end
$scope module i1 $end
$var wire 1 8 gnd $end
$var wire 1 9 vcc $end
$var wire 1 : unknown $end
$var tri1 1 ; devclrn $end
$var tri1 1 < devpor $end
$var tri1 1 = devoe $end
$var wire 1 > comb_4|cnt2[5]~42_combout $end
$var wire 1 ? comb_4|cnt2[15]~62_combout $end
$var wire 1 @ comb_4|cnt2[19]~70_combout $end
$var wire 1 A comb_4|cnt2[21]~74_combout $end
$var wire 1 B comb_4|cnt2[27]~86_combout $end
$var wire 1 C comb_4|cnt2[28]~89 $end
$var wire 1 D comb_4|cnt2[29]~90_combout $end
$var wire 1 E comb_4|cnt2[29]~91 $end
$var wire 1 F comb_4|cnt2[30]~92_combout $end
$var wire 1 G comb_4|cnt2[30]~93 $end
$var wire 1 H comb_4|cnt2[31]~94_combout $end
$var wire 1 I comb_5|WideOr28~0_combout $end
$var wire 1 J comb_5|Mux6~2_combout $end
$var wire 1 K comb_5|WideOr10~0_combout $end
$var wire 1 L comb_5|WideOr21~0_combout $end
$var wire 1 M comb_5|WideOr9~0_combout $end
$var wire 1 N comb_5|WideOr2~0_combout $end
$var wire 1 O comb_5|WideOr8~0_combout $end
$var wire 1 P comb_5|Mux1~0_combout $end
$var wire 1 Q comb_5|WideOr7~0_combout $end
$var wire 1 R comb_5|WideOr0~0_combout $end
$var wire 1 S comb_5|Mux0~2_combout $end
$var wire 1 T comb_4|LessThan1~4_combout $end
$var wire 1 U comb_4|LessThan1~6_combout $end
$var wire 1 V comb_4|clk_1hz~clkctrl_outclk $end
$var wire 1 W I_COL[0]~output_o $end
$var wire 1 X I_COL[1]~output_o $end
$var wire 1 Y I_COL[2]~output_o $end
$var wire 1 Z I_COL[3]~output_o $end
$var wire 1 [ I_ROW[0]~output_o $end
$var wire 1 \ I_ROW[1]~output_o $end
$var wire 1 ] I_ROW[2]~output_o $end
$var wire 1 ^ I_ROW[3]~output_o $end
$var wire 1 _ I_ROW[4]~output_o $end
$var wire 1 ` I_ROW[5]~output_o $end
$var wire 1 a I_ROW[6]~output_o $end
$var wire 1 b I_ROW[7]~output_o $end
$var wire 1 c I_ROW[8]~output_o $end
$var wire 1 d I_ROW[9]~output_o $end
$var wire 1 e I_ROW[10]~output_o $end
$var wire 1 f I_ROW[11]~output_o $end
$var wire 1 g I_ROW[12]~output_o $end
$var wire 1 h I_ROW[13]~output_o $end
$var wire 1 i I_ROW[14]~output_o $end
$var wire 1 j I_ROW[15]~output_o $end
$var wire 1 k out~output_o $end
$var wire 1 l comb_4|clk~0_combout $end
$var wire 1 m comb_4|clk~feeder_combout $end
$var wire 1 n comb_4|clk~q $end
$var wire 1 o comb_4|clk~clkctrl_outclk $end
$var wire 1 p comb_5|I_COL[0]~3_combout $end
$var wire 1 q comb_5|I_COL[1]~0_combout $end
$var wire 1 r comb_5|I_COL[2]~1_combout $end
$var wire 1 s comb_5|I_COL[3]~2_combout $end
$var wire 1 t comb_5|counter~0_combout $end
$var wire 1 u comb_5|counter~2_combout $end
$var wire 1 v comb_5|counter~1_combout $end
$var wire 1 w comb_5|Decoder2~0_combout $end
$var wire 1 x comb_5|I_ROW[0]~12_combout $end
$var wire 1 y comb_5|I_ROW[0]~2_combout $end
$var wire 1 z comb_5|I_ROW[1]~3_combout $end
$var wire 1 { comb_5|I_ROW[0]~4_combout $end
$var wire 1 | comb_5|WideOr22~0_combout $end
$var wire 1 } comb_5|Mux11~0_combout $end
$var wire 1 ~ comb_5|Mux11~1_combout $end
$var wire 1 !! comb_5|Mux11~2_combout $end
$var wire 1 "! comb_5|Mux11~3_combout $end
$var wire 1 #! comb_5|Mux10~8_combout $end
$var wire 1 $! comb_5|Mux10~6_combout $end
$var wire 1 %! comb_5|WideOr29~0_combout $end
$var wire 1 &! comb_5|Mux10~5_combout $end
$var wire 1 '! comb_5|WideOr4~0_combout $end
$var wire 1 (! comb_5|Mux10~7_combout $end
$var wire 1 )! comb_5|Mux10~3_combout $end
$var wire 1 *! comb_5|Mux10~0_combout $end
$var wire 1 +! comb_5|Mux10~1_combout $end
$var wire 1 ,! comb_5|Mux10~2_combout $end
$var wire 1 -! comb_5|Mux10~4_combout $end
$var wire 1 .! comb_5|WideOr14~0_combout $end
$var wire 1 /! comb_5|Mux10~9_combout $end
$var wire 1 0! comb_5|Mux9~1_combout $end
$var wire 1 1! comb_5|Mux8~0_combout $end
$var wire 1 2! comb_5|I_ROW~5_combout $end
$var wire 1 3! comb_5|Mux9~0_combout $end
$var wire 1 4! comb_5|Mux9~2_combout $end
$var wire 1 5! comb_5|WideOr13~0_combout $end
$var wire 1 6! comb_5|WideOr5~0_combout $end
$var wire 1 7! comb_5|Mux8~2_combout $end
$var wire 1 8! comb_5|Mux8~3_combout $end
$var wire 1 9! comb_5|Mux10~10_combout $end
$var wire 1 :! comb_5|Mux8~1_combout $end
$var wire 1 ;! comb_5|Mux8~4_combout $end
$var wire 1 <! comb_5|I_ROW~6_combout $end
$var wire 1 =! comb_5|Mux7~2_combout $end
$var wire 1 >! comb_5|Mux7~0_combout $end
$var wire 1 ?! comb_5|Mux7~1_combout $end
$var wire 1 @! comb_5|Mux7~3_combout $end
$var wire 1 A! comb_5|WideOr27~0_combout $end
$var wire 1 B! comb_5|Decoder2~1_combout $end
$var wire 1 C! comb_5|WideOr12~0_combout $end
$var wire 1 D! comb_5|Mux6~0_combout $end
$var wire 1 E! comb_5|WideOr15~0_combout $end
$var wire 1 F! comb_5|WideOr3~0_combout $end
$var wire 1 G! comb_5|Mux6~1_combout $end
$var wire 1 H! comb_5|Mux6~3_combout $end
$var wire 1 I! comb_5|Mux6~4_combout $end
$var wire 1 J! comb_5|WideOr18~0_combout $end
$var wire 1 K! comb_5|WideOr11~0_combout $end
$var wire 1 L! comb_5|I_ROW~8_combout $end
$var wire 1 M! comb_5|I_ROW~7_combout $end
$var wire 1 N! comb_5|Mux11~4_combout $end
$var wire 1 O! comb_5|Mux11~5_combout $end
$var wire 1 P! comb_5|Mux5~0_combout $end
$var wire 1 Q! comb_5|Mux4~0_combout $end
$var wire 1 R! comb_5|I_ROW~9_combout $end
$var wire 1 S! comb_5|WideOr1~0_combout $end
$var wire 1 T! comb_5|Mux4~1_combout $end
$var wire 1 U! comb_5|WideOr17~0_combout $end
$var wire 1 V! comb_5|Mux4~2_combout $end
$var wire 1 W! comb_5|Mux4~3_combout $end
$var wire 1 X! comb_5|Mux3~1_combout $end
$var wire 1 Y! comb_5|WideOr16~0_combout $end
$var wire 1 Z! comb_5|Mux3~2_combout $end
$var wire 1 [! comb_5|WideOr26~0_combout $end
$var wire 1 \! comb_5|Mux3~0_combout $end
$var wire 1 ]! comb_5|Mux3~3_combout $end
$var wire 1 ^! comb_5|I_ROW~10_combout $end
$var wire 1 _! comb_5|I_ROW~11_combout $end
$var wire 1 `! comb_5|Mux2~0_combout $end
$var wire 1 a! comb_5|Mux2~1_combout $end
$var wire 1 b! comb_5|Mux2~2_combout $end
$var wire 1 c! comb_5|Mux2~3_combout $end
$var wire 1 d! comb_5|WideOr20~0_combout $end
$var wire 1 e! comb_5|Mux1~1_combout $end
$var wire 1 f! comb_5|Mux1~2_combout $end
$var wire 1 g! comb_5|Mux1~3_combout $end
$var wire 1 h! comb_5|Mux1~4_combout $end
$var wire 1 i! comb_5|WideOr19~0_combout $end
$var wire 1 j! comb_5|Mux0~0_combout $end
$var wire 1 k! comb_5|Mux0~1_combout $end
$var wire 1 l! comb_5|WideOr6~0_combout $end
$var wire 1 m! comb_5|Mux0~3_combout $end
$var wire 1 n! comb_5|Mux0~4_combout $end
$var wire 1 o! clk_50mhz~input_o $end
$var wire 1 p! clk_50mhz~inputclkctrl_outclk $end
$var wire 1 q! comb_4|cnt2[0]~32_combout $end
$var wire 1 r! comb_4|cnt2[0]~33 $end
$var wire 1 s! comb_4|cnt2[1]~34_combout $end
$var wire 1 t! comb_4|cnt2[1]~35 $end
$var wire 1 u! comb_4|cnt2[2]~36_combout $end
$var wire 1 v! comb_4|cnt2[2]~37 $end
$var wire 1 w! comb_4|cnt2[3]~39 $end
$var wire 1 x! comb_4|cnt2[4]~40_combout $end
$var wire 1 y! comb_4|cnt2[4]~41 $end
$var wire 1 z! comb_4|cnt2[5]~43 $end
$var wire 1 {! comb_4|cnt2[6]~45 $end
$var wire 1 |! comb_4|cnt2[7]~46_combout $end
$var wire 1 }! comb_4|cnt2[7]~47 $end
$var wire 1 ~! comb_4|cnt2[8]~48_combout $end
$var wire 1 !" comb_4|cnt2[8]~49 $end
$var wire 1 "" comb_4|cnt2[9]~50_combout $end
$var wire 1 #" comb_4|cnt2[9]~51 $end
$var wire 1 $" comb_4|cnt2[10]~52_combout $end
$var wire 1 %" comb_4|cnt2[10]~53 $end
$var wire 1 &" comb_4|cnt2[11]~55 $end
$var wire 1 '" comb_4|cnt2[12]~56_combout $end
$var wire 1 (" comb_4|cnt2[12]~57 $end
$var wire 1 )" comb_4|cnt2[13]~59 $end
$var wire 1 *" comb_4|cnt2[14]~60_combout $end
$var wire 1 +" comb_4|cnt2[13]~58_combout $end
$var wire 1 ," comb_4|cnt2[14]~61 $end
$var wire 1 -" comb_4|cnt2[15]~63 $end
$var wire 1 ." comb_4|cnt2[16]~64_combout $end
$var wire 1 /" comb_4|LessThan1~5_combout $end
$var wire 1 0" comb_4|cnt2[16]~65 $end
$var wire 1 1" comb_4|cnt2[17]~66_combout $end
$var wire 1 2" comb_4|cnt2[17]~67 $end
$var wire 1 3" comb_4|cnt2[18]~68_combout $end
$var wire 1 4" comb_4|cnt2[18]~69 $end
$var wire 1 5" comb_4|cnt2[19]~71 $end
$var wire 1 6" comb_4|cnt2[20]~72_combout $end
$var wire 1 7" comb_4|cnt2[20]~73 $end
$var wire 1 8" comb_4|cnt2[21]~75 $end
$var wire 1 9" comb_4|cnt2[22]~76_combout $end
$var wire 1 :" comb_4|cnt2[22]~77 $end
$var wire 1 ;" comb_4|cnt2[23]~78_combout $end
$var wire 1 <" comb_4|cnt2[23]~79 $end
$var wire 1 =" comb_4|cnt2[24]~80_combout $end
$var wire 1 >" comb_4|LessThan1~7_combout $end
$var wire 1 ?" comb_4|cnt2[24]~81 $end
$var wire 1 @" comb_4|cnt2[25]~82_combout $end
$var wire 1 A" comb_4|cnt2[25]~83 $end
$var wire 1 B" comb_4|cnt2[26]~84_combout $end
$var wire 1 C" comb_4|cnt2[26]~85 $end
$var wire 1 D" comb_4|cnt2[27]~87 $end
$var wire 1 E" comb_4|cnt2[28]~88_combout $end
$var wire 1 F" comb_4|LessThan1~8_combout $end
$var wire 1 G" comb_4|LessThan1~9_combout $end
$var wire 1 H" comb_4|LessThan1~10_combout $end
$var wire 1 I" comb_4|cnt2[3]~38_combout $end
$var wire 1 J" comb_4|LessThan1~2_combout $end
$var wire 1 K" comb_4|cnt2[11]~54_combout $end
$var wire 1 L" comb_4|LessThan1~1_combout $end
$var wire 1 M" comb_4|cnt2[6]~44_combout $end
$var wire 1 N" comb_4|LessThan1~0_combout $end
$var wire 1 O" comb_4|LessThan1~3_combout $end
$var wire 1 P" comb_4|clk_1hz~0_combout $end
$var wire 1 Q" comb_4|clk_1hz~feeder_combout $end
$var wire 1 R" comb_4|clk_1hz~q $end
$var wire 1 S" comb_5|I_COL [3] $end
$var wire 1 T" comb_5|I_COL [2] $end
$var wire 1 U" comb_5|I_COL [1] $end
$var wire 1 V" comb_5|I_COL [0] $end
$var wire 1 W" comb_4|cnt2 [31] $end
$var wire 1 X" comb_4|cnt2 [30] $end
$var wire 1 Y" comb_4|cnt2 [29] $end
$var wire 1 Z" comb_4|cnt2 [28] $end
$var wire 1 [" comb_4|cnt2 [27] $end
$var wire 1 \" comb_4|cnt2 [26] $end
$var wire 1 ]" comb_4|cnt2 [25] $end
$var wire 1 ^" comb_4|cnt2 [24] $end
$var wire 1 _" comb_4|cnt2 [23] $end
$var wire 1 `" comb_4|cnt2 [22] $end
$var wire 1 a" comb_4|cnt2 [21] $end
$var wire 1 b" comb_4|cnt2 [20] $end
$var wire 1 c" comb_4|cnt2 [19] $end
$var wire 1 d" comb_4|cnt2 [18] $end
$var wire 1 e" comb_4|cnt2 [17] $end
$var wire 1 f" comb_4|cnt2 [16] $end
$var wire 1 g" comb_4|cnt2 [15] $end
$var wire 1 h" comb_4|cnt2 [14] $end
$var wire 1 i" comb_4|cnt2 [13] $end
$var wire 1 j" comb_4|cnt2 [12] $end
$var wire 1 k" comb_4|cnt2 [11] $end
$var wire 1 l" comb_4|cnt2 [10] $end
$var wire 1 m" comb_4|cnt2 [9] $end
$var wire 1 n" comb_4|cnt2 [8] $end
$var wire 1 o" comb_4|cnt2 [7] $end
$var wire 1 p" comb_4|cnt2 [6] $end
$var wire 1 q" comb_4|cnt2 [5] $end
$var wire 1 r" comb_4|cnt2 [4] $end
$var wire 1 s" comb_4|cnt2 [3] $end
$var wire 1 t" comb_4|cnt2 [2] $end
$var wire 1 u" comb_4|cnt2 [1] $end
$var wire 1 v" comb_4|cnt2 [0] $end
$var wire 1 w" comb_5|counter [3] $end
$var wire 1 x" comb_5|counter [2] $end
$var wire 1 y" comb_5|counter [1] $end
$var wire 1 z" comb_5|counter [0] $end
$upscope $end
$upscope $end
$enddefinitions $end
#0
$dumpvars
0!
0%
0$
0#
0"
05
04
03
02
01
00
0/
0.
0-
0,
0+
0*
0)
0(
0'
0&
06
x7
08
19
x:
1;
1<
1=
0>
0?
0@
0A
0B
0C
0D
1E
0F
0G
0H
0I
0J
0K
0L
0M
0N
0O
0P
0Q
0R
0S
1T
1U
0V
0W
0X
0Y
0Z
0[
0\
0]
0^
0_
0`
0a
0b
0c
0d
0e
0f
0g
0h
0i
0j
0k
1l
1m
0n
0o
1p
0q
0r
0s
0t
1u
0v
0w
0x
1y
0z
1{
0|
0}
0~
0!!
0"!
0#!
0$!
0%!
0&!
0'!
0(!
0)!
0*!
0+!
0,!
0-!
0.!
0/!
00!
01!
02!
03!
04!
05!
06!
07!
08!
09!
0:!
0;!
0<!
0=!
0>!
0?!
0@!
0A!
0B!
0C!
0D!
0E!
0F!
0G!
0H!
0I!
0J!
0K!
0L!
0M!
0N!
0O!
0P!
0Q!
0R!
0S!
0T!
0U!
0V!
0W!
0X!
0Y!
0Z!
0[!
0\!
0]!
0^!
0_!
0`!
0a!
0b!
0c!
0d!
0e!
0f!
0g!
0h!
0i!
0j!
0k!
0l!
0m!
0n!
0o!
0p!
1q!
0r!
0s!
1t!
0u!
0v!
1w!
0x!
0y!
1z!
0{!
0|!
1}!
0~!
0!"
0""
1#"
0$"
0%"
1&"
0'"
0("
1)"
0*"
0+"
0,"
1-"
0."
1/"
00"
01"
12"
03"
04"
15"
06"
07"
18"
09"
0:"
0;"
1<"
0="
1>"
0?"
0@"
1A"
0B"
0C"
1D"
0E"
1F"
1G"
0H"
0I"
1J"
0K"
1L"
0M"
1N"
1O"
0P"
0Q"
0R"
0V"
0U"
0T"
0S"
0v"
0u"
0t"
0s"
0r"
0q"
0p"
0o"
0n"
0m"
0l"
0k"
0j"
0i"
0h"
0g"
0f"
0e"
0d"
0c"
0b"
0a"
0`"
0_"
0^"
0]"
0\"
0["
0Z"
0Y"
0X"
0W"
0z"
0y"
0x"
zw"
$end
#22000
1!
1o!
1p!
07
1v"
1n
1o
1r!
0q!
0l
1s!
0m
1V"
1~
1q
0p
1W
1%
1!!
1"!
1]
13
#24000
0!
0o!
0p!
17
#26000
1!
1o!
1p!
07
0v"
1u"
0n
0o
0r!
1q!
0t!
0s!
1l
1t!
1s!
1u!
1m
0u!
#28000
0!
0o!
0p!
17
#30000
1!
1o!
1p!
07
1v"
1n
1o
0J"
1r!
0q!
0l
0t!
0s!
0m
1u!
1U"
0V"
1Y!
1S!
1L!
1'!
1R
1N
1p
1X
0W
1$
0%
1a!
1T!
1f!
1N!
1S
1X!
1b!
1V!
1g!
1O!
1m!
1Z!
1c!
1W!
1h!
1P!
1n!
1]!
1f
1d
1g
1c
1h
1e
1*
1,
1)
1-
1(
1+
#32000
0!
0o!
0p!
17
#34000
1!
1o!
1p!
07
0v"
1t"
0u"
0n
0o
0r!
1q!
1v!
0u!
1t!
1s!
1l
0s!
1I"
0v!
1u!
1m
0I"
#36000
0!
0o!
0p!
17
#38000
1!
1o!
1p!
07
1v"
1n
1o
1r!
0q!
0l
1s!
0m
1V"
1j!
1^!
1[!
0Y!
1U!
0S!
0L!
1F!
1A!
16!
15!
1%!
1r
0q
0p
0R
0N
1L
1K
1I
1W
1%
0a!
0T!
0f!
0N!
1G!
0S
0X!
0b!
0V!
0g!
0O!
1H!
0m!
0Z!
0c!
0W!
0h!
0P!
1I!
0n!
0]!
0f
0d
0g
0c
1b
0h
0e
0*
0,
0)
0-
1.
0(
0+
#40000
0!
0o!
0p!
17
#42000
1!
1o!
1p!
07
0v"
1u"
0n
0o
0r!
1q!
0t!
0s!
1l
1t!
1s!
1v!
0u!
1m
0v!
1u!
1I"
0I"
#44000
0!
0o!
0p!
17
#46000
1!
1o!
1p!
07
1v"
1n
1o
1r!
0q!
0l
0t!
0s!
0m
1v!
0u!
1I"
1T"
0U"
0V"
1l!
0j!
1i!
0[!
0U!
1M!
1J!
0A!
1,!
1}
1|
0I
0~
1p
1Y
0X
0W
1#
0$
0%
1;!
1@!
14!
1`
1a
1_
10
1/
11
#48000
0!
0o!
0p!
17
#50000
1!
1o!
1p!
07
1s"
0v"
0t"
0u"
0n
0o
0w!
0I"
0r!
1q!
0v!
1u!
1t!
1s!
1l
1x!
0s!
1w!
1I"
0u!
1m
0x!
#52000
0!
0o!
0p!
17
#54000
1!
1o!
1p!
07
1v"
1n
1o
1r!
0q!
0l
1s!
0m
1V"
0i!
1d!
1Y!
1U!
1S!
1R!
0M!
1K!
1E!
1C!
1A!
1<!
12!
1.!
0,!
1~
1q
0p
1Q
1O
1N
1M
1I
1W
1%
1a!
1T!
1X!
0;!
1b!
1V!
1Z!
0`
00
1c!
1W!
1]!
1f
1d
1e
1*
1,
1+
#56000
0!
0o!
0p!
17
#58000
1!
1o!
1p!
07
0v"
1u"
0n
0o
0r!
1q!
0t!
0s!
1l
1t!
1s!
1u!
1m
0u!
#60000
0!
0o!
0p!
17
#62000
1!
1o!
1p!
07
1v"
1n
1o
1r!
0q!
0l
0t!
0s!
0m
1u!
1U"
0V"
0l!
0^!
1[!
0Y!
0U!
0R!
0J!
0C!
0A!
0<!
02!
0.!
0Q
0O
0N
0M
0K
0I
1i!
1p
1X
0W
1$
0%
0X!
0Z!
0]!
0e
0+
#64000
0!
0o!
0p!
17
#66000
1!
1o!
1p!
07
0v"
1t"
0u"
0n
0o
0r!
1q!
1v!
0u!
1t!
1s!
1l
0s!
0w!
0I"
0v!
1u!
1m
1x!
1w!
1I"
0x!
#68000
0!
0o!
0p!
17
#70000
1!
1o!
1p!
07
1v"
1n
1o
1r!
0q!
0l
1s!
0m
1V"
0i!
0d!
1_!
0[!
0K!
0%!
0~
1s
0r
0q
0p
1O
1W
1%
#72000
0!
0o!
0p!
17
#74000
1!
1o!
1p!
07
0v"
1u"
0n
0o
0r!
1q!
0t!
0s!
1l
1t!
1s!
1v!
0u!
1m
0v!
1u!
0w!
0I"
1w!
1I"
1x!
0x!
#76000
0!
0o!
0p!
17
#78000
1!
1o!
1p!
07
1v"
1n
1o
1r!
0q!
0l
0t!
0s!
0m
1v!
0u!
0w!
0I"
1x!
1S"
0T"
0U"
0V"
1l!
0_!
1^!
1[!
1C!
1B!
1A!
05!
1.!
1%!
1w
0O
1M
1I
0}
1p
1Z
0Y
0X
0W
1"
0#
0$
0%
1z
1\
14
1x
1[
15
#80000
0!
0o!
0p!
17
#82000
1!
1o!
1p!
07
0s"
0v"
1r"
0t"
0u"
0n
0o
1J"
1w!
1I"
0r!
1q!
0O"
1y!
0x!
0v!
1u!
1t!
1s!
1l
1O"
0y!
1x!
0s!
1P"
1H"
1>
0I"
0u!
1m
0P"
0H"
0>
1Q"
0Q"
#84000
0!
0o!
0p!
17
#86000
1!
1o!
1p!
07
1v"
1n
1o
1r!
0q!
0l
1s!
0m
1V"
0l!
1_!
0^!
0[!
1K!
1<!
1~
0w
1q
0p
1Q
0M
1K
0I
1W
1%
0x
0[
05
#88000
0!
0o!
0p!
17
#90000
1!
1o!
1p!
07
0v"
1u"
0n
0o
0r!
1q!
0t!
0s!
1l
1t!
1s!
1u!
1m
0u!
#92000
0!
0o!
0p!
17
#94000
1!
1o!
1p!
07
1v"
1n
1o
0J"
1r!
0q!
0l
0O"
0t!
0s!
0m
1P"
1H"
1u!
1Q"
1U"
0V"
0_!
1R!
1M!
0K!
0<!
15!
0Q
1P
1O
1M
0K
1p
1X
0W
1$
0%
0z
0\
04
#96000
0!
0o!
0p!
17
#98000
1!
1o!
1p!
07
0v"
0r"
0u"
0n
0o
1R"
1V
1J"
0r!
1q!
1O"
0x!
1t!
1s!
1l
0P"
1k
16
0s!
1P"
0H"
0u!
1m
0Q"
1Q"
1z"
1i!
0a!
1N!
0G!
17!
0{
0y
1v
0u
1S
1J
0b!
1O!
18!
0!!
1m!
0@!
04!
0a
0_
0/
01
0c!
1P!
1;!
0"!
1n!
0f
1c
1`
0]
1h
0*
1-
10
03
1(
#100000
0!
0o!
0p!
17
#102000
1!
1o!
1p!
07
1v"
1n
1o
1r!
0q!
0l
1s!
0m
1V"
1l!
0i!
1d!
1Y!
1U!
0R!
0M!
1K!
1J!
05!
12!
1r
0q
0p
0O
1N
0M
1K
0J
1W
1%
0T!
0N!
0H!
0V!
0O!
0I!
0b
0.
0W!
0P!
0d
0c
0,
0-
#104000
0!
0o!
0p!
17
#106000
1!
1o!
1p!
07
0v"
1u"
0n
0o
0r!
1q!
0t!
0s!
1l
1t!
1s!
1u!
1m
0u!
#108000
0!
0o!
0p!
17
#110000
1!
1o!
1p!
07
1v"
1n
1o
0J"
1r!
0q!
0l
0t!
0s!
0m
1u!
1T"
0U"
0V"
0d!
0Y!
0U!
0S!
0K!
0J!
0E!
0B!
06!
02!
1,!
1}
1R
0N
0K
0~
1p
1Y
0X
0W
1#
0$
0%
07!
08!
0;!
0`
00
#112000
0!
0o!
0p!
17
#114000
1!
1o!
1p!
07
0v"
1t"
0u"
0n
0o
0r!
1q!
1v!
0u!
1t!
1s!
1l
0s!
1I"
0v!
1u!
1m
0I"
#116000
0!
0o!
0p!
17
#118000
1!
1o!
1p!
07
1v"
1n
1o
1r!
0q!
0l
1s!
0m
1V"
0l!
1i!
1^!
1[!
1K!
0.!
0,!
0'!
0|
1q
0p
1Q
1O
1M
1K
1I
1W
1%
0S
0m!
0n!
0h
0(
#120000
0!
0o!
0p!
17
#122000
1!
1o!
1p!
07
0v"
1u"
0n
0o
0r!
1q!
0t!
0s!
1l
1t!
1s!
1v!
0u!
1m
0v!
1u!
1I"
0I"
#124000
0!
0o!
0p!
17
#126000
1!
1o!
1p!
07
1v"
1n
1o
1r!
0q!
0l
0t!
0s!
0m
1v!
0u!
1I"
1U"
0V"
0^!
0[!
0K!
0C!
0A!
0%!
1~
0Q
0P
0O
0M
0L
0K
1J
0I
0i!
1p
1X
0W
1$
0%
#128000
0!
0o!
0p!
17
#130000
1!
1o!
1p!
07
1s"
0v"
0t"
0u"
0n
0o
0w!
0I"
0r!
1q!
0v!
1u!
1t!
1s!
1l
1x!
0s!
1w!
1I"
0u!
1m
0x!
#132000
0!
0o!
0p!
17
#134000
1!
1o!
1p!
07
1v"
1n
1o
1r!
0q!
0l
1s!
0m
1V"
1i!
1S!
1L!
0F!
0~
0s
0r
0q
0p
0R
1N
0J
1W
1%
#136000
0!
0o!
0p!
17
#138000
1!
1o!
1p!
07
0v"
1u"
0n
0o
0r!
1q!
0t!
0s!
1l
1t!
1s!
1u!
1m
0u!
#140000
0!
0o!
0p!
17
#142000
1!
1o!
1p!
07
1v"
1n
1o
1r!
0q!
0l
0t!
0s!
0m
1u!
0S"
0T"
0U"
0V"
0i!
0S!
0L!
0N
0}
1p
0Z
0Y
0X
0W
0"
0#
0$
0%
#144000
0!
0o!
0p!
17
#146000
1!
1o!
1p!
07
0v"
1t"
0u"
0n
0o
0r!
1q!
1v!
0u!
1t!
1s!
1l
0s!
0w!
0I"
0v!
1u!
1m
1x!
1w!
1I"
0x!
#148000
0!
0o!
0p!
17
#150000
1!
1o!
1p!
07
1v"
1n
1o
1r!
0q!
0l
1s!
0m
1V"
1~
1q
0p
1W
1%
#152000
0!
0o!
0p!
17
#154000
1!
1o!
1p!
07
0v"
1u"
0n
0o
0r!
1q!
0t!
0s!
1l
1t!
1s!
1v!
0u!
1m
0v!
1u!
0w!
0I"
1w!
1I"
1x!
0x!
#156000
0!
0o!
0p!
17
#158000
1!
1o!
1p!
07
1v"
1n
1o
1r!
0q!
0l
0t!
0s!
0m
1v!
0u!
0w!
0I"
1x!
1U"
0V"
1Y!
1S!
1L!
1'!
1R
1N
1J
1p
1X
0W
1$
0%
1S
1m!
1n!
1h
1(
#160000
0!
0o!
0p!
17
#162000
1!
1o!
1p!
07
0s"
0v"
1r"
0t"
0u"
0n
0o
1J"
1w!
1I"
0r!
1q!
0O"
1y!
0x!
0v!
1u!
1t!
1s!
1l
1O"
0y!
1x!
0s!
0P"
1H"
1>
0I"
0u!
1m
1P"
0H"
0>
0Q"
1Q"
#164000
0!
0o!
0p!
17
#166000
1!
1o!
1p!
07
1v"
1n
1o
1r!
0q!
0l
1s!
0m
1V"
1j!
1d!
1^!
1[!
0Y!
1U!
0S!
0L!
1F!
1A!
16!
15!
1%!
1r
0q
0p
0R
0N
1L
1K
0J
1I
1W
1%
17!
18!
1;!
1`
10
#168000
0!
0o!
0p!
17
#170000
1!
1o!
1p!
07
0v"
1u"
0n
0o
0r!
1q!
0t!
0s!
1l
1t!
1s!
1u!
1m
0u!
#172000
0!
0o!
0p!
17
#174000
1!
1o!
1p!
07
1v"
1n
1o
0J"
1r!
0q!
0l
0O"
0t!
0s!
0m
0P"
1H"
1u!
0Q"
1T"
0U"
0V"
1l!
0j!
0d!
0[!
0U!
1M!
1J!
0A!
1>!
1,!
1}
1|
0I
0~
1p
1Y
0X
0W
1#
0$
0%
1N!
1O!
1P!
1c
1-
#176000
0!
0o!
0p!
17
#178000
1!
1o!
1p!
07
0v"
0r"
0u"
0n
0o
0R"
0V
1J"
0r!
1q!
1O"
0x!
1t!
1s!
1l
1P"
0k
06
0s!
0P"
0H"
0u!
1m
1Q"
0Q"
#180000
0!
0o!
0p!
17
#182000
1!
1o!
1p!
07
1v"
1n
1o
1r!
0q!
0l
1s!
0m
1V"
1Y!
1U!
1S!
1R!
0M!
1K!
1E!
1C!
1A!
1<!
12!
1.!
0,!
1q
0p
1Q
1O
1N
1M
1I
1W
1%
1a!
1T!
0N!
1X!
1b!
1V!
0O!
1Z!
1c!
1W!
0P!
1]!
1f
1d
0c
1e
1*
1,
0-
1+
#184000
0!
0o!
0p!
17
#186000
1!
1o!
1p!
07
0v"
1u"
0n
0o
0r!
1q!
0t!
0s!
1l
1t!
1s!
1u!
1m
0u!
#188000
0!
0o!
0p!
17
#190000
1!
1o!
1p!
07
1v"
1n
1o
0J"
1r!
0q!
0l
0t!
0s!
0m
1u!
1U"
0V"
0l!
0^!
1[!
0Y!
0U!
0R!
0J!
0C!
0A!
0<!
02!
0.!
1*!
1~
0Q
0O
0N
0M
0K
1J
0I
1p
1X
0W
1$
0%
0T!
0a!
0X!
11!
1!!
0V!
0b!
0Z!
1"!
1]
13
0W!
0c!
0]!
0d
0f
0e
0,
0*
0+
#192000
0!
0o!
0p!
17
#194000
1!
1o!
1p!
07
0v"
1t"
0u"
0n
0o
0r!
1q!
1v!
0u!
1t!
1s!
1l
0s!
1I"
0v!
1u!
1m
0I"
#196000
0!
0o!
0p!
17
#198000
1!
1o!
1p!
07
1v"
1n
1o
1r!
0q!
0l
1s!
0m
1V"
1_!
0[!
0K!
01!
1+!
0%!
0~
1s
0r
0q
0p
1O
0J
1W
1%
1-!
0!!
1/!
0"!
1^
0]
12
03
#200000
0!
0o!
0p!
17
#202000
1!
1o!
1p!
07
0v"
1u"
0n
0o
0r!
1q!
0t!
0s!
1l
1t!
1s!
1v!
0u!
1m
0v!
1u!
1I"
0I"
#204000
0!
0o!
0p!
17
