数字逻辑全套/实验/210710_43/Experiment5/expand_task/simulation/qsim/expand_task.msim.vcd
$comment
	File created using the following command:
		vcd file expand_task.msim.vcd -direction
$end
$date
	Fri Jan 06 16:12:38 2023
$end
$version
	ModelSim Version 10.1d
$end
$timescale
	1ps
$end
$scope module expand_task_vlg_vec_tst $end
$var reg 1 ! clk_50mhz $end
$var reg 1 " n_en $end
$var reg 1 # num_sel $end
$var reg 4 $ swc [3:0] $end
$var wire 1 % ds [7] $end
$var wire 1 & ds [6] $end
$var wire 1 ' ds [5] $end
$var wire 1 ( ds [4] $end
$var wire 1 ) ds [3] $end
$var wire 1 * ds [2] $end
$var wire 1 + ds [1] $end
$var wire 1 , ds [0] $end
$var wire 1 - led [6] $end
$var wire 1 . led [5] $end
$var wire 1 / led [4] $end
$var wire 1 0 led [3] $end
$var wire 1 1 led [2] $end
$var wire 1 2 led [1] $end
$var wire 1 3 led [0] $end
$var wire 1 4 sampler $end
$scope module i1 $end
$var wire 1 5 gnd $end
$var wire 1 6 vcc $end
$var wire 1 7 unknown $end
$var tri1 1 8 devclrn $end
$var tri1 1 9 devpor $end
$var tri1 1 : devoe $end
$var wire 1 ; comb_6|out[0]~0_combout $end
$var wire 1 < comb_6|out[1]~2_combout $end
$var wire 1 = comb_6|out[2]~4_combout $end
$var wire 1 > comb_6|out[2]~5_combout $end
$var wire 1 ? comb_3|clk_100hz~q $end
$var wire 1 @ comb_4|key~0_combout $end
$var wire 1 A comb_4|key~2_combout $end
$var wire 1 B comb_4|WideOr1~0_combout $end
$var wire 1 C comb_4|key~3_combout $end
$var wire 1 D comb_3|clk_100hz~0_combout $end
$var wire 1 E clk_50mhz~input_o $end
$var wire 1 F swc[0]~input_o $end
$var wire 1 G swc[1]~input_o $end
$var wire 1 H swc[2]~input_o $end
$var wire 1 I swc[3]~input_o $end
$var wire 1 J comb_3|clk_100hz~clkctrl_outclk $end
$var wire 1 K comb_4|key1[0]~feeder_combout $end
$var wire 1 L comb_4|key2[1]~feeder_combout $end
$var wire 1 M comb_4|key2[2]~feeder_combout $end
$var wire 1 N ds[0]~output_o $end
$var wire 1 O ds[1]~output_o $end
$var wire 1 P ds[2]~output_o $end
$var wire 1 Q ds[3]~output_o $end
$var wire 1 R ds[4]~output_o $end
$var wire 1 S ds[5]~output_o $end
$var wire 1 T ds[6]~output_o $end
$var wire 1 U ds[7]~output_o $end
$var wire 1 V led[0]~output_o $end
$var wire 1 W led[1]~output_o $end
$var wire 1 X led[2]~output_o $end
$var wire 1 Y led[3]~output_o $end
$var wire 1 Z led[4]~output_o $end
$var wire 1 [ led[5]~output_o $end
$var wire 1 \ led[6]~output_o $end
$var wire 1 ] comb_5|sel[0]~2_combout $end
$var wire 1 ^ comb_5|sel[1]~1_combout $end
$var wire 1 _ comb_5|sel[2]~0_combout $end
$var wire 1 ` comb_5|Decoder0~0_combout $end
$var wire 1 a comb_5|Decoder0~1_combout $end
$var wire 1 b comb_5|Decoder0~2_combout $end
$var wire 1 c comb_5|Decoder0~3_combout $end
$var wire 1 d comb_5|Decoder0~4_combout $end
$var wire 1 e comb_5|Decoder0~5_combout $end
$var wire 1 f comb_5|Decoder0~6_combout $end
$var wire 1 g comb_5|Decoder0~7_combout $end
$var wire 1 h n_en~input_o $end
$var wire 1 i comb_4|WideOr0~0_combout $end
$var wire 1 j comb_4|swr0~q $end
$var wire 1 k comb_4|Decoder0~2_combout $end
$var wire 1 l comb_4|swr2~q $end
$var wire 1 m comb_4|Decoder0~0_combout $end
$var wire 1 n comb_4|swr1~q $end
$var wire 1 o comb_4|Decoder0~1_combout $end
$var wire 1 p comb_4|swr3~q $end
$var wire 1 q comb_4|key~4_combout $end
$var wire 1 r comb_4|key[1]~1_combout $end
$var wire 1 s num_sel~input_o $end
$var wire 1 t comb_6|out[3]~6_combout $end
$var wire 1 u comb_6|out[3]~7_combout $end
$var wire 1 v comb_6|out[0]~1_combout $end
$var wire 1 w comb_6|out[1]~3_combout $end
$var wire 1 x comb_7|WideOr6~0_combout $end
$var wire 1 y comb_7|out[0]~0_combout $end
$var wire 1 z comb_7|WideOr5~0_combout $end
$var wire 1 { comb_7|out[1]~1_combout $end
$var wire 1 | comb_7|WideOr4~0_combout $end
$var wire 1 } comb_7|out[2]~2_combout $end
$var wire 1 ~ comb_7|WideOr3~0_combout $end
$var wire 1 !! comb_7|out[3]~3_combout $end
$var wire 1 "! comb_7|WideOr2~0_combout $end
$var wire 1 #! comb_7|out[4]~4_combout $end
$var wire 1 $! comb_7|WideOr1~0_combout $end
$var wire 1 %! comb_7|out[5]~5_combout $end
$var wire 1 &! comb_7|WideOr0~0_combout $end
$var wire 1 '! comb_7|out[6]~6_combout $end
$var wire 1 (! comb_4|key1 [3] $end
$var wire 1 )! comb_4|key1 [2] $end
$var wire 1 *! comb_4|key1 [1] $end
$var wire 1 +! comb_4|key1 [0] $end
$var wire 1 ,! comb_4|key2 [3] $end
$var wire 1 -! comb_4|key2 [2] $end
$var wire 1 .! comb_4|key2 [1] $end
$var wire 1 /! comb_4|key2 [0] $end
$var wire 1 0! comb_4|key [3] $end
$var wire 1 1! comb_4|key [2] $end
$var wire 1 2! comb_4|key [1] $end
$var wire 1 3! comb_4|key [0] $end
$var wire 1 4! comb_5|sel [2] $end
$var wire 1 5! comb_5|sel [1] $end
$var wire 1 6! comb_5|sel [0] $end
$upscope $end
$upscope $end
$enddefinitions $end
#0
$dumpvars
0!
0"
0#
b1011 $
0,
1+
1*
1)
1(
1'
1&
1%
03
12
11
10
1/
1.
1-
x4
05
16
x7
18
19
1:
0;
0<
0=
0>
0?
0@
1A
1B
1C
1D
0E
1F
1G
0H
1I
0J
0K
0L
0M
0N
1O
1P
1Q
1R
1S
1T
1U
0V
1W
1X
1Y
1Z
1[
1\
1]
0^
0_
1`
0a
0b
0c
0d
0e
0f
0g
0h
0i
0j
1k
0l
1m
0n
1o
0p
1q
1r
0s
0t
0u
0v
0w
0x
0y
0z
0{
0|
0}
0~
0!!
0"!
0#!
0$!
0%!
0&!
0'!
0+!
0*!
0)!
0(!
0/!
0.!
0-!
0,!
03!
02!
01!
00!
06!
05!
04!
$end
#10000
1!
1E
04
1?
1J
0D
10!
1p
1n
1l
16!
11!
12!
0q
0m
1i
0C
1a
0`
1^
0]
1M
1L
0O
1N
0+
1,
#20000
0!
0E
14
#30000
1!
1E
04
0?
0J
1D
#40000
0!
0E
14
#50000
1!
1E
04
1?
1J
0D
1(!
00!
0n
1j
15!
06!
01!
1)!
1*!
1t
1m
0k
1C
1b
0a
1]
1=
1<
0M
0P
1O
0*
1+
#60000
0!
0E
14
#70000
1!
1E
04
0?
0J
1D
#80000
0!
0E
14
#90000
1!
1E
04
1?
1J
0D
0(!
1n
0l
16!
11!
0)!
0t
0o
1k
0C
1q
1c
0b
1_
0^
0]
0=
0<
1;
1M
1v
0Q
1P
0)
1*
1&!
1~
1|
1z
1'!
1!!
1}
1{
0\
0Y
0X
0W
0-
00
01
02
#100000
0!
0E
14
#110000
1!
1E
04
0?
0J
1D
#120000
0!
0E
14
#130000
1!
1E
04
1?
1J
0D
10!
0p
1l
14!
05!
06!
01!
1)!
1o
0i
1C
1d
0c
1=
1<
0;
1]
0M
1>
1w
0R
1Q
0(
1)
0&!
0'!
1\
1-
#140000
0!
0E
14
#150000
1!
1E
04
0?
0J
1D
#160000
1#
0!
1s
0E
14
#170000
1!
1E
04
1?
1J
0D
1p
0j
16!
11!
1,!
1.!
0q
0m
1i
0C
0v
1t
1e
0d
1^
0]
0=
0<
1M
1$!
0~
0|
0z
1x
0>
0w
0S
1R
0'
1(
1%!
0!!
0}
0{
0$!
0x
1y
0%!
0[
1Y
1X
1W
1V
0.
10
11
12
13
0y
1[
0V
1.
03
#180000
0!
0E
14
#190000
1!
1E
04
0?
0J
1D
#200000
0!
0E
14
#210000
1!
1E
04
1?
1J
0D
00!
0n
1j
15!
06!
01!
1-!
1m
0k
1C
1f
0e
1v
0t
1]
1=
1<
0M
1&!
1~
1|
1z
0T
1S
0&
1'
1'!
1!!
1}
1{
0\
0Y
0X
0W
0-
00
01
02
#220000
0!
0E
14
#230000
1!
1E
04
0?
0J
1D
#240000
0!
0E
14
#250000
1!
1E
04
1?
1J
0D
1n
0l
16!
11!
0,!
0-!
0o
1k
0C
1q
0v
1g
0f
0_
0^
0]
0=
0<
1;
1M
0&!
0~
0|
0z
1w
0U
1T
0%
1&
0'!
0!!
0}
0{
1"!
1z
1x
1#!
1{
1\
1Y
1X
1W
1-
10
11
12
1y
0Z
0W
1V
0/
02
13
#260000
0!
0E
14
#270000
1!
1E
04
0?
0J
1D
#280000
0!
0E
14
#290000
1!
1E
04
1?
1J
0D
10!
0p
1l
04!
05!
06!
01!
1-!
1o
0i
1C
1v
0g
1`
1=
1<
0;
1]
0M
0"!
1|
1>
0v
1U
0N
1%
0,
0#!
1}
1$!
0|
0z
1%!
0}
0{
1Z
0X
1/
01
0[
1X
1W
0.
11
12
#300000
0!
0E
14
#310000
1!
1E
04
0?
0J
1D
#320000
0#
0!
0s
0E
14
#330000
1!
1E
04
1?
1J
0D
1(!
1p
0j
16!
11!
0)!
0q
0m
1i
0C
1a
0`
1^
0]
1M
0O
1N
0+
1,
#340000
0!
0E
14
#350000
1!
1E
04
0?
0J
1D
#360000
0!
0E
14
#370000
1!
1E
04
1?
1J
0D
00!
0n
1j
15!
06!
01!
1)!
1m
0k
1C
0w
1b
0a
0>
1t
1]
0M
0$!
0x
0P
1O
0*
1+
0%!
0y
1[
0V
1.
03
#380000
0!
0E
14
#390000
1!
1E
04
0?
0J
1D
#400000
0!
0E
14
#410000
1!
1E
04
1?
1J
0D
0(!
1n
0l
16!
11!
0)!
0t
0o
1k
0C
1q
1c
0b
1_
0^
0]
1;
1M
1v
0Q
1P
0)
1*
1&!
1~
1|
1z
1'!
1!!
1}
1{
0\
0Y
0X
0W
0-
00
01
02
#420000
0!
0E
14
#430000
1!
1E
04
0?
0J
1D
#440000
0!
0E
14
#450000
1!
1E
04
1?
1J
0D
10!
0p
1l
14!
05!
06!
01!
1)!
1o
0i
1C
1d
0c
1w
1>
0;
1]
0M
0&!
0R
1Q
0(
1)
0'!
1\
1-
#460000
0!
0E
14
#470000
1!
1E
04
0?
0J
1D
#480000
1#
0!
1s
0E
14
#490000
1!
1E
04
1?
1J
0D
1p
0j
16!
11!
1,!
0-!
0q
0m
1i
0C
0v
1t
1e
0d
1^
0]
0=
0<
1M
1$!
0~
0|
0z
1x
0>
0w
0S
1R
0'
1(
1%!
0!!
0}
0{
0$!
0x
1y
0%!
0[
1Y
1X
1W
1V
0.
10
11
12
13
0y
1[
0V
1.
03
#500000
0!
0E
14
#510000
1!
1E
04
0?
0J
1D
#520000
0!
0E
14
#530000
1!
1E
04
1?
1J
0D
00!
0n
1j
15!
06!
01!
1-!
1m
0k
1C
1f
0e
1v
0t
1]
1=
1<
0M
1&!
1~
1|
1z
0T
1S
0&
1'
1'!
1!!
1}
1{
0\
0Y
0X
0W
0-
00
01
02
#540000
0!
0E
14
#550000
1!
1E
04
0?
0J
1D
#560000
0!
0E
14
#570000
1!
1E
04
1?
1J
0D
1n
0l
16!
11!
0,!
0-!
0o
1k
0C
1q
0v
1g
0f
0_
0^
0]
0=
0<
1;
1M
0&!
0~
0|
0z
1w
0U
1T
0%
1&
0'!
0!!
0}
0{
1"!
1z
1x
1#!
1{
1\
1Y
1X
1W
1-
10
11
12
1y
0Z
0W
1V
0/
02
13
#580000
0!
0E
14
#590000
1!
1E
04
0?
0J
1D
#600000
0!
0E
14
#610000
1!
1E
04
1?
1J
0D
10!
0p
1l
04!
05!
06!
01!
1-!
1o
0i
1C
1v
0g
1`
1=
1<
0;
1]
0M
0"!
1|
1>
0v
1U
0N
1%
0,
0#!
1}
1$!
0|
0z
1%!
0}
0{
1Z
0X
1/
01
0[
1X
1W
0.
11
12
#620000
0!
0E
14
#630000
1!
1E
04
0?
0J
1D
#640000
0#
0!
0s
0E
14
#650000
1!
1E
04
1?
1J
0D
1(!
1p
0j
16!
11!
0)!
0q
0m
1i
0C
1a
0`
1^
0]
1M
0O
1N
0+
1,
#660000
0!
0E
14
#670000
1!
1E
04
0?
0J
1D
#680000
0!
0E
14
#690000
1!
1E
04
1?
1J
0D
00!
0n
1j
15!
06!
01!
1)!
1m
0k
1C
0w
1b
0a
0>
1t
1]
0M
0$!
0x
0P
1O
0*
1+
0%!
0y
1[
0V
1.
03
#700000
0!
0E
14
#710000
1!
1E
04
0?
0J
1D
#720000
0!
0E
14
#730000
1!
1E
04
1?
1J
0D
0(!
1n
0l
16!
11!
0)!
0t
0o
1k
0C
1q
1c
0b
1_
0^
0]
1;
1M
1v
0Q
1P
0)
1*
1&!
1~
1|
1z
1'!
1!!
1}
1{
0\
0Y
0X
0W
0-
00
01
02
#740000
0!
0E
14
#750000
1!
1E
04
0?
0J
1D
#760000
0!
0E
14
#770000
1!
1E
04
1?
1J
0D
10!
0p
1l
14!
05!
06!
01!
1)!
1o
0i
1C
1d
0c
1w
1>
0;
1]
0M
0&!
0R
1Q
0(
1)
0'!
1\
1-
#780000
0!
0E
14
#790000
1!
1E
04
0?
0J
1D
#800000
1#
0!
1s
0E
14
#810000
1!
1E
04
1?
1J
0D
1p
0j
16!
11!
1,!
0-!
0q
0m
1i
0C
0v
1t
1e
0d
1^
0]
0=
0<
1M
1$!
0~
0|
0z
1x
0>
0w
0S
1R
0'
1(
1%!
0!!
0}
0{
0$!
0x
1y
0%!
0[
1Y
1X
1W
1V
0.
10
11
12
13
0y
1[
0V
1.
03
#820000
0!
0E
14
#830000
1!
1E
04
0?
0J
1D
#840000
0!
0E
14
#850000
1!
1E
04
1?
1J
0D
00!
0n
1j
15!
06!
01!
1-!
1m
0k
1C
1f
0e
1v
0t
1]
1=
1<
0M
1&!
1~
1|
1z
0T
1S
0&
1'
1'!
1!!
1}
1{
0\
0Y
0X
0W
0-
00
01
02
#860000
0!
0E
14
#870000
1!
1E
04
0?
0J
1D
#880000
0!
0E
14
#890000
1!
1E
04
1?
1J
0D
1n
0l
16!
11!
0,!
0-!
0o
1k
0C
1q
0v
1g
0f
0_
0^
0]
0=
0<
1;
1M
0&!
0~
0|
0z
1w
0U
1T
0%
1&
0'!
0!!
0}
0{
1"!
1z
1x
1#!
1{
1\
1Y
1X
1W
1-
10
11
12
1y
0Z
0W
1V
0/
02
13
#900000
0!
0E
14
#910000
1!
1E
04
0?
0J
1D
#920000
0!
0E
14
#930000
1!
1E
04
1?
1J
0D
10!
0p
1l
04!
05!
06!
01!
1-!
1o
0i
1C
1v
0g
1`
1=
1<
0;
1]
0M
0"!
1|
1>
0v
1U
0N
1%
0,
0#!
1}
1$!
0|
0z
1%!
0}
0{
1Z
0X
1/
01
0[
1X
1W
0.
11
12
#940000
0!
0E
14
#950000
1!
1E
04
0?
0J
1D
#960000
0#
0!
0s
0E
14
#970000
1!
1E
04
1?
1J
0D
1(!
1p
0j
16!
11!
0)!
0q
0m
1i
0C
1a
0`
1^
0]
1M
0O
1N
0+
1,
#980000
0!
0E
14
#990000
1!
1E
04
0?
0J
1D
