数字逻辑全套/实验/210710_43/Experiment2/exp2_project2/addr_38/simulation/qsim/addr_38.msim.vcd
$comment
	File created using the following command:
		vcd file addr_38.msim.vcd -direction
$end
$date
	Thu Oct 27 18:36:59 2022
$end
$version
	ModelSim Version 10.1d
$end
$timescale
	1ps
$end
$scope module addr_38_vlg_vec_tst $end
$var reg 3 ! addr [2:0] $end
$var wire 1 " o1 $end
$var wire 1 # o2 $end
$var wire 1 $ o3 $end
$var wire 1 % o4 $end
$var wire 1 & o5 $end
$var wire 1 ' o6 $end
$var wire 1 ( o7 $end
$var wire 1 ) o8 $end
$var wire 1 * sampler $end
$scope module i1 $end
$var wire 1 + gnd $end
$var wire 1 , vcc $end
$var wire 1 - unknown $end
$var tri1 1 . devclrn $end
$var tri1 1 / devpor $end
$var tri1 1 0 devoe $end
$var wire 1 1 o1~output_o $end
$var wire 1 2 o2~output_o $end
$var wire 1 3 o3~output_o $end
$var wire 1 4 o4~output_o $end
$var wire 1 5 o5~output_o $end
$var wire 1 6 o6~output_o $end
$var wire 1 7 o7~output_o $end
$var wire 1 8 o8~output_o $end
$var wire 1 9 addr[2]~input_o $end
$var wire 1 : addr[1]~input_o $end
$var wire 1 ; addr[0]~input_o $end
$var wire 1 < Decoder0~0_combout $end
$var wire 1 = Decoder0~1_combout $end
$var wire 1 > Decoder0~2_combout $end
$var wire 1 ? Decoder0~3_combout $end
$var wire 1 @ Decoder0~4_combout $end
$var wire 1 A Decoder0~5_combout $end
$var wire 1 B Decoder0~6_combout $end
$var wire 1 C Decoder0~7_combout $end
$upscope $end
$upscope $end
$enddefinitions $end
#0
$dumpvars
b0 !
0"
1#
1$
1%
1&
1'
1(
1)
x*
0+
1,
x-
1.
1/
10
01
12
13
14
15
16
17
18
09
0:
0;
1<
0=
0>
0?
0@
0A
0B
0C
$end
#10000
b1 !
1;
0*
1=
0<
02
11
0#
1"
#20000
b11 !
b10 !
0;
1:
1*
1>
0=
03
12
0$
1#
#30000
b11 !
1;
0*
1?
0>
04
13
0%
1$
#40000
b111 !
b101 !
b100 !
0;
0:
19
1*
1@
0?
05
14
0&
1%
#50000
b101 !
1;
0*
1A
0@
06
15
0'
1&
#60000
b111 !
b110 !
0;
1:
1*
1B
0A
07
16
0(
1'
#70000
b111 !
1;
0*
1C
0B
08
17
0)
1(
#80000
b11 !
b1 !
b0 !
0;
0:
09
1*
0C
1<
18
01
1)
0"
#90000
b1 !
1;
0*
1=
0<
02
11
0#
1"
#100000
b11 !
b10 !
0;
1:
1*
1>
0=
03
12
0$
1#
#110000
b11 !
1;
0*
1?
0>
04
13
0%
1$
#120000
b111 !
b101 !
b100 !
0;
0:
19
1*
1@
0?
05
14
0&
1%
#130000
b101 !
1;
0*
1A
0@
06
15
0'
1&
#140000
b111 !
b110 !
0;
1:
1*
1B
0A
07
16
0(
1'
#150000
b111 !
1;
0*
1C
0B
08
17
0)
1(
#160000
b11 !
b1 !
b0 !
0;
0:
09
1*
0C
1<
18
01
1)
0"
#170000
b1 !
1;
0*
1=
0<
02
11
0#
1"
#180000
b11 !
b10 !
0;
1:
1*
1>
0=
03
12
0$
1#
#190000
b11 !
1;
0*
1?
0>
04
13
0%
1$
#200000
b111 !
b101 !
b100 !
0;
0:
19
1*
1@
0?
05
14
0&
1%
#210000
b101 !
1;
0*
1A
0@
06
15
0'
1&
#220000
b111 !
b110 !
0;
1:
1*
1B
0A
07
16
0(
1'
#230000
b111 !
1;
0*
1C
0B
08
17
0)
1(
#240000
b11 !
b1 !
b0 !
0;
0:
09
1*
0C
1<
18
01
1)
0"
#250000
b1 !
1;
0*
1=
0<
02
11
0#
1"
#260000
b11 !
b10 !
0;
1:
1*
1>
0=
03
12
0$
1#
#270000
b11 !
1;
0*
1?
0>
04
13
0%
1$
#280000
b111 !
b101 !
b100 !
0;
0:
19
1*
1@
0?
05
14
0&
1%
#290000
b101 !
1;
0*
1A
0@
06
15
0'
1&
#300000
b111 !
b110 !
0;
1:
1*
1B
0A
07
16
0(
1'
#310000
b111 !
1;
0*
1C
0B
08
17
0)
1(
#320000
b11 !
b1 !
b0 !
0;
0:
09
1*
0C
1<
18
01
1)
0"
#330000
b1 !
1;
0*
1=
0<
02
11
0#
1"
#340000
b11 !
b10 !
0;
1:
1*
1>
0=
03
12
0$
1#
#350000
b11 !
1;
0*
1?
0>
04
13
0%
1$
#360000
b111 !
b101 !
b100 !
0;
0:
19
1*
1@
0?
05
14
0&
1%
#370000
b101 !
1;
0*
1A
0@
06
15
0'
1&
#380000
b111 !
b110 !
0;
1:
1*
1B
0A
07
16
0(
1'
#390000
b111 !
1;
0*
1C
0B
08
17
0)
1(
#400000
b11 !
b1 !
b0 !
0;
0:
09
1*
0C
1<
18
01
1)
0"
#410000
b1 !
1;
0*
1=
0<
02
11
0#
1"
#420000
b11 !
b10 !
0;
1:
1*
1>
0=
03
12
0$
1#
#430000
b11 !
1;
0*
1?
0>
04
13
0%
1$
#440000
b111 !
b101 !
b100 !
0;
0:
19
1*
1@
0?
05
14
0&
1%
#450000
b101 !
1;
0*
1A
0@
06
15
0'
1&
#460000
b111 !
b110 !
0;
1:
1*
1B
0A
07
16
0(
1'
#470000
b111 !
1;
0*
1C
0B
08
17
0)
1(
#480000
b11 !
b1 !
b0 !
0;
0:
09
1*
0C
1<
18
01
1)
0"
#490000
b1 !
1;
0*
1=
0<
02
11
0#
1"
#500000
b11 !
b10 !
0;
1:
1*
1>
0=
03
12
0$
1#
#510000
b11 !
1;
0*
1?
0>
04
13
0%
1$
#520000
b111 !
b101 !
b100 !
0;
0:
19
1*
1@
0?
05
14
0&
1%
#530000
b101 !
1;
0*
1A
0@
06
15
0'
1&
#540000
b111 !
b110 !
0;
1:
1*
1B
0A
07
16
0(
1'
#550000
b111 !
1;
0*
1C
0B
08
17
0)
1(
#560000
b11 !
b1 !
b0 !
0;
0:
09
1*
0C
1<
18
01
1)
0"
#570000
b1 !
1;
0*
1=
0<
02
11
0#
1"
#580000
b11 !
b10 !
0;
1:
1*
1>
0=
03
12
0$
1#
#590000
b11 !
1;
0*
1?
0>
04
13
0%
1$
#600000
b111 !
b101 !
b100 !
0;
0:
19
1*
1@
0?
05
14
0&
1%
#610000
b101 !
1;
0*
1A
0@
06
15
0'
1&
#620000
b111 !
b110 !
0;
1:
1*
1B
0A
07
16
0(
1'
#630000
b111 !
1;
0*
1C
0B
08
17
0)
1(
#640000
b11 !
b1 !
b0 !
0;
0:
09
1*
0C
1<
18
01
1)
0"
#650000
b1 !
1;
0*
1=
0<
02
11
0#
1"
#660000
b11 !
b10 !
0;
1:
1*
1>
0=
03
12
0$
1#
#670000
b11 !
1;
0*
1?
0>
04
13
0%
1$
#680000
b111 !
b101 !
b100 !
0;
0:
19
1*
1@
0?
05
14
0&
1%
#690000
b101 !
1;
0*
1A
0@
06
15
0'
1&
#700000
b111 !
b110 !
0;
1:
1*
1B
0A
07
16
0(
1'
#710000
b111 !
1;
0*
1C
0B
08
17
0)
1(
#720000
b11 !
b1 !
b0 !
0;
0:
09
1*
0C
1<
18
01
1)
0"
#730000
b1 !
1;
0*
1=
0<
02
11
0#
1"
#740000
b11 !
b10 !
0;
1:
1*
1>
0=
03
12
0$
1#
#750000
b11 !
1;
0*
1?
0>
04
13
0%
1$
#760000
b111 !
b101 !
b100 !
0;
0:
19
1*
1@
0?
05
14
0&
1%
#770000
b101 !
1;
0*
1A
0@
06
15
0'
1&
#780000
b111 !
b110 !
0;
1:
1*
1B
0A
07
16
0(
1'
#790000
b111 !
1;
0*
1C
0B
08
17
0)
1(
#800000
b11 !
b1 !
b0 !
0;
0:
09
1*
0C
1<
18
01
1)
0"
#810000
b1 !
1;
0*
1=
0<
02
11
0#
1"
#820000
b11 !
b10 !
0;
1:
1*
1>
0=
03
12
0$
1#
#830000
b11 !
1;
0*
1?
0>
04
13
0%
1$
#840000
b111 !
b101 !
b100 !
0;
0:
19
1*
1@
0?
05
14
0&
1%
#850000
b101 !
1;
0*
1A
0@
06
15
0'
1&
#860000
b111 !
b110 !
0;
1:
1*
1B
0A
07
16
0(
1'
#870000
b111 !
1;
0*
1C
0B
08
17
0)
1(
#880000
b11 !
b1 !
b0 !
0;
0:
09
1*
0C
1<
18
01
1)
0"
#890000
b1 !
1;
0*
1=
0<
02
11
0#
1"
#900000
b11 !
b10 !
0;
1:
1*
1>
0=
03
12
0$
1#
#910000
b11 !
1;
0*
1?
0>
04
13
0%
1$
#920000
b111 !
b101 !
b100 !
0;
0:
19
1*
1@
0?
05
14
0&
1%
#930000
b101 !
1;
0*
1A
0@
06
15
0'
1&
#940000
b111 !
b110 !
0;
1:
1*
1B
0A
07
16
0(
1'
#950000
b111 !
1;
0*
1C
0B
08
17
0)
1(
#960000
b11 !
b1 !
b0 !
0;
0:
09
1*
0C
1<
18
01
1)
0"
#970000
b1 !
1;
0*
1=
0<
02
11
0#
1"
#980000
b11 !
b10 !
0;
1:
1*
1>
0=
03
12
0$
1#
#990000
b11 !
1;
0*
1?
0>
04
13
0%
1$
