数字逻辑全套/实验/210710_43/Experiment2/exp2_project1/D_latch/simulation/qsim/D_latch.msim.vcd
$comment
	File created using the following command:
		vcd file D_latch.msim.vcd -direction
$end
$date
	Sun Oct 23 22:28:25 2022
$end
$version
	ModelSim Version 10.1d
$end
$timescale
	1ps
$end
$scope module D_latch_vlg_vec_tst $end
$var reg 1 ! D $end
$var reg 1 " EN $end
$var wire 1 # Q $end
$var wire 1 $ QN $end
$var wire 1 % sampler $end
$scope module i1 $end
$var wire 1 & gnd $end
$var wire 1 ' vcc $end
$var wire 1 ( unknown $end
$var tri1 1 ) devclrn $end
$var tri1 1 * devpor $end
$var tri1 1 + devoe $end
$var wire 1 , Q~output_o $end
$var wire 1 - QN~output_o $end
$var wire 1 . D~input_o $end
$var wire 1 / EN~input_o $end
$var wire 1 0 Q$latch~combout $end
$upscope $end
$upscope $end
$enddefinitions $end
#0
$dumpvars
0!
0"
x#
x$
x%
0&
1'
x(
1)
1*
1+
x,
x-
0.
0/
x0
$end
#10000
1!
1.
0%
#20000
0!
0.
1%
#30000
1!
1.
0%
#40000
1"
0!
1/
0.
1%
00
0,
1-
0#
1$
#50000
1!
1.
0%
10
1,
0-
1#
0$
#60000
0!
0.
1%
00
0,
1-
0#
1$
#70000
1!
1.
0%
10
1,
0-
1#
0$
#80000
0"
0!
0/
0.
1%
#90000
1!
1.
0%
#100000
0!
0.
1%
#110000
1!
1.
0%
#120000
1"
0!
1/
0.
1%
00
0,
1-
0#
1$
#130000
1!
1.
0%
10
1,
0-
1#
0$
#140000
0!
0.
1%
00
0,
1-
0#
1$
#150000
1!
1.
0%
10
1,
0-
1#
0$
#160000
0"
0!
0/
0.
1%
#170000
1!
1.
0%
#180000
0!
0.
1%
#190000
1!
1.
0%
#200000
1"
0!
1/
0.
1%
00
0,
1-
0#
1$
#210000
1!
1.
0%
10
1,
0-
1#
0$
#220000
0!
0.
1%
00
0,
1-
0#
1$
#230000
1!
1.
0%
10
1,
0-
1#
0$
#240000
0"
0!
0/
0.
1%
#250000
1!
1.
0%
#260000
0!
0.
1%
#270000
1!
1.
0%
#280000
1"
0!
1/
0.
1%
00
0,
1-
0#
1$
#290000
1!
1.
0%
10
1,
0-
1#
0$
#300000
0!
0.
1%
00
0,
1-
0#
1$
#310000
1!
1.
0%
10
1,
0-
1#
0$
#320000
0"
0!
0/
0.
1%
#330000
1!
1.
0%
#340000
0!
0.
1%
#350000
1!
1.
0%
#360000
1"
0!
1/
0.
1%
00
0,
1-
0#
1$
#370000
1!
1.
0%
10
1,
0-
1#
0$
#380000
0!
0.
1%
00
0,
1-
0#
1$
#390000
1!
1.
0%
10
1,
0-
1#
0$
#400000
0"
0!
0/
0.
1%
#410000
1!
1.
0%
#420000
0!
0.
1%
#430000
1!
1.
0%
#440000
1"
0!
1/
0.
1%
00
0,
1-
0#
1$
#450000
1!
1.
0%
10
1,
0-
1#
0$
#460000
0!
0.
1%
00
0,
1-
0#
1$
#470000
1!
1.
0%
10
1,
0-
1#
0$
#480000
0"
0!
0/
0.
1%
#490000
1!
1.
0%
#500000
0!
0.
1%
#510000
1!
1.
0%
#520000
1"
0!
1/
0.
1%
00
0,
1-
0#
1$
#530000
1!
1.
0%
10
1,
0-
1#
0$
#540000
0!
0.
1%
00
0,
1-
0#
1$
#550000
1!
1.
0%
10
1,
0-
1#
0$
#560000
0"
0!
0/
0.
1%
#570000
1!
1.
0%
#580000
0!
0.
1%
#590000
1!
1.
0%
#600000
1"
0!
1/
0.
1%
00
0,
1-
0#
1$
#610000
1!
1.
0%
10
1,
0-
1#
0$
#620000
0!
0.
1%
00
0,
1-
0#
1$
#630000
1!
1.
0%
10
1,
0-
1#
0$
#640000
0"
0!
0/
0.
1%
#650000
1!
1.
0%
#660000
0!
0.
1%
#670000
1!
1.
0%
#680000
1"
0!
1/
0.
1%
00
0,
1-
0#
1$
#690000
1!
1.
0%
10
1,
0-
1#
0$
#700000
0!
0.
1%
00
0,
1-
0#
1$
#710000
1!
1.
0%
10
1,
0-
1#
0$
#720000
0"
0!
0/
0.
1%
#730000
1!
1.
0%
#740000
0!
0.
1%
#750000
1!
1.
0%
#760000
1"
0!
1/
0.
1%
00
0,
1-
0#
1$
#770000
1!
1.
0%
10
1,
0-
1#
0$
#780000
0!
0.
1%
00
0,
1-
0#
1$
#790000
1!
1.
0%
10
1,
0-
1#
0$
#800000
0"
0!
0/
0.
1%
#810000
1!
1.
0%
#820000
0!
0.
1%
#830000
1!
1.
0%
#840000
1"
0!
1/
0.
1%
00
0,
1-
0#
1$
#850000
1!
1.
0%
10
1,
0-
1#
0$
#860000
0!
0.
1%
00
0,
1-
0#
1$
#870000
1!
1.
0%
10
1,
0-
1#
0$
#880000
0"
0!
0/
0.
1%
#890000
1!
1.
0%
#900000
0!
0.
1%
#910000
1!
1.
0%
#920000
1"
0!
1/
0.
1%
00
0,
1-
0#
1$
#930000
1!
1.
0%
10
1,
0-
1#
0$
#940000
0!
0.
1%
00
0,
1-
0#
1$
#950000
1!
1.
0%
10
1,
0-
1#
0$
#960000
0"
0!
0/
0.
1%
#970000
1!
1.
0%
#980000
0!
0.
1%
#990000
1!
1.
0%
