数字逻辑全套/实验/210710_43/Experiment2/exp2_project2/reg_N/simulation/qsim/reg_N.msim.vcd
$comment
	File created using the following command:
		vcd file reg_N.msim.vcd -direction
$end
$date
	Thu Oct 27 18:50:05 2022
$end
$version
	ModelSim Version 10.1d
$end
$timescale
	1ps
$end
$scope module reg_N_vlg_vec_tst $end
$var reg 1 ! clk $end
$var reg 1 " cs $end
$var reg 4 # data [3:0] $end
$var reg 1 $ reset $end
$var reg 1 % w_r $end
$var wire 1 & q [3] $end
$var wire 1 ' q [2] $end
$var wire 1 ( q [1] $end
$var wire 1 ) q [0] $end
$var wire 1 * sampler $end
$scope module i1 $end
$var wire 1 + gnd $end
$var wire 1 , vcc $end
$var wire 1 - unknown $end
$var tri1 1 . devclrn $end
$var tri1 1 / devpor $end
$var tri1 1 0 devoe $end
$var wire 1 1 q[0]~output_o $end
$var wire 1 2 q[1]~output_o $end
$var wire 1 3 q[2]~output_o $end
$var wire 1 4 q[3]~output_o $end
$var wire 1 5 clk~input_o $end
$var wire 1 6 clk~inputclkctrl_outclk $end
$var wire 1 7 data[0]~input_o $end
$var wire 1 8 q[0]~reg0feeder_combout $end
$var wire 1 9 reset~input_o $end
$var wire 1 : reset~inputclkctrl_outclk $end
$var wire 1 ; w_r~input_o $end
$var wire 1 < cs~input_o $end
$var wire 1 = always0~0_combout $end
$var wire 1 > q[0]~reg0_q $end
$var wire 1 ? data[1]~input_o $end
$var wire 1 @ q[1]~reg0feeder_combout $end
$var wire 1 A q[1]~reg0_q $end
$var wire 1 B data[2]~input_o $end
$var wire 1 C q[2]~reg0feeder_combout $end
$var wire 1 D q[2]~reg0_q $end
$var wire 1 E data[3]~input_o $end
$var wire 1 F q[3]~reg0feeder_combout $end
$var wire 1 G q[3]~reg0_q $end
$upscope $end
$upscope $end
$enddefinitions $end
#0
$dumpvars
0!
0"
b0 #
0$
1%
0)
0(
0'
0&
x*
0+
1,
x-
1.
1/
10
01
02
03
04
05
06
07
08
09
0:
1;
0<
1=
0>
0?
0@
0A
0B
0C
0D
0E
0F
0G
$end
#1000
0%
0;
0*
0=
#5900
1%
1;
1*
1=
#7000
1"
1<
0*
0=
#8000
0%
0;
1*
#10000
1!
b1 #
15
17
16
0*
18
#12900
1%
1;
1*
#14000
0"
0<
0*
1=
#15000
0%
0;
1*
0=
#19900
1%
1;
0*
1=
#20000
b11 #
0!
b10 #
07
1?
05
06
1*
08
1@
#21000
1"
1<
0*
0=
#22000
0%
0;
1*
#26900
1%
1;
0*
#28000
0"
0<
1*
1=
#29000
0%
0;
0*
0=
#30000
1!
b11 #
15
17
16
1*
18
#33900
1%
1;
0*
1=
#35000
1"
1<
1*
0=
#36000
0%
0;
0*
#40000
b111 #
b101 #
0!
b100 #
07
0?
1B
05
06
1*
08
0@
1C
#40900
1%
1;
0*
#42000
0"
0<
1*
1=
#43000
0%
0;
0*
0=
#47900
1%
1;
1*
1=
#49000
1"
1<
0*
0=
#50000
1!
b101 #
0%
15
17
0;
16
1*
18
#54900
1%
1;
0*
#56000
0"
0<
1*
1=
#57000
0%
0;
0*
0=
#60000
b111 #
0!
b110 #
07
1?
05
06
1*
08
1@
#61900
1%
1;
0*
1=
#63000
1"
1<
1*
0=
#64000
0%
0;
0*
#68900
1%
1;
1*
#70000
1!
b111 #
0"
15
17
0<
16
0*
18
1=
#71000
0%
0;
1*
0=
#75900
1%
1;
0*
1=
#77000
1"
1<
1*
0=
#78000
0%
0;
0*
#80000
b1111 #
b1011 #
b1001 #
0!
b1000 #
07
0?
0B
1E
05
06
1*
08
0@
0C
1F
#82900
1%
1;
0*
#84000
0"
0<
1*
1=
#85000
0%
0;
0*
0=
#89900
1%
1;
1*
1=
#90000
1!
b1001 #
15
17
16
0*
18
1G
14
1&
#91000
1"
1<
1*
0=
#92000
0%
0;
0*
#96900
1%
1;
1*
#98000
0"
0<
0*
1=
#99000
0%
0;
1*
0=
#100000
1$
b1011 #
0!
b1010 #
19
07
1?
05
1:
06
0*
08
1@
0G
04
0&
#103900
1%
1;
1*
1=
#105000
1"
1<
0*
0=
#106000
0%
0;
1*
#110000
1!
b1011 #
15
17
16
0*
18
#110900
1%
1;
1*
#112000
0"
0<
0*
1=
#113000
0%
0;
1*
0=
#117900
1%
1;
0*
1=
#119000
1"
1<
1*
0=
#120000
b1111 #
b1101 #
0!
b1100 #
0%
07
0?
1B
05
0;
06
0*
08
0@
1C
#124900
1%
1;
1*
#126000
0"
0<
0*
1=
#127000
0%
0;
1*
0=
#130000
1!
b1101 #
15
17
16
0*
18
#131900
1%
1;
1*
1=
#133000
1"
1<
0*
0=
#134000
0%
0;
1*
#138900
1%
1;
0*
#140000
b1111 #
0!
b1110 #
0"
07
1?
05
0<
06
1*
08
1@
1=
#141000
0%
0;
0*
0=
#145900
1%
1;
1*
1=
#147000
1"
1<
0*
0=
#148000
0%
0;
1*
#150000
1!
b1111 #
15
17
16
0*
18
#152900
1%
1;
1*
#154000
0"
0<
0*
1=
#155000
0%
0;
1*
0=
#159900
1%
1;
0*
1=
#160000
b111 #
b11 #
b1 #
0!
b0 #
07
0?
0B
0E
05
06
1*
08
0@
0C
0F
#161000
1"
1<
0*
0=
#162000
0%
0;
1*
#166900
1%
1;
0*
#168000
0"
0<
1*
1=
#169000
0%
0;
0*
0=
#170000
1!
b1 #
15
17
16
1*
18
#173900
1%
1;
0*
1=
#175000
1"
1<
1*
0=
#176000
0%
0;
0*
#180000
b11 #
0!
b10 #
07
1?
05
06
1*
08
1@
#180900
1%
1;
0*
#182000
0"
0<
1*
1=
#183000
0%
0;
0*
0=
#187900
1%
1;
1*
1=
#189000
1"
1<
0*
0=
#190000
1!
b11 #
0%
15
17
0;
16
1*
18
#194900
1%
1;
0*
#196000
0"
0<
1*
1=
#197000
0%
0;
0*
0=
#200000
0$
b111 #
b101 #
0!
b100 #
09
07
0?
1B
05
0:
06
1*
08
0@
1C
#201900
1%
1;
0*
1=
#203000
1"
1<
1*
0=
#204000
0%
0;
0*
#208900
1%
1;
1*
#210000
1!
b101 #
0"
15
17
0<
16
0*
18
1=
#211000
0%
0;
1*
0=
#215900
1%
1;
0*
1=
#217000
1"
1<
1*
0=
#218000
0%
0;
0*
#220000
b111 #
0!
b110 #
07
1?
05
06
1*
08
1@
#222900
1%
1;
0*
#224000
0"
0<
1*
1=
#225000
0%
0;
0*
0=
#229900
1%
1;
1*
1=
#230000
1!
b111 #
15
17
16
0*
18
1D
1A
13
12
1'
1(
#231000
1"
1<
1*
0=
#232000
0%
0;
0*
#236900
1%
1;
1*
#238000
0"
0<
0*
1=
#239000
0%
0;
1*
0=
#240000
b1111 #
b1011 #
b1001 #
0!
b1000 #
07
0?
0B
1E
05
06
0*
08
0@
0C
1F
#243900
1%
1;
1*
1=
#245000
1"
1<
0*
0=
#246000
0%
0;
1*
#250000
1!
b1001 #
15
17
16
0*
18
#250900
1%
1;
1*
#252000
0"
0<
0*
1=
#253000
0%
0;
1*
0=
#257900
1%
1;
0*
1=
#259000
1"
1<
1*
0=
#260000
b1011 #
0!
b1010 #
0%
07
1?
05
0;
06
0*
08
1@
#264900
1%
1;
1*
#266000
0"
0<
0*
1=
#267000
0%
0;
1*
0=
#270000
1!
b1011 #
15
17
16
0*
18
#271900
1%
1;
1*
1=
#273000
1"
1<
0*
0=
#274000
0%
0;
1*
#278900
1%
1;
0*
#280000
b1111 #
b1101 #
0!
b1100 #
0"
07
0?
1B
05
0<
06
1*
08
0@
1C
1=
#281000
0%
0;
0*
0=
#285900
1%
1;
1*
1=
#287000
1"
1<
0*
0=
#288000
0%
0;
1*
#290000
1!
b1101 #
15
17
16
0*
18
#292900
1%
1;
1*
#294000
0"
0<
0*
1=
#295000
0%
0;
1*
0=
#299900
1%
1;
0*
1=
#300000
1$
b1111 #
0!
b1110 #
19
07
1?
05
1:
06
1*
08
1@
0A
0D
02
03
0(
0'
#301000
1"
1<
0*
0=
#302000
0%
0;
1*
#306900
1%
1;
0*
#308000
0"
0<
1*
1=
#309000
0%
0;
0*
0=
#310000
1!
b1111 #
15
17
16
1*
18
#313900
1%
1;
0*
1=
#315000
1"
1<
1*
0=
#316000
0%
0;
0*
#320000
b111 #
b11 #
b1 #
0!
b0 #
07
0?
0B
0E
05
06
1*
08
0@
0C
0F
#320900
1%
1;
0*
#322000
0"
0<
1*
1=
#323000
0%
0;
0*
0=
#327900
1%
1;
1*
1=
#329000
1"
1<
0*
0=
#330000
1!
b1 #
0%
15
17
0;
16
1*
18
#334900
1%
1;
0*
#336000
0"
0<
1*
1=
#337000
0%
0;
0*
0=
#340000
b11 #
0!
b10 #
07
1?
05
06
1*
08
1@
#341900
1%
1;
0*
1=
#343000
1"
1<
1*
0=
#344000
0%
0;
0*
#348900
1%
1;
1*
#350000
1!
b11 #
0"
15
17
0<
16
0*
18
1=
#351000
0%
0;
1*
0=
#355900
1%
1;
0*
1=
#357000
1"
1<
1*
0=
#358000
0%
0;
0*
#360000
b111 #
b101 #
0!
b100 #
07
0?
1B
05
06
1*
08
0@
1C
#362900
1%
1;
0*
#364000
0"
0<
1*
1=
#365000
0%
0;
0*
0=
#369900
1%
1;
1*
1=
#370000
1!
b101 #
15
17
16
0*
18
#371000
1"
1<
1*
0=
#372000
0%
0;
0*
#376900
1%
1;
1*
#378000
0"
0<
0*
1=
#379000
0%
0;
1*
0=
#380000
b111 #
0!
b110 #
07
1?
05
06
0*
08
1@
#383900
1%
1;
1*
1=
#385000
1"
1<
0*
0=
#386000
0%
0;
1*
#390000
1!
b111 #
15
17
16
0*
18
#390900
1%
1;
1*
#392000
0"
0<
0*
1=
#393000
0%
0;
1*
0=
#397900
1%
1;
0*
1=
#399000
1"
1<
1*
0=
#400000
0$
b1111 #
b1011 #
b1001 #
0!
b1000 #
0%
09
07
0?
0B
1E
05
0;
0:
06
0*
08
0@
0C
1F
#404900
1%
1;
1*
#406000
0"
0<
0*
1=
#407000
0%
0;
1*
0=
#410000
1!
b1001 #
15
17
16
0*
18
#411900
1%
1;
1*
1=
#413000
1"
1<
0*
0=
#414000
0%
0;
1*
#418900
1%
1;
0*
#420000
b1011 #
0!
b1010 #
0"
07
1?
05
0<
06
1*
08
1@
1=
#421000
0%
0;
0*
0=
#425900
1%
1;
1*
1=
#427000
1"
1<
0*
0=
#428000
0%
0;
1*
#430000
1!
b1011 #
15
17
16
0*
18
#432900
1%
1;
1*
#434000
0"
0<
0*
1=
#435000
0%
0;
1*
0=
#439900
1%
1;
0*
1=
#440000
b1111 #
b1101 #
0!
b1100 #
07
0?
1B
05
06
1*
08
0@
1C
#441000
1"
1<
0*
0=
#442000
0%
0;
1*
#446900
1%
1;
0*
#448000
0"
0<
1*
1=
#449000
0%
0;
0*
0=
#450000
1!
b1101 #
15
17
16
1*
18
#453900
1%
1;
0*
1=
#455000
1"
1<
1*
0=
#456000
0%
0;
0*
#460000
b1111 #
0!
b1110 #
07
1?
05
06
1*
08
1@
#460900
1%
1;
0*
#462000
0"
0<
1*
1=
#463000
0%
0;
0*
0=
#467900
1%
1;
1*
1=
#469000
1"
1<
0*
0=
#470000
1!
b1111 #
0%
15
17
0;
16
1*
18
#474900
1%
1;
0*
#476000
0"
0<
1*
1=
#477000
0%
0;
0*
0=
#480000
b111 #
b11 #
b1 #
0!
b0 #
07
0?
0B
0E
05
06
1*
08
0@
0C
0F
#481900
1%
1;
0*
1=
#483000
1"
1<
1*
0=
#484000
0%
0;
0*
#488900
1%
1;
1*
#490000
1!
b1 #
0"
15
17
0<
16
0*
18
1=
#491000
0%
0;
1*
0=
#495900
1%
1;
0*
1=
#497000
1"
1<
1*
0=
#498000
0%
0;
0*
#500000
1$
b11 #
0!
b10 #
19
07
1?
05
1:
06
1*
08
1@
#502900
1%
1;
0*
#504000
0"
0<
1*
1=
#505000
0%
0;
0*
0=
#509900
1%
1;
1*
1=
#510000
1!
b11 #
15
17
16
0*
18
#511000
1"
1<
1*
0=
#512000
0%
0;
0*
#516900
1%
1;
1*
#518000
0"
0<
0*
1=
#519000
0%
0;
1*
0=
#520000
b111 #
b101 #
0!
b100 #
07
0?
1B
05
06
0*
08
0@
1C
#523900
1%
1;
1*
1=
#525000
1"
1<
0*
0=
#526000
0%
0;
1*
#530000
1!
b101 #
15
17
16
0*
18
#530900
1%
1;
1*
#532000
0"
0<
0*
1=
#533000
0%
0;
1*
0=
#537900
1%
1;
0*
1=
#539000
1"
1<
1*
0=
#540000
b111 #
0!
b110 #
0%
07
1?
05
0;
06
0*
08
1@
#544900
1%
1;
1*
#546000
0"
0<
0*
1=
#547000
0%
0;
1*
0=
#550000
1!
b111 #
15
17
16
0*
18
#551900
1%
1;
1*
1=
#553000
1"
1<
0*
0=
#554000
0%
0;
1*
#558900
1%
1;
0*
#560000
b1111 #
b1011 #
b1001 #
0!
b1000 #
0"
07
0?
0B
1E
05
0<
06
1*
08
0@
0C
1F
1=
#561000
0%
0;
0*
0=
#565900
1%
1;
1*
1=
#567000
1"
1<
0*
0=
#568000
0%
0;
1*
#570000
1!
b1001 #
15
17
16
0*
18
#572900
1%
1;
1*
#574000
0"
0<
0*
1=
#575000
0%
0;
1*
0=
#579900
1%
1;
0*
1=
#580000
b1011 #
0!
b1010 #
07
1?
05
06
1*
08
1@
#581000
1"
1<
0*
0=
#582000
0%
0;
1*
#586900
1%
1;
0*
#588000
0"
0<
1*
1=
#589000
0%
0;
0*
0=
#590000
1!
b1011 #
15
17
16
1*
18
#593900
1%
1;
0*
1=
#595000
1"
1<
1*
0=
#596000
0%
0;
0*
#600000
0$
b1111 #
b1101 #
0!
b1100 #
09
07
0?
1B
05
0:
06
1*
08
0@
1C
#600900
1%
1;
0*
#602000
0"
0<
1*
1=
#603000
0%
0;
0*
0=
#607900
1%
1;
1*
1=
#609000
1"
1<
0*
0=
#610000
1!
b1101 #
0%
15
17
0;
16
1*
18
#614900
1%
1;
0*
#616000
0"
0<
1*
1=
#617000
0%
0;
0*
0=
#620000
b1111 #
0!
b1110 #
07
1?
05
06
1*
08
1@
#621900
1%
1;
0*
1=
#623000
1"
1<
1*
0=
#624000
0%
0;
0*
#628900
1%
1;
1*
#630000
1!
b1111 #
0"
15
17
0<
16
0*
18
1=
#631000
0%
0;
1*
0=
#635900
1%
1;
0*
1=
#637000
1"
1<
1*
0=
#638000
0%
0;
0*
#640000
b111 #
b11 #
b1 #
0!
b0 #
07
0?
0B
0E
05
06
1*
08
0@
0C
0F
#642900
1%
1;
0*
#644000
0"
0<
1*
1=
#645000
0%
0;
0*
0=
#649900
1%
1;
1*
1=
#650000
1!
b1 #
15
17
16
0*
18
#651000
1"
1<
1*
0=
#652000
0%
0;
0*
#656900
1%
1;
1*
#658000
0"
0<
0*
1=
#659000
0%
0;
1*
0=
#660000
b11 #
0!
b10 #
07
1?
05
06
0*
08
1@
#663900
1%
1;
1*
1=
#665000
1"
1<
0*
0=
#666000
0%
0;
1*
#670000
1!
b11 #
15
17
16
0*
18
#670900
1%
1;
1*
#672000
0"
0<
0*
1=
#673000
0%
0;
1*
0=
#677900
1%
1;
0*
1=
#679000
1"
1<
1*
0=
#680000
b111 #
b101 #
0!
b100 #
0%
07
0?
1B
05
0;
06
0*
08
0@
1C
#684900
1%
1;
1*
#686000
0"
0<
0*
1=
#687000
0%
0;
1*
0=
#690000
1!
b101 #
15
17
16
0*
18
#691900
1%
1;
1*
1=
#693000
1"
1<
0*
0=
#694000
0%
0;
1*
#698900
1%
1;
0*
#700000
1$
b111 #
0!
b110 #
0"
19
07
1?
05
0<
1:
06
1*
08
1@
1=
#701000
0%
0;
0*
0=
#705900
1%
1;
1*
1=
#707000
1"
1<
0*
0=
#708000
0%
0;
1*
#710000
1!
b111 #
15
17
16
0*
18
#712900
1%
1;
1*
#714000
0"
0<
0*
1=
#715000
0%
0;
1*
0=
#719900
1%
1;
0*
1=
#720000
b1111 #
b1011 #
b1001 #
0!
b1000 #
07
0?
0B
1E
05
06
1*
08
0@
0C
1F
#721000
1"
1<
0*
0=
#722000
0%
0;
1*
#726900
1%
1;
0*
#728000
0"
0<
1*
1=
#729000
0%
0;
0*
0=
#730000
1!
b1001 #
15
17
16
1*
18
#733900
1%
1;
0*
1=
#735000
1"
1<
1*
0=
#736000
0%
0;
0*
#740000
b1011 #
0!
b1010 #
07
1?
05
06
1*
08
1@
#740900
1%
1;
0*
#742000
0"
0<
1*
1=
#743000
0%
0;
0*
0=
#747900
1%
1;
1*
1=
#749000
1"
1<
0*
0=
#750000
1!
b1011 #
0%
15
17
0;
16
1*
18
#754900
1%
1;
0*
#756000
0"
0<
1*
1=
#757000
0%
0;
0*
0=
#760000
b1111 #
b1101 #
0!
b1100 #
07
0?
1B
05
06
1*
08
0@
1C
#761900
1%
1;
0*
1=
#763000
1"
1<
1*
0=
#764000
0%
0;
0*
#768900
1%
1;
1*
#770000
1!
b1101 #
0"
15
17
0<
16
0*
18
1=
#771000
0%
0;
1*
0=
#775900
1%
1;
0*
1=
#777000
1"
1<
1*
0=
#778000
0%
0;
0*
#780000
b1111 #
0!
b1110 #
07
1?
05
06
1*
08
1@
#782900
1%
1;
0*
#784000
0"
0<
1*
1=
#785000
0%
0;
0*
0=
#789900
1%
1;
1*
1=
#790000
1!
b1111 #
15
17
16
0*
18
#791000
1"
1<
1*
0=
#792000
0%
0;
0*
#796900
1%
1;
1*
#798000
0"
0<
0*
1=
#799000
0%
0;
1*
0=
#800000
0$
b111 #
b11 #
b1 #
0!
b0 #
09
07
0?
0B
0E
05
0:
06
0*
08
0@
0C
0F
#803900
1%
1;
1*
1=
#805000
1"
1<
0*
0=
#806000
0%
0;
1*
#810000
1!
b1 #
15
17
16
0*
18
#810900
1%
1;
1*
#812000
0"
0<
0*
1=
#813000
0%
0;
1*
0=
#817900
1%
1;
0*
1=
#819000
1"
1<
1*
0=
#820000
b11 #
0!
b10 #
0%
07
1?
05
0;
06
0*
08
1@
#824900
1%
1;
1*
#826000
0"
0<
0*
1=
#827000
0%
0;
1*
0=
#830000
1!
b11 #
15
17
16
0*
18
#831900
1%
1;
1*
1=
#833000
1"
1<
0*
0=
#834000
0%
0;
1*
#838900
1%
1;
0*
#840000
b111 #
b101 #
0!
b100 #
0"
07
0?
1B
05
0<
06
1*
08
0@
1C
1=
#841000
0%
0;
0*
0=
#845900
1%
1;
1*
1=
#847000
1"
1<
0*
0=
#848000
0%
0;
1*
#850000
1!
b101 #
15
17
16
0*
18
#852900
1%
1;
1*
#854000
0"
0<
0*
1=
#855000
0%
0;
1*
0=
#859900
1%
1;
0*
1=
#860000
b111 #
0!
b110 #
07
1?
05
06
1*
08
1@
#861000
1"
1<
0*
0=
#862000
0%
0;
1*
#866900
1%
1;
0*
#868000
0"
0<
1*
1=
#869000
0%
0;
0*
0=
#870000
1!
b111 #
15
17
16
1*
18
#873900
1%
1;
0*
1=
#875000
1"
1<
1*
0=
#876000
0%
0;
0*
#880000
b1111 #
b1011 #
b1001 #
0!
b1000 #
07
0?
0B
1E
05
06
1*
08
0@
0C
1F
#880900
1%
1;
0*
#882000
0"
0<
1*
1=
#883000
0%
0;
0*
0=
#887900
1%
1;
1*
1=
#889000
1"
1<
0*
0=
#890000
1!
b1001 #
0%
15
17
0;
16
1*
18
#894900
1%
1;
0*
#896000
0"
0<
1*
1=
#897000
0%
0;
0*
0=
#900000
1$
b1011 #
0!
b1010 #
19
07
1?
05
1:
06
1*
08
1@
#901900
1%
1;
0*
1=
#903000
1"
1<
1*
0=
#904000
0%
0;
0*
#908900
1%
1;
1*
#910000
1!
b1011 #
0"
15
17
0<
16
0*
18
1=
#911000
0%
0;
1*
0=
#915900
1%
1;
0*
1=
#917000
1"
1<
1*
0=
#918000
0%
0;
0*
#920000
b1111 #
b1101 #
0!
b1100 #
07
0?
1B
05
06
1*
08
0@
1C
#922900
1%
1;
0*
#924000
0"
0<
1*
1=
#925000
0%
0;
0*
0=
#929900
1%
1;
1*
1=
#930000
1!
b1101 #
15
17
16
0*
18
#931000
1"
1<
1*
0=
#932000
0%
0;
0*
#936900
1%
1;
1*
#938000
0"
0<
0*
1=
#939000
0%
0;
1*
0=
#940000
b1111 #
0!
b1110 #
07
1?
05
06
0*
08
1@
#943900
1%
1;
1*
1=
#945000
1"
1<
0*
0=
#946000
0%
0;
1*
#950000
1!
b1111 #
15
17
16
0*
18
#950900
1%
1;
1*
#952000
0"
0<
0*
1=
#953000
0%
0;
1*
0=
#957900
1%
1;
0*
1=
#959000
1"
1<
1*
0=
#960000
b111 #
b11 #
b1 #
0!
b0 #
0%
07
0?
0B
0E
05
0;
06
0*
08
0@
0C
0F
#964900
1%
1;
1*
#966000
0"
0<
0*
1=
#967000
0%
0;
1*
0=
#970000
1!
b1 #
15
17
16
0*
18
#971900
1%
1;
1*
1=
#973000
1"
1<
0*
0=
#974000
0%
0;
1*
#978900
1%
1;
0*
#980000
b11 #
0!
b10 #
0"
07
1?
05
0<
06
1*
08
1@
1=
#981000
0%
0;
0*
0=
#985900
1%
1;
1*
1=
#987000
1"
1<
0*
0=
#988000
0%
0;
1*
#990000
1!
b11 #
15
17
16
0*
18
#992900
1%
1;
1*
#994000
0"
0<
0*
1=
#995000
0%
0;
1*
0=
#999900
1%
1;
0*
1=
