数字逻辑全套/实验/210710_43/Experiment7（最终版）/Experiment7/machine/simulation/qsim/main.msim.vcd
$comment
	File created using the following command:
		vcd file main.msim.vcd -direction
$end
$date
	Tue Feb 21 21:27:04 2023
$end
$version
	ModelSim Version 10.1d
$end
$timescale
	1ps
$end
$scope module main_vlg_vec_tst $end
$var reg 1 ! clk $end
$var reg 6 " r [5:0] $end
$var reg 2 # rules [1:0] $end
$var reg 1 $ start $end
$var reg 1 % stop $end
$var reg 6 & y [5:0] $end
$var wire 1 ' LEWG $end
$var wire 1 ( LEWR $end
$var wire 1 ) LEWY $end
$var wire 1 * LSNG $end
$var wire 1 + LSNR $end
$var wire 1 , LSNY $end
$var wire 1 - c_state [2] $end
$var wire 1 . c_state [1] $end
$var wire 1 / c_state [0] $end
$var wire 1 0 condition [31] $end
$var wire 1 1 condition [30] $end
$var wire 1 2 condition [29] $end
$var wire 1 3 condition [28] $end
$var wire 1 4 condition [27] $end
$var wire 1 5 condition [26] $end
$var wire 1 6 condition [25] $end
$var wire 1 7 condition [24] $end
$var wire 1 8 condition [23] $end
$var wire 1 9 condition [22] $end
$var wire 1 : condition [21] $end
$var wire 1 ; condition [20] $end
$var wire 1 < condition [19] $end
$var wire 1 = condition [18] $end
$var wire 1 > condition [17] $end
$var wire 1 ? condition [16] $end
$var wire 1 @ condition [15] $end
$var wire 1 A condition [14] $end
$var wire 1 B condition [13] $end
$var wire 1 C condition [12] $end
$var wire 1 D condition [11] $end
$var wire 1 E condition [10] $end
$var wire 1 F condition [9] $end
$var wire 1 G condition [8] $end
$var wire 1 H condition [7] $end
$var wire 1 I condition [6] $end
$var wire 1 J condition [5] $end
$var wire 1 K condition [4] $end
$var wire 1 L condition [3] $end
$var wire 1 M condition [2] $end
$var wire 1 N condition [1] $end
$var wire 1 O condition [0] $end
$var wire 1 P left $end
$var wire 1 Q n_state [2] $end
$var wire 1 R n_state [1] $end
$var wire 1 S n_state [0] $end
$var wire 1 T r_count [5] $end
$var wire 1 U r_count [4] $end
$var wire 1 V r_count [3] $end
$var wire 1 W r_count [2] $end
$var wire 1 X r_count [1] $end
$var wire 1 Y r_count [0] $end
$var wire 1 Z ring [1] $end
$var wire 1 [ ring [0] $end
$var wire 1 \ turn_out [1] $end
$var wire 1 ] turn_out [0] $end
$var wire 1 ^ y_count [5] $end
$var wire 1 _ y_count [4] $end
$var wire 1 ` y_count [3] $end
$var wire 1 a y_count [2] $end
$var wire 1 b y_count [1] $end
$var wire 1 c y_count [0] $end
$var wire 1 d sampler $end
$scope module i1 $end
$var wire 1 e gnd $end
$var wire 1 f vcc $end
$var wire 1 g unknown $end
$var tri1 1 h devclrn $end
$var tri1 1 i devpor $end
$var tri1 1 j devoe $end
$var wire 1 k Add3~2_combout $end
$var wire 1 l Add3~8_combout $end
$var wire 1 m Add4~2_combout $end
$var wire 1 n Add4~4_combout $end
$var wire 1 o Add0~9_combout $end
$var wire 1 p Add1~3_combout $end
$var wire 1 q Add1~10 $end
$var wire 1 r Add1~11_combout $end
$var wire 1 s Add1~12 $end
$var wire 1 t Add1~13_combout $end
$var wire 1 u Add2~6_combout $end
$var wire 1 v Add2~9_combout $end
$var wire 1 w Add2~12_combout $end
$var wire 1 x Add2~54_combout $end
$var wire 1 y Add2~57_combout $end
$var wire 1 z Equal6~3_combout $end
$var wire 1 { Mux3~4_combout $end
$var wire 1 | Equal5~1_combout $end
$var wire 1 } Equal3~1_combout $end
$var wire 1 ~ Equal7~0_combout $end
$var wire 1 !! Equal7~1_combout $end
$var wire 1 "! Equal7~2_combout $end
$var wire 1 #! Equal7~3_combout $end
$var wire 1 $! Equal7~4_combout $end
$var wire 1 %! Mux4~0_combout $end
$var wire 1 &! y_count[0]~1_combout $end
$var wire 1 '! condition[12]~3_combout $end
$var wire 1 (! LSNG~output_o $end
$var wire 1 )! LSNY~output_o $end
$var wire 1 *! c_state[0]~output_o $end
$var wire 1 +! c_state[1]~output_o $end
$var wire 1 ,! c_state[2]~output_o $end
$var wire 1 -! n_state[0]~output_o $end
$var wire 1 .! n_state[1]~output_o $end
$var wire 1 /! n_state[2]~output_o $end
$var wire 1 0! LSNR~output_o $end
$var wire 1 1! LEWG~output_o $end
$var wire 1 2! LEWY~output_o $end
$var wire 1 3! LEWR~output_o $end
$var wire 1 4! turn_out[0]~output_o $end
$var wire 1 5! turn_out[1]~output_o $end
$var wire 1 6! left~output_o $end
$var wire 1 7! ring[0]~output_o $end
$var wire 1 8! ring[1]~output_o $end
$var wire 1 9! r_count[0]~output_o $end
$var wire 1 :! r_count[1]~output_o $end
$var wire 1 ;! r_count[2]~output_o $end
$var wire 1 <! r_count[3]~output_o $end
$var wire 1 =! r_count[4]~output_o $end
$var wire 1 >! r_count[5]~output_o $end
$var wire 1 ?! y_count[0]~output_o $end
$var wire 1 @! y_count[1]~output_o $end
$var wire 1 A! y_count[2]~output_o $end
$var wire 1 B! y_count[3]~output_o $end
$var wire 1 C! y_count[4]~output_o $end
$var wire 1 D! y_count[5]~output_o $end
$var wire 1 E! condition[0]~output_o $end
$var wire 1 F! condition[1]~output_o $end
$var wire 1 G! condition[2]~output_o $end
$var wire 1 H! condition[3]~output_o $end
$var wire 1 I! condition[4]~output_o $end
$var wire 1 J! condition[5]~output_o $end
$var wire 1 K! condition[6]~output_o $end
$var wire 1 L! condition[7]~output_o $end
$var wire 1 M! condition[8]~output_o $end
$var wire 1 N! condition[9]~output_o $end
$var wire 1 O! condition[10]~output_o $end
$var wire 1 P! condition[11]~output_o $end
$var wire 1 Q! condition[12]~output_o $end
$var wire 1 R! condition[13]~output_o $end
$var wire 1 S! condition[14]~output_o $end
$var wire 1 T! condition[15]~output_o $end
$var wire 1 U! condition[16]~output_o $end
$var wire 1 V! condition[17]~output_o $end
$var wire 1 W! condition[18]~output_o $end
$var wire 1 X! condition[19]~output_o $end
$var wire 1 Y! condition[20]~output_o $end
$var wire 1 Z! condition[21]~output_o $end
$var wire 1 [! condition[22]~output_o $end
$var wire 1 \! condition[23]~output_o $end
$var wire 1 ]! condition[24]~output_o $end
$var wire 1 ^! condition[25]~output_o $end
$var wire 1 _! condition[26]~output_o $end
$var wire 1 `! condition[27]~output_o $end
$var wire 1 a! condition[28]~output_o $end
$var wire 1 b! condition[29]~output_o $end
$var wire 1 c! condition[30]~output_o $end
$var wire 1 d! condition[31]~output_o $end
$var wire 1 e! stop~input_o $end
$var wire 1 f! start~input_o $end
$var wire 1 g! always0~0_combout $end
$var wire 1 h! r[5]~input_o $end
$var wire 1 i! r[4]~input_o $end
$var wire 1 j! y[3]~input_o $end
$var wire 1 k! r[2]~input_o $end
$var wire 1 l! r[1]~input_o $end
$var wire 1 m! y[0]~input_o $end
$var wire 1 n! Add3~1 $end
$var wire 1 o! Add3~3 $end
$var wire 1 p! Add3~5 $end
$var wire 1 q! Add3~7 $end
$var wire 1 r! Add3~9 $end
$var wire 1 s! Add3~11 $end
$var wire 1 t! Add3~12_combout $end
$var wire 1 u! Add2~14_combout $end
$var wire 1 v! condition[4]~reg0_q $end
$var wire 1 w! Add2~1 $end
$var wire 1 x! Add2~4 $end
$var wire 1 y! Add2~7 $end
$var wire 1 z! Add2~10 $end
$var wire 1 {! Add2~13 $end
$var wire 1 |! Add2~15_combout $end
$var wire 1 }! Add2~17_combout $end
$var wire 1 ~! condition[5]~reg0_q $end
$var wire 1 !" Add2~16 $end
$var wire 1 "" Add2~19 $end
$var wire 1 #" Add2~22 $end
$var wire 1 $" Add2~24_combout $end
$var wire 1 %" Add2~26_combout $end
$var wire 1 &" condition[8]~reg0_q $end
$var wire 1 '" Add2~25 $end
$var wire 1 (" Add2~27_combout $end
$var wire 1 )" Add2~29_combout $end
$var wire 1 *" condition[9]~reg0_q $end
$var wire 1 +" Add2~28 $end
$var wire 1 ," Add2~30_combout $end
$var wire 1 -" Add2~32_combout $end
$var wire 1 ." condition[10]~reg0_q $end
$var wire 1 /" Add2~31 $end
$var wire 1 0" Add2~33_combout $end
$var wire 1 1" Add2~35_combout $end
$var wire 1 2" condition[11]~reg0_q $end
$var wire 1 3" Equal6~6_combout $end
$var wire 1 4" Add2~34 $end
$var wire 1 5" Add2~37 $end
$var wire 1 6" Add2~40 $end
$var wire 1 7" Add2~43 $end
$var wire 1 8" Add2~45_combout $end
$var wire 1 9" Add2~47_combout $end
$var wire 1 :" condition[15]~reg0_q $end
$var wire 1 ;" Add2~46 $end
$var wire 1 <" Add2~48_combout $end
$var wire 1 =" Add2~50_combout $end
$var wire 1 >" condition[16]~reg0_q $end
$var wire 1 ?" Add2~49 $end
$var wire 1 @" Add2~52 $end
$var wire 1 A" Add2~55 $end
$var wire 1 B" Add2~58 $end
$var wire 1 C" Add2~61 $end
$var wire 1 D" Add2~63_combout $end
$var wire 1 E" Add2~65_combout $end
$var wire 1 F" condition[21]~reg0_q $end
$var wire 1 G" Add2~64 $end
$var wire 1 H" Add2~66_combout $end
$var wire 1 I" Add2~68_combout $end
$var wire 1 J" condition[22]~reg0_q $end
$var wire 1 K" Add2~67 $end
$var wire 1 L" Add2~69_combout $end
$var wire 1 M" Add2~71_combout $end
$var wire 1 N" condition[23]~reg0_q $end
$var wire 1 O" Add2~70 $end
$var wire 1 P" Add2~72_combout $end
$var wire 1 Q" Add2~74_combout $end
$var wire 1 R" condition[24]~reg0_q $end
$var wire 1 S" Add2~73 $end
$var wire 1 T" Add2~76 $end
$var wire 1 U" Add2~79 $end
$var wire 1 V" Add2~81_combout $end
$var wire 1 W" Add2~83_combout $end
$var wire 1 X" condition[27]~reg0_q $end
$var wire 1 Y" Add2~82 $end
$var wire 1 Z" Add2~85 $end
$var wire 1 [" Add2~87_combout $end
$var wire 1 \" Add2~89_combout $end
$var wire 1 ]" condition[29]~reg0_q $end
$var wire 1 ^" Add2~88 $end
$var wire 1 _" Add2~90_combout $end
$var wire 1 `" Add2~92_combout $end
$var wire 1 a" condition[30]~reg0_q $end
$var wire 1 b" Add2~84_combout $end
$var wire 1 c" Add2~86_combout $end
$var wire 1 d" condition[28]~reg0_q $end
$var wire 1 e" Equal6~0_combout $end
$var wire 1 f" Add2~75_combout $end
$var wire 1 g" Add2~77_combout $end
$var wire 1 h" condition[25]~reg0_q $end
$var wire 1 i" Equal6~1_combout $end
$var wire 1 j" Equal6~2_combout $end
$var wire 1 k" Equal6~4_combout $end
$var wire 1 l" Add2~39_combout $end
$var wire 1 m" Add2~41_combout $end
$var wire 1 n" condition[13]~reg0_q $end
$var wire 1 o" Add2~42_combout $end
$var wire 1 p" Add2~44_combout $end
$var wire 1 q" condition[14]~reg0_q $end
$var wire 1 r" Equal6~5_combout $end
$var wire 1 s" Equal6~10_combout $end
$var wire 1 t" Add2~21_combout $end
$var wire 1 u" Add2~23_combout $end
$var wire 1 v" condition[7]~reg0_q $end
$var wire 1 w" Add2~11_combout $end
$var wire 1 x" condition[3]~reg0_q $end
$var wire 1 y" Add3~6_combout $end
$var wire 1 z" condition[12]~1_combout $end
$var wire 1 {" Add3~0_combout $end
$var wire 1 |" Add2~3_combout $end
$var wire 1 }" Add2~5_combout $end
$var wire 1 ~" condition[1]~reg0_q $end
$var wire 1 !# condition[12]~0_combout $end
$var wire 1 "# y[1]~input_o $end
$var wire 1 ## Add0~1 $end
$var wire 1 $# Add0~3_combout $end
$var wire 1 %# Add0~5_combout $end
$var wire 1 &# r_count[1]~reg0_q $end
$var wire 1 '# Add0~4 $end
$var wire 1 (# Add0~6_combout $end
$var wire 1 )# Add0~8_combout $end
$var wire 1 *# r_count[2]~reg0_q $end
$var wire 1 +# Add1~0_combout $end
$var wire 1 ,# Add1~2_combout $end
$var wire 1 -# y[5]~input_o $end
$var wire 1 .# y_count[5]~7_combout $end
$var wire 1 /# y_count[5]~8_combout $end
$var wire 1 0# y_count[5]~reg0_q $end
$var wire 1 1# y[4]~input_o $end
$var wire 1 2# y_count[4]~5_combout $end
$var wire 1 3# y_count[4]~6_combout $end
$var wire 1 4# y_count[4]~reg0_q $end
$var wire 1 5# y_count[0]~0_combout $end
$var wire 1 6# Add0~7 $end
$var wire 1 7# Add0~10 $end
$var wire 1 8# Add0~12 $end
$var wire 1 9# Add0~13_combout $end
$var wire 1 :# r_count[5]~8_combout $end
$var wire 1 ;# r_count[5]~9_combout $end
$var wire 1 <# r_count[5]~reg0_q $end
$var wire 1 =# ring~4_combout $end
$var wire 1 ># y_count[0]~2_combout $end
$var wire 1 ?# y_count[0]~reg0_q $end
$var wire 1 @# r_count[0]~2_combout $end
$var wire 1 A# y[2]~input_o $end
$var wire 1 B# Add1~1 $end
$var wire 1 C# Add1~4 $end
$var wire 1 D# Add1~6_combout $end
$var wire 1 E# Add1~8_combout $end
$var wire 1 F# y_count[2]~reg0_q $end
$var wire 1 G# ring~2_combout $end
$var wire 1 H# r_count[0]~3_combout $end
$var wire 1 I# r[3]~input_o $end
$var wire 1 J# r_count[3]~4_combout $end
$var wire 1 K# r_count[3]~5_combout $end
$var wire 1 L# r_count[3]~reg0_q $end
$var wire 1 M# ring~3_combout $end
$var wire 1 N# r_count[0]~10_combout $end
$var wire 1 O# Add0~11_combout $end
$var wire 1 P# r_count[4]~6_combout $end
$var wire 1 Q# r_count[4]~7_combout $end
$var wire 1 R# r_count[4]~reg0_q $end
$var wire 1 S# always2~2_combout $end
$var wire 1 T# Add1~5_combout $end
$var wire 1 U# y_count[1]~reg0_q $end
$var wire 1 V# LessThan3~0_combout $end
$var wire 1 W# condition[12]~2_combout $end
$var wire 1 X# condition[12]~4_combout $end
$var wire 1 Y# Add2~8_combout $end
$var wire 1 Z# condition[2]~reg0_q $end
$var wire 1 [# Equal6~8_combout $end
$var wire 1 \# Equal6~9_combout $end
$var wire 1 ]# Add2~18_combout $end
$var wire 1 ^# Add2~20_combout $end
$var wire 1 _# condition[6]~reg0_q $end
$var wire 1 `# Mux3~12_combout $end
$var wire 1 a# Equal7~6_combout $end
$var wire 1 b# Add2~36_combout $end
$var wire 1 c# Add2~38_combout $end
$var wire 1 d# condition[12]~reg0_q $end
$var wire 1 e# Equal7~5_combout $end
$var wire 1 f# Equal7~8_combout $end
$var wire 1 g# Equal7~7_combout $end
$var wire 1 h# Equal7~9_combout $end
$var wire 1 i# Equal7~10_combout $end
$var wire 1 j# Mux4~1_combout $end
$var wire 1 k# Mux4~2_combout $end
$var wire 1 l# n_state[2]$latch~combout $end
$var wire 1 m# c_state[2]~reg0_q $end
$var wire 1 n# WideOr1~0_combout $end
$var wire 1 o# Mux2~0_combout $end
$var wire 1 p# Mux2~1_combout $end
$var wire 1 q# Mux2~1clkctrl_outclk $end
$var wire 1 r# Mux3~10_combout $end
$var wire 1 s# Add4~0_combout $end
$var wire 1 t# Equal5~0_combout $end
$var wire 1 u# Add4~1 $end
$var wire 1 v# Add4~3 $end
$var wire 1 w# Add4~5 $end
$var wire 1 x# Add4~7 $end
$var wire 1 y# Add4~8_combout $end
$var wire 1 z# Add4~6_combout $end
$var wire 1 {# Equal5~2_combout $end
$var wire 1 |# Add4~9 $end
$var wire 1 }# Add4~11 $end
$var wire 1 ~# Add4~12_combout $end
$var wire 1 !$ Add4~10_combout $end
$var wire 1 "$ Equal5~3_combout $end
$var wire 1 #$ Equal5~4_combout $end
$var wire 1 $$ Mux3~8_combout $end
$var wire 1 %$ LEWY~4_combout $end
$var wire 1 &$ Mux5~0_combout $end
$var wire 1 '$ Mux5~1_combout $end
$var wire 1 ($ n_state[1]$latch~combout $end
$var wire 1 )$ c_state[1]~reg0_q $end
$var wire 1 *$ Mux3~0_combout $end
$var wire 1 +$ Equal6~7_combout $end
$var wire 1 ,$ Mux3~1_combout $end
$var wire 1 -$ Equal3~2_combout $end
$var wire 1 .$ r[0]~input_o $end
$var wire 1 /$ Equal3~0_combout $end
$var wire 1 0$ Equal3~3_combout $end
$var wire 1 1$ Add3~10_combout $end
$var wire 1 2$ Mux3~5_combout $end
$var wire 1 3$ Mux3~6_combout $end
$var wire 1 4$ Add3~4_combout $end
$var wire 1 5$ Mux3~2_combout $end
$var wire 1 6$ Mux3~3_combout $end
$var wire 1 7$ Mux3~7_combout $end
$var wire 1 8$ Mux3~9_combout $end
$var wire 1 9$ Mux3~11_combout $end
$var wire 1 :$ n_state[0]$latch~combout $end
$var wire 1 ;$ c_state[0]~reg0_q $end
$var wire 1 <$ LSNG~0_combout $end
$var wire 1 =$ LSNG~1_combout $end
$var wire 1 >$ LSNY~0_combout $end
$var wire 1 ?$ LSNR~4_combout $end
$var wire 1 @$ LEWG~0_combout $end
$var wire 1 A$ LEWY~5_combout $end
$var wire 1 B$ WideOr0~0_combout $end
$var wire 1 C$ LEWR~0_combout $end
$var wire 1 D$ rules[1]~input_o $end
$var wire 1 E$ rules[0]~input_o $end
$var wire 1 F$ Mux1~0_combout $end
$var wire 1 G$ Mux7~0_combout $end
$var wire 1 H$ Mux6~0_combout $end
$var wire 1 I$ Mux7~1_combout $end
$var wire 1 J$ Mux7~1clkctrl_outclk $end
$var wire 1 K$ turn_out[0]$latch~combout $end
$var wire 1 L$ Mux0~0_combout $end
$var wire 1 M$ turn_out[1]$latch~combout $end
$var wire 1 N$ Mux6~1_combout $end
$var wire 1 O$ Mux6~2_combout $end
$var wire 1 P$ left$latch~combout $end
$var wire 1 Q$ clk~input_o $end
$var wire 1 R$ clk~inputclkctrl_outclk $end
$var wire 1 S$ always2~0_combout $end
$var wire 1 T$ always2~1_combout $end
$var wire 1 U$ ring~7_combout $end
$var wire 1 V$ ring[0]~reg0_q $end
$var wire 1 W$ ring~5_combout $end
$var wire 1 X$ ring~6_combout $end
$var wire 1 Y$ ring[1]~reg0_q $end
$var wire 1 Z$ Add0~0_combout $end
$var wire 1 [$ Add0~2_combout $end
$var wire 1 \$ r_count[0]~reg0_q $end
$var wire 1 ]$ Add1~7 $end
$var wire 1 ^$ Add1~9_combout $end
$var wire 1 _$ y_count[3]~3_combout $end
$var wire 1 `$ y_count[3]~4_combout $end
$var wire 1 a$ y_count[3]~reg0_q $end
$var wire 1 b$ Add2~0_combout $end
$var wire 1 c$ Add2~2_combout $end
$var wire 1 d$ condition[0]~reg0_q $end
$var wire 1 e$ Add2~51_combout $end
$var wire 1 f$ Add2~53_combout $end
$var wire 1 g$ condition[17]~reg0_q $end
$var wire 1 h$ Add2~56_combout $end
$var wire 1 i$ condition[18]~reg0_q $end
$var wire 1 j$ Add2~59_combout $end
$var wire 1 k$ condition[19]~reg0_q $end
$var wire 1 l$ Add2~60_combout $end
$var wire 1 m$ Add2~62_combout $end
$var wire 1 n$ condition[20]~reg0_q $end
$var wire 1 o$ Add2~78_combout $end
$var wire 1 p$ Add2~80_combout $end
$var wire 1 q$ condition[26]~reg0_q $end
$var wire 1 r$ Add2~91 $end
$var wire 1 s$ Add2~93_combout $end
$var wire 1 t$ Add2~95_combout $end
$var wire 1 u$ condition[31]~reg0_q $end
$upscope $end
$upscope $end
$enddefinitions $end
#0
$dumpvars
0!
b10000 "
b11 #
0$
0%
b100 &
0'
1(
0)
0*
1+
0,
0/
0.
0-
0O
0N
0M
0L
0K
0J
0I
0H
0G
0F
0E
0D
0C
0B
0A
0@
0?
0>
0=
0<
0;
0:
09
08
07
06
05
04
03
02
01
00
1P
1S
1R
1Q
0Y
0X
0W
0V
0U
0T
0[
0Z
0]
0\
0c
0b
0a
0`
0_
0^
xd
0e
1f
xg
1h
1i
1j
0k
1l
1m
0n
1o
1p
1q
1r
0s
1t
0u
0v
0w
0x
0y
1z
1{
0|
1}
0~
0!!
0"!
0#!
0$!
0%!
0&!
1'!
0(!
0)!
0*!
0+!
0,!
1-!
1.!
1/!
10!
01!
02!
13!
04!
05!
16!
07!
08!
09!
0:!
0;!
0<!
0=!
0>!
0?!
0@!
0A!
0B!
0C!
0D!
0E!
0F!
0G!
0H!
0I!
0J!
0K!
0L!
0M!
0N!
0O!
0P!
0Q!
0R!
0S!
0T!
0U!
0V!
0W!
0X!
0Y!
0Z!
0[!
0\!
0]!
0^!
0_!
0`!
0a!
0b!
0c!
0d!
0e!
0f!
0g!
0h!
1i!
0j!
0k!
0l!
0m!
0n!
1o!
0p!
1q!
0r!
1s!
0t!
1u!
0v!
0w!
1x!
0y!
1z!
0{!
0|!
1}!
0~!
1!"
0""
1#"
0$"
1%"
0&"
0'"
0("
1)"
0*"
1+"
0,"
1-"
0."
0/"
00"
11"
02"
13"
14"
05"
16"
07"
08"
19"
0:"
1;"
0<"
1="
0>"
0?"
1@"
0A"
1B"
0C"
0D"
1E"
0F"
1G"
0H"
1I"
0J"
0K"
0L"
1M"
0N"
1O"
0P"
1Q"
0R"
0S"
1T"
0U"
0V"
1W"
0X"
1Y"
0Z"
0["
1\"
0]"
1^"
0_"
1`"
0a"
0b"
1c"
0d"
1e"
0f"
1g"
0h"
1i"
1j"
1k"
0l"
1m"
0n"
0o"
1p"
0q"
1r"
1s"
0t"
1u"
0v"
1w"
0x"
0y"
1z"
0{"
0|"
1}"
0~"
0!#
0"#
0##
1$#
0%#
0&#
1'#
1(#
0)#
0*#
1+#
0,#
0-#
0.#
0/#
00#
01#
02#
03#
04#
15#
06#
17#
08#
19#
0:#
0;#
0<#
1=#
1>#
0?#
0@#
1A#
0B#
1C#
1D#
1E#
0F#
1G#
0H#
0I#
0J#
0K#
0L#
1M#
1N#
1O#
1P#
1Q#
0R#
0S#
0T#
0U#
0V#
1W#
1X#
1Y#
0Z#
1[#
1\#
0]#
1^#
0_#
1`#
0a#
0b#
1c#
0d#
0e#
0f#
0g#
0h#
0i#
0j#
0k#
1l#
0m#
0n#
0o#
0p#
0q#
0r#
0s#
1t#
0u#
1v#
0w#
1x#
1y#
0z#
0{#
0|#
1}#
0~#
0!$
1"$
0#$
0$$
0%$
0&$
0'$
1($
0)$
1*$
1+$
0,$
0-$
0.$
1/$
00$
01$
02$
03$
14$
05$
06$
07$
08$
09$
1:$
0;$
1<$
1=$
0>$
1?$
1@$
0A$
0B$
1C$
1D$
1E$
0F$
0G$
0H$
1I$
1J$
0K$
0L$
0M$
1N$
0O$
1P$
0Q$
0R$
0S$
0T$
0U$
0V$
0W$
0X$
0Y$
1Z$
0[$
0\$
0]$
1^$
0_$
0`$
0a$
1b$
1c$
0d$
0e$
1f$
0g$
1h$
0i$
1j$
0k$
0l$
1m$
0n$
0o$
1p$
0q$
0r$
0s$
1t$
0u$
$end
#3000
1!
1Q$
1R$
0d
1u$
1q$
1n$
1k$
1i$
1g$
1d$
1;$
1)$
1m#
1d#
1_#
1Z#
1~"
1x"
1v"
1q"
1n"
1h"
1d"
1a"
1]"
1X"
1R"
1N"
1J"
1F"
1>"
1:"
12"
1."
1*"
1&"
1~!
1v!
1R#
1F#
1s$
0e"
1~
0i"
1o$
1!!
0j"
1l$
1"!
1#!
0z
1y
1x
1e$
0/$
0t#
1f#
0[#
1w!
0b$
0{
1G$
1B$
0<$
1n#
1e#
0r"
1b#
0+$
0"$
1g#
1]#
0\#
1!#
0}
1u
1|"
1v
0*$
1t"
1o"
1l"
1f"
1b"
1_"
1["
1V"
1P"
1L"
1H"
1D"
1<"
18"
1a#
03"
10"
1,"
1("
1$"
1|!
1w
0=#
18#
0O#
0G#
1]$
0D#
1&!
1d!
1_!
1Y!
1X!
1W!
1V!
1E!
1*!
1+!
1,!
1Q!
1K!
1G!
1F!
1H!
1L!
1S!
1R!
1^!
1a!
1c!
1b!
1`!
1]!
1\!
1[!
1Z!
1U!
1T!
1P!
1O!
1N!
1M!
1J!
1I!
1=!
1A!
10
15
1;
1<
1=
1>
1O
1/
1.
1-
1C
1I
1M
1N
1L
1H
1A
1B
16
13
11
12
14
17
18
19
1:
1?
1@
1D
1E
1F
1G
1J
1K
1U
1a
0k"
1$!
1h#
0x!
0|"
1,$
0s"
09#
1V#
0q
0^$
1i#
1y!
0u
19$
1S#
1s
0r
1&$
1o#
1j#
0z!
0v
0t
1'$
1p#
1k#
1{!
0w
1q#
0!"
0|!
1""
0]#
0#"
0t"
1'"
0$"
0+"
0("
1/"
0,"
04"
00"
15"
0b#
06"
0l"
17"
0o"
0;"
08"
1?"
0<"
0@"
0e$
1A"
0x
0B"
0y
1C"
0l$
0G"
0D"
1K"
0H"
0O"
0L"
1S"
0P"
0T"
0f"
1U"
0o$
0Y"
0V"
1Z"
0b"
0^"
0["
1r$
0_"
0s$
#6000
0!
0Q$
0R$
1d
#9000
1!
1Q$
1R$
0d
#12000
0!
0Q$
0R$
1d
#15000
1!
1Q$
1R$
0d
#18000
0!
0Q$
0R$
1d
#21000
1!
1Q$
1R$
0d
#24000
0!
0Q$
0R$
1d
#27000
1!
1Q$
1R$
0d
#30000
0!
0Q$
0R$
1d
#33000
1!
1Q$
1R$
0d
#36000
0!
0Q$
0R$
1d
#39000
1!
1Q$
1R$
0d
#42000
0!
0Q$
0R$
1d
#45000
1!
1Q$
1R$
0d
#48000
0!
0Q$
0R$
1d
#50000
1$
1f!
0d
1H#
1g!
1_$
1[$
1T#
0P#
1J#
0E#
1)#
1%#
0t$
0p$
0m$
0j$
0h$
0f$
0c$
0c#
0^#
0Y#
0>#
0}"
0w"
0u"
0p"
0m"
0g"
0c"
0`"
0\"
0W"
0Q"
0M"
0I"
0E"
0="
09"
01"
0-"
0)"
0%"
0}!
0u!
0Q#
1K#
#51000
1!
1Q$
1R$
1d
0u$
0q$
0n$
0k$
0i$
0g$
0d$
0d#
0_#
0Z#
0~"
0x"
0v"
0q"
0n"
0h"
0d"
0a"
0]"
0X"
0R"
0N"
0J"
0F"
0>"
0:"
02"
0."
0*"
0&"
0~!
0v!
1\$
0R#
1L#
1*#
1&#
1s$
1e"
0~
1i"
0U"
1o$
0!!
1j"
0C"
1l$
0"!
0#!
1z
1B"
1y
0A"
1x
1@"
1e$
1/$
1t#
0f#
1[#
0w!
1b$
1{
0e#
1r"
05"
1b#
1"$
0g#
0""
1]#
0!#
1}
0y!
1u
1x!
1|"
1z!
1v
1#"
1t"
07"
1o"
16"
1l"
1T"
1f"
0Z"
1b"
0r$
1_"
1^"
1["
1Y"
1V"
0S"
1P"
1O"
1L"
0K"
1H"
1G"
1D"
0?"
1<"
1;"
18"
0a#
13"
14"
10"
0/"
1,"
1+"
1("
0'"
1$"
0h#
1!"
1|!
0{!
1w
0M#
1##
0Z$
0S#
0N#
1=#
08#
1O#
07#
0o
16#
0(#
0'#
0$#
0d!
0_!
0Y!
0X!
0W!
0V!
0E!
0Q!
0K!
0G!
0F!
0H!
0L!
0S!
0R!
0^!
0a!
0c!
0b!
0`!
0]!
0\!
0[!
0Z!
0U!
0T!
0P!
0O!
0N!
0M!
0J!
0I!
19!
0=!
1<!
1;!
1:!
00
05
0;
0<
0=
0>
0O
0C
0I
0M
0N
0L
0H
0A
0B
06
03
01
02
04
07
08
09
0:
0?
0@
0D
0E
0F
0G
0J
0K
1Y
0U
1V
1W
1X
1t$
1k"
0$!
0V"
1p$
0D"
1m$
0l$
1j$
0y
1h$
0x
1f$
1\#
0|"
1c$
0i#
0l"
1c#
0t"
1^#
0v
1Y#
0u
1}"
0w
1w"
0$"
1u"
08"
1p"
0o"
1m"
0o$
1g"
0["
1c"
0s$
1`"
0_"
1\"
0b"
1W"
0f"
1Q"
0P"
1M"
0L"
1I"
0H"
1E"
0e$
1="
0<"
19"
0b#
11"
00"
1-"
0,"
1)"
0("
1%"
0]#
1}!
0|!
1u!
1S#
1N#
0=#
1$#
0[$
0_$
1P#
1,#
0%#
0K#
1W$
1>#
1:#
19#
18#
0O#
1o
1(#
1*$
1s"
0W"
0E"
0m$
0j$
0h$
0}"
0&$
0j#
0m"
0u"
0w"
0Y#
0u!
0%"
09"
0p"
0p$
0\"
0t$
0`"
0c"
0g"
0Q"
0M"
0I"
0f$
0="
0c#
01"
0-"
0)"
0^#
0}!
1_$
0P#
0,#
1%#
1Q#
1K#
1;#
0W$
0>#
09#
1+$
0'$
0k#
0Q#
0:#
0;#
0($
0l#
0.!
0/!
0R
0Q
#54000
0!
0Q$
0R$
0d
#57000
1!
1Q$
1R$
1d
1d$
0)$
0m#
0\$
0/$
0t#
0[#
1w!
0b$
0{
0G$
0B$
0@$
1r#
0n#
1H$
0##
1Z$
1E!
0+!
0,!
09!
1O
0.
0-
0Y
0\#
1|"
0c$
0,$
0o#
1O$
1L$
0$#
1[$
11!
1'
0C$
0`#
1}"
0%#
03!
0(
0P$
1M$
06!
15!
0P
1\
#60000
0!
0Q$
0R$
0d
#63000
1!
1Q$
1R$
1d
0d$
1~"
1\$
0&#
1[#
0w!
1b$
1!#
0x!
0|"
1##
0Z$
1'#
1$#
0E!
1F!
19!
0:!
0O
1N
1Y
0X
1x!
1|"
1c$
1u
0}"
0'#
0$#
0[$
0(#
1%#
0u
1}"
1Y#
1(#
0%#
0)#
0Y#
1)#
#66000
0!
0Q$
0R$
0d
#69000
1!
1Q$
1R$
1d
1d$
0\$
0[#
1w!
0b$
0##
1Z$
1E!
09!
1O
0Y
0x!
0|"
0c$
1'#
1$#
1[$
1u
0}"
0(#
1%#
1Y#
0)#
#72000
0!
0Q$
0R$
0d
#75000
1!
1Q$
1R$
1d
0d$
1Z#
0~"
1\$
0*#
1&#
1/$
1t#
1[#
0w!
1b$
1{
15$
0}
1|
1y!
0u
1x!
1|"
1##
0Z$
06#
1(#
0'#
0$#
0E!
1G!
0F!
19!
0;!
1:!
0O
1M
0N
1Y
0W
1X
0|"
1c$
16$
1v
0Y#
0y!
1u
1}"
1$#
0[$
0o
1)#
16#
0(#
0%#
0}"
1w"
0v
1Y#
1%#
0J#
1o
0)#
0w"
0K#
1J#
1K#
#78000
0!
0Q$
0R$
0d
