数字逻辑全套/实验/210710_43/Experiment4/exp4_project1/flowing_water_light/simulation/qsim/flowing_water_light.msim.vcd
$comment
	File created using the following command:
		vcd file flowing_water_light.msim.vcd -direction
$end
$date
	Wed Nov 09 13:10:19 2022
$end
$version
	ModelSim Version 10.1d
$end
$timescale
	1ps
$end
$scope module flowing_water_light_vlg_vec_tst $end
$var reg 1 ! clk $end
$var reg 1 " reset $end
$var wire 1 # out [15] $end
$var wire 1 $ out [14] $end
$var wire 1 % out [13] $end
$var wire 1 & out [12] $end
$var wire 1 ' out [11] $end
$var wire 1 ( out [10] $end
$var wire 1 ) out [9] $end
$var wire 1 * out [8] $end
$var wire 1 + out [7] $end
$var wire 1 , out [6] $end
$var wire 1 - out [5] $end
$var wire 1 . out [4] $end
$var wire 1 / out [3] $end
$var wire 1 0 out [2] $end
$var wire 1 1 out [1] $end
$var wire 1 2 out [0] $end
$var wire 1 3 sampler $end
$scope module i1 $end
$var wire 1 4 gnd $end
$var wire 1 5 vcc $end
$var wire 1 6 unknown $end
$var tri1 1 7 devclrn $end
$var tri1 1 8 devpor $end
$var tri1 1 9 devoe $end
$var wire 1 : Add0~2_combout $end
$var wire 1 ; Add0~10_combout $end
$var wire 1 < Add0~12_combout $end
$var wire 1 = Add0~30_combout $end
$var wire 1 > Add0~38_combout $end
$var wire 1 ? Add0~44_combout $end
$var wire 1 @ Add0~53 $end
$var wire 1 A Add0~54_combout $end
$var wire 1 B Add0~55 $end
$var wire 1 C Add0~56_combout $end
$var wire 1 D Add0~57 $end
$var wire 1 E Add0~58_combout $end
$var wire 1 F Add0~59 $end
$var wire 1 G Add0~60_combout $end
$var wire 1 H Add0~61 $end
$var wire 1 I Add0~62_combout $end
$var wire 1 J Equal0~0_combout $end
$var wire 1 K Equal0~8_combout $end
$var wire 1 L clk~input_o $end
$var wire 1 M clk~inputclkctrl_outclk $end
$var wire 1 N out[0]~output_o $end
$var wire 1 O out[1]~output_o $end
$var wire 1 P out[2]~output_o $end
$var wire 1 Q out[3]~output_o $end
$var wire 1 R out[4]~output_o $end
$var wire 1 S out[5]~output_o $end
$var wire 1 T out[6]~output_o $end
$var wire 1 U out[7]~output_o $end
$var wire 1 V out[8]~output_o $end
$var wire 1 W out[9]~output_o $end
$var wire 1 X out[10]~output_o $end
$var wire 1 Y out[11]~output_o $end
$var wire 1 Z out[12]~output_o $end
$var wire 1 [ out[13]~output_o $end
$var wire 1 \ out[14]~output_o $end
$var wire 1 ] out[15]~output_o $end
$var wire 1 ^ cnt~0_combout $end
$var wire 1 _ Add0~0_combout $end
$var wire 1 ` cnt~1_combout $end
$var wire 1 a Add0~1 $end
$var wire 1 b Add0~3 $end
$var wire 1 c Add0~4_combout $end
$var wire 1 d Add0~5 $end
$var wire 1 e Add0~6_combout $end
$var wire 1 f Equal0~9_combout $end
$var wire 1 g Add0~7 $end
$var wire 1 h Add0~8_combout $end
$var wire 1 i Add0~9 $end
$var wire 1 j Add0~11 $end
$var wire 1 k Add0~13 $end
$var wire 1 l Add0~14_combout $end
$var wire 1 m Add0~15 $end
$var wire 1 n Add0~16_combout $end
$var wire 1 o Add0~17 $end
$var wire 1 p Add0~18_combout $end
$var wire 1 q Add0~19 $end
$var wire 1 r Add0~20_combout $end
$var wire 1 s Add0~21 $end
$var wire 1 t Add0~23 $end
$var wire 1 u Add0~24_combout $end
$var wire 1 v Add0~25 $end
$var wire 1 w Add0~27 $end
$var wire 1 x Add0~28_combout $end
$var wire 1 y Add0~26_combout $end
$var wire 1 z Equal0~5_combout $end
$var wire 1 { Add0~22_combout $end
$var wire 1 | Equal0~6_combout $end
$var wire 1 } Equal0~7_combout $end
$var wire 1 ~ Add0~29 $end
$var wire 1 !! Add0~31 $end
$var wire 1 "! Add0~32_combout $end
$var wire 1 #! Add0~33 $end
$var wire 1 $! Add0~34_combout $end
$var wire 1 %! Add0~35 $end
$var wire 1 &! Add0~36_combout $end
$var wire 1 '! Add0~37 $end
$var wire 1 (! Add0~39 $end
$var wire 1 )! Add0~40_combout $end
$var wire 1 *! Add0~41 $end
$var wire 1 +! Add0~43 $end
$var wire 1 ,! Add0~45 $end
$var wire 1 -! Add0~46_combout $end
$var wire 1 .! Add0~42_combout $end
$var wire 1 /! Equal0~2_combout $end
$var wire 1 0! Equal0~3_combout $end
$var wire 1 1! Add0~47 $end
$var wire 1 2! Add0~48_combout $end
$var wire 1 3! Add0~49 $end
$var wire 1 4! Add0~50_combout $end
$var wire 1 5! Add0~51 $end
$var wire 1 6! Add0~52_combout $end
$var wire 1 7! Equal0~1_combout $end
$var wire 1 8! Equal0~4_combout $end
$var wire 1 9! Equal0~10_combout $end
$var wire 1 :! clk_1hz~0_combout $end
$var wire 1 ;! clk_1hz~feeder_combout $end
$var wire 1 <! clk_1hz~q $end
$var wire 1 =! clk_1hz~clkctrl_outclk $end
$var wire 1 >! reset~input_o $end
$var wire 1 ?! state~25_combout $end
$var wire 1 @! state.st2~q $end
$var wire 1 A! state~26_combout $end
$var wire 1 B! state.st3~q $end
$var wire 1 C! state~27_combout $end
$var wire 1 D! state.st4~q $end
$var wire 1 E! state~28_combout $end
$var wire 1 F! state.st5~q $end
$var wire 1 G! state~29_combout $end
$var wire 1 H! state.st6~q $end
$var wire 1 I! state~30_combout $end
$var wire 1 J! state.st7~q $end
$var wire 1 K! state~31_combout $end
$var wire 1 L! state.st8~q $end
$var wire 1 M! state~32_combout $end
$var wire 1 N! state.st9~q $end
$var wire 1 O! state~33_combout $end
$var wire 1 P! state.st10~q $end
$var wire 1 Q! state~34_combout $end
$var wire 1 R! state.st11~q $end
$var wire 1 S! state~35_combout $end
$var wire 1 T! state.st12~q $end
$var wire 1 U! state~36_combout $end
$var wire 1 V! state.st13~q $end
$var wire 1 W! state~37_combout $end
$var wire 1 X! state.st14~q $end
$var wire 1 Y! state~38_combout $end
$var wire 1 Z! state.st15~q $end
$var wire 1 [! state~39_combout $end
$var wire 1 \! state.st16~q $end
$var wire 1 ]! state~40_combout $end
$var wire 1 ^! state.st0~q $end
$var wire 1 _! state~24_combout $end
$var wire 1 `! state.st1~q $end
$var wire 1 a! cnt [31] $end
$var wire 1 b! cnt [30] $end
$var wire 1 c! cnt [29] $end
$var wire 1 d! cnt [28] $end
$var wire 1 e! cnt [27] $end
$var wire 1 f! cnt [26] $end
$var wire 1 g! cnt [25] $end
$var wire 1 h! cnt [24] $end
$var wire 1 i! cnt [23] $end
$var wire 1 j! cnt [22] $end
$var wire 1 k! cnt [21] $end
$var wire 1 l! cnt [20] $end
$var wire 1 m! cnt [19] $end
$var wire 1 n! cnt [18] $end
$var wire 1 o! cnt [17] $end
$var wire 1 p! cnt [16] $end
$var wire 1 q! cnt [15] $end
$var wire 1 r! cnt [14] $end
$var wire 1 s! cnt [13] $end
$var wire 1 t! cnt [12] $end
$var wire 1 u! cnt [11] $end
$var wire 1 v! cnt [10] $end
$var wire 1 w! cnt [9] $end
$var wire 1 x! cnt [8] $end
$var wire 1 y! cnt [7] $end
$var wire 1 z! cnt [6] $end
$var wire 1 {! cnt [5] $end
$var wire 1 |! cnt [4] $end
$var wire 1 }! cnt [3] $end
$var wire 1 ~! cnt [2] $end
$var wire 1 !" cnt [1] $end
$var wire 1 "" cnt [0] $end
$upscope $end
$upscope $end
$enddefinitions $end
#0
$dumpvars
0!
0"
02
01
00
0/
0.
0-
0,
0+
0*
0)
0(
0'
0&
0%
0$
0#
x3
04
15
x6
17
18
19
0:
0;
0<
0=
0>
0?
0@
0A
1B
0C
0D
0E
1F
0G
0H
0I
1J
1K
0L
0M
0N
0O
0P
0Q
0R
0S
0T
0U
0V
0W
0X
0Y
0Z
0[
0\
0]
0^
1_
1`
0a
1b
0c
0d
0e
0f
1g
0h
0i
1j
0k
0l
1m
0n
0o
0p
1q
0r
0s
1t
0u
0v
1w
0x
0y
1z
0{
1|
1}
0~
1!!
0"!
0#!
0$!
1%!
0&!
0'!
1(!
0)!
0*!
1+!
0,!
0-!
0.!
1/!
10!
11!
02!
03!
04!
15!
06!
17!
18!
09!
0:!
0;!
0<!
0=!
0>!
0?!
0@!
0A!
0B!
0C!
0D!
0E!
0F!
0G!
0H!
0I!
0J!
0K!
0L!
0M!
0N!
0O!
0P!
0Q!
0R!
0S!
0T!
0U!
0V!
0W!
0X!
0Y!
0Z!
0[!
0\!
0]!
0^!
0_!
0`!
0""
0!"
0~!
0}!
0|!
0{!
0z!
0y!
0x!
0w!
0v!
0u!
0t!
0s!
0r!
0q!
0p!
0o!
0n!
0m!
0l!
0k!
0j!
0i!
0h!
0g!
0f!
0e!
0d!
0c!
0b!
0a!
$end
#10000
1!
1L
1M
03
1""
1a
0_
1:
0`
1^
#20000
0!
0L
0M
13
#30000
1!
1L
1M
03
0""
1!"
1f
0a
1_
0b
0:
19!
1b
1:
1`
1c
0^
1:!
0`
0c
1;!
#40000
0!
0L
0M
13
#50000
1!
1L
1M
03
1<!
0!"
1=!
0:!
0f
0:
0;!
09!
1:!
1`
1;!
#60000
0!
0L
0M
13
#70000
1!
1L
1M
03
1""
1a
0_
1:
0`
1^
#80000
1"
0!
1>!
0L
0M
13
1_!
1]!
#90000
1!
1L
1M
03
0""
1!"
1f
0a
1_
0b
0:
19!
1b
1:
1`
1c
0^
0:!
0`
0c
0;!
#100000
0!
0L
0M
13
#110000
1!
1L
1M
03
0<!
0!"
0=!
1:!
0f
0:
1;!
09!
0:!
1`
0;!
#120000
0!
0L
0M
13
#130000
1!
1L
1M
03
1""
1a
0_
1:
0`
1^
#140000
0!
0L
0M
13
#150000
1!
1L
1M
03
0""
1!"
1f
0a
1_
0b
0:
19!
1b
1:
1`
1c
0^
1:!
0`
0c
1;!
#160000
0!
0L
0M
13
#170000
1!
1L
1M
03
1<!
0!"
1=!
0:!
0f
0:
0;!
09!
1:!
1`
1;!
1^!
1`!
0_!
1?!
1N
12
#180000
0!
0L
0M
13
#190000
1!
1L
1M
03
1""
1a
0_
1:
0`
1^
#200000
0!
0L
0M
13
#210000
1!
1L
1M
03
0""
1!"
1f
0a
1_
0b
0:
19!
1b
1:
1`
1c
0^
0:!
0`
0c
0;!
#220000
0!
0L
0M
13
#230000
1!
1L
1M
03
0<!
0!"
0=!
1:!
0f
0:
1;!
09!
0:!
1`
0;!
#240000
0!
0L
0M
13
#250000
1!
1L
1M
03
1""
1a
0_
1:
0`
1^
#260000
0!
0L
0M
13
#270000
1!
1L
1M
03
0""
1!"
1f
0a
1_
0b
0:
19!
1b
1:
1`
1c
0^
1:!
0`
0c
1;!
#280000
0!
0L
0M
13
#290000
1!
1L
1M
03
1<!
0!"
1=!
0:!
0f
0:
0;!
09!
1:!
1`
1;!
0`!
1@!
0?!
1A!
0N
1O
02
11
#300000
0!
0L
0M
13
#310000
1!
1L
1M
03
1""
1a
0_
1:
0`
1^
#320000
0!
0L
0M
13
#330000
1!
1L
1M
03
0""
1!"
1f
0a
1_
0b
0:
19!
1b
1:
1`
1c
0^
0:!
0`
0c
0;!
#340000
0!
0L
0M
13
#350000
1!
1L
1M
03
0<!
0!"
0=!
1:!
0f
0:
1;!
09!
0:!
1`
0;!
#360000
0!
0L
0M
13
#370000
1!
1L
1M
03
1""
1a
0_
1:
0`
1^
#380000
0!
0L
0M
13
#390000
1!
1L
1M
03
0""
1!"
1f
0a
1_
0b
0:
19!
1b
1:
1`
1c
0^
1:!
0`
0c
1;!
#400000
0!
0L
0M
13
#410000
1!
1L
1M
03
1<!
0!"
1=!
0:!
0f
0:
0;!
09!
1:!
1`
1;!
1B!
0@!
1C!
0A!
1P
0O
10
01
#420000
0!
0L
0M
13
#430000
1!
1L
1M
03
1""
1a
0_
1:
0`
1^
#440000
0!
0L
0M
13
#450000
1!
1L
1M
03
0""
1!"
1f
0a
1_
0b
0:
19!
1b
1:
1`
1c
0^
0:!
0`
0c
0;!
#460000
0!
0L
0M
13
#470000
1!
1L
1M
03
0<!
0!"
0=!
1:!
0f
0:
1;!
09!
0:!
1`
0;!
#480000
0!
0L
0M
13
#490000
1!
1L
1M
03
1""
1a
0_
1:
0`
1^
#500000
0!
0L
0M
13
#510000
1!
1L
1M
03
0""
1!"
1f
0a
1_
0b
0:
19!
1b
1:
1`
1c
0^
1:!
0`
0c
1;!
#520000
0!
0L
0M
13
#530000
1!
1L
1M
03
1<!
0!"
1=!
0:!
0f
0:
0;!
09!
1:!
1`
1;!
1D!
0B!
1E!
0C!
1Q
0P
1/
00
#540000
0!
0L
0M
13
#550000
1!
1L
1M
03
1""
1a
0_
1:
0`
1^
#560000
0!
0L
0M
13
#570000
1!
1L
1M
03
0""
1!"
1f
0a
1_
0b
0:
19!
1b
1:
1`
1c
0^
0:!
0`
0c
0;!
#580000
0!
0L
0M
13
#590000
1!
1L
1M
03
0<!
0!"
0=!
1:!
0f
0:
1;!
09!
0:!
1`
0;!
#600000
0!
0L
0M
13
#610000
1!
1L
1M
03
1""
1a
0_
1:
0`
1^
#620000
0!
0L
0M
13
#630000
1!
1L
1M
03
0""
1!"
1f
0a
1_
0b
0:
19!
1b
1:
1`
1c
0^
1:!
0`
0c
1;!
#640000
0!
0L
0M
13
#650000
1!
1L
1M
03
1<!
0!"
1=!
0:!
0f
0:
0;!
09!
1:!
1`
1;!
1F!
0D!
1G!
0E!
1R
0Q
1.
0/
#660000
0!
0L
0M
13
#670000
1!
1L
1M
03
1""
1a
0_
1:
0`
1^
#680000
0!
0L
0M
13
#690000
1!
1L
1M
03
0""
1!"
1f
0a
1_
0b
0:
19!
1b
1:
1`
1c
0^
0:!
0`
0c
0;!
#700000
0!
0L
0M
13
#710000
1!
1L
1M
03
0<!
0!"
0=!
1:!
0f
0:
1;!
09!
0:!
1`
0;!
#720000
0!
0L
0M
13
#730000
1!
1L
1M
03
1""
1a
0_
1:
0`
1^
#740000
0!
0L
0M
13
#750000
1!
1L
1M
03
0""
1!"
1f
0a
1_
0b
0:
19!
1b
1:
1`
1c
0^
1:!
0`
0c
1;!
#760000
0!
0L
0M
13
#770000
1!
1L
1M
03
1<!
0!"
1=!
0:!
0f
0:
0;!
09!
1:!
1`
1;!
1H!
0F!
1I!
0G!
1S
0R
1-
0.
#780000
0!
0L
0M
13
#790000
1!
1L
1M
03
1""
1a
0_
1:
0`
1^
#800000
0!
0L
0M
13
#810000
1!
1L
1M
03
0""
1!"
1f
0a
1_
0b
0:
19!
1b
1:
1`
1c
0^
0:!
0`
0c
0;!
#820000
0!
0L
0M
13
#830000
1!
1L
1M
03
0<!
0!"
0=!
1:!
0f
0:
1;!
09!
0:!
1`
0;!
#840000
0!
0L
0M
13
#850000
1!
1L
1M
03
1""
1a
0_
1:
0`
1^
#860000
0!
0L
0M
13
#870000
1!
1L
1M
03
0""
1!"
1f
0a
1_
0b
0:
19!
1b
1:
1`
1c
0^
1:!
0`
0c
1;!
#880000
0!
0L
0M
13
#890000
1!
1L
1M
03
1<!
0!"
1=!
0:!
0f
0:
0;!
09!
1:!
1`
1;!
1J!
0H!
1K!
0I!
1T
0S
1,
0-
#900000
0!
0L
0M
13
#910000
1!
1L
1M
03
1""
1a
0_
1:
0`
1^
#920000
0!
0L
0M
13
#930000
1!
1L
1M
03
0""
1!"
1f
0a
1_
0b
0:
19!
1b
1:
1`
1c
0^
0:!
0`
0c
0;!
#940000
0!
0L
0M
13
#950000
1!
1L
1M
03
0<!
0!"
0=!
1:!
0f
0:
1;!
09!
0:!
1`
0;!
#960000
0!
0L
0M
13
#970000
1!
1L
1M
03
1""
1a
0_
1:
0`
1^
#980000
0!
0L
0M
13
#990000
1!
1L
1M
03
0""
1!"
1f
0a
1_
0b
0:
19!
1b
1:
1`
1c
0^
1:!
0`
0c
1;!
