数字逻辑全套/实验/210710_43/Experiment2/exp2_project2/tstage_gate/simulation/qsim/tstage_gate.msim.vcd
$comment
	File created using the following command:
		vcd file tstage_gate.msim.vcd -direction
$end
$date
	Thu Oct 27 18:51:42 2022
$end
$version
	ModelSim Version 10.1d
$end
$timescale
	1ps
$end
$scope module tstage_gate_vlg_vec_tst $end
$var reg 4 ! in [3:0] $end
$var reg 1 " w_r $end
$var wire 1 # out [3] $end
$var wire 1 $ out [2] $end
$var wire 1 % out [1] $end
$var wire 1 & out [0] $end
$var wire 1 ' sampler $end
$scope module i1 $end
$var wire 1 ( gnd $end
$var wire 1 ) vcc $end
$var wire 1 * unknown $end
$var tri1 1 + devclrn $end
$var tri1 1 , devpor $end
$var tri1 1 - devoe $end
$var wire 1 . out[0]~output_o $end
$var wire 1 / out[1]~output_o $end
$var wire 1 0 out[2]~output_o $end
$var wire 1 1 out[3]~output_o $end
$var wire 1 2 w_r~input_o $end
$var wire 1 3 in[0]~input_o $end
$var wire 1 4 out~0_combout $end
$var wire 1 5 in[1]~input_o $end
$var wire 1 6 out~1_combout $end
$var wire 1 7 in[2]~input_o $end
$var wire 1 8 out~2_combout $end
$var wire 1 9 in[3]~input_o $end
$var wire 1 : out~3_combout $end
$upscope $end
$upscope $end
$enddefinitions $end
#0
$dumpvars
b0 !
0"
0&
0%
0$
0#
x'
0(
1)
x*
1+
1,
1-
0.
0/
00
01
02
03
04
05
06
07
08
09
0:
$end
#10000
1"
b1 !
12
13
0'
#20000
b11 !
0"
b10 !
03
15
02
1'
16
1/
1%
#30000
1"
b11 !
12
13
0'
06
0/
0%
#40000
b111 !
b101 !
0"
b100 !
03
05
17
02
1'
18
10
1$
#50000
1"
b101 !
12
13
0'
08
00
0$
#60000
b111 !
0"
b110 !
03
15
02
1'
16
18
1/
10
1%
1$
#70000
1"
b111 !
12
13
0'
08
06
00
0/
0$
0%
#80000
b1111 !
b1011 !
b1001 !
0"
b1000 !
03
05
07
19
02
1'
1:
11
1#
#90000
1"
b1001 !
12
13
0'
0:
01
0#
#100000
b1011 !
0"
b1010 !
03
15
02
1'
16
1:
1/
11
1%
1#
#110000
1"
b1011 !
12
13
0'
0:
06
01
0/
0#
0%
#120000
b1111 !
b1101 !
0"
b1100 !
03
05
17
02
1'
18
1:
10
11
1$
1#
#130000
1"
b1101 !
12
13
0'
0:
08
01
00
0#
0$
#140000
b1111 !
0"
b1110 !
03
15
02
1'
16
1:
18
1/
11
10
1%
1#
1$
#150000
1"
b1111 !
12
13
0'
0:
08
06
01
00
0/
0#
0$
0%
#160000
b111 !
b11 !
b1 !
0"
b0 !
03
05
07
09
02
1'
#170000
1"
b1 !
12
13
0'
#180000
b11 !
0"
b10 !
03
15
02
1'
16
1/
1%
#190000
1"
b11 !
12
13
0'
06
0/
0%
#200000
b111 !
b101 !
0"
b100 !
03
05
17
02
1'
18
10
1$
#210000
1"
b101 !
12
13
0'
08
00
0$
#220000
b111 !
0"
b110 !
03
15
02
1'
16
18
1/
10
1%
1$
#230000
1"
b111 !
12
13
0'
08
06
00
0/
0$
0%
#240000
b1111 !
b1011 !
b1001 !
0"
b1000 !
03
05
07
19
02
1'
1:
11
1#
#250000
1"
b1001 !
12
13
0'
0:
01
0#
#260000
b1011 !
0"
b1010 !
03
15
02
1'
16
1:
1/
11
1%
1#
#270000
1"
b1011 !
12
13
0'
0:
06
01
0/
0#
0%
#280000
b1111 !
b1101 !
0"
b1100 !
03
05
17
02
1'
18
1:
10
11
1$
1#
#290000
1"
b1101 !
12
13
0'
0:
08
01
00
0#
0$
#300000
b1111 !
0"
b1110 !
03
15
02
1'
16
1:
18
1/
11
10
1%
1#
1$
#310000
1"
b1111 !
12
13
0'
0:
08
06
01
00
0/
0#
0$
0%
#320000
b111 !
b11 !
b1 !
0"
b0 !
03
05
07
09
02
1'
#330000
1"
b1 !
12
13
0'
#340000
b11 !
0"
b10 !
03
15
02
1'
16
1/
1%
#350000
1"
b11 !
12
13
0'
06
0/
0%
#360000
b111 !
b101 !
0"
b100 !
03
05
17
02
1'
18
10
1$
#370000
1"
b101 !
12
13
0'
08
00
0$
#380000
b111 !
0"
b110 !
03
15
02
1'
16
18
1/
10
1%
1$
#390000
1"
b111 !
12
13
0'
08
06
00
0/
0$
0%
#400000
b1111 !
b1011 !
b1001 !
0"
b1000 !
03
05
07
19
02
1'
1:
11
1#
#410000
1"
b1001 !
12
13
0'
0:
01
0#
#420000
b1011 !
0"
b1010 !
03
15
02
1'
16
1:
1/
11
1%
1#
#430000
1"
b1011 !
12
13
0'
0:
06
01
0/
0#
0%
#440000
b1111 !
b1101 !
0"
b1100 !
03
05
17
02
1'
18
1:
10
11
1$
1#
#450000
1"
b1101 !
12
13
0'
0:
08
01
00
0#
0$
#460000
b1111 !
0"
b1110 !
03
15
02
1'
16
1:
18
1/
11
10
1%
1#
1$
#470000
1"
b1111 !
12
13
0'
0:
08
06
01
00
0/
0#
0$
0%
#480000
b111 !
b11 !
b1 !
0"
b0 !
03
05
07
09
02
1'
#490000
1"
b1 !
12
13
0'
#500000
b11 !
0"
b10 !
03
15
02
1'
16
1/
1%
#510000
1"
b11 !
12
13
0'
06
0/
0%
#520000
b111 !
b101 !
0"
b100 !
03
05
17
02
1'
18
10
1$
#530000
1"
b101 !
12
13
0'
08
00
0$
#540000
b111 !
0"
b110 !
03
15
02
1'
16
18
1/
10
1%
1$
#550000
1"
b111 !
12
13
0'
08
06
00
0/
0$
0%
#560000
b1111 !
b1011 !
b1001 !
0"
b1000 !
03
05
07
19
02
1'
1:
11
1#
#570000
1"
b1001 !
12
13
0'
0:
01
0#
#580000
b1011 !
0"
b1010 !
03
15
02
1'
16
1:
1/
11
1%
1#
#590000
1"
b1011 !
12
13
0'
0:
06
01
0/
0#
0%
#600000
b1111 !
b1101 !
0"
b1100 !
03
05
17
02
1'
18
1:
10
11
1$
1#
#610000
1"
b1101 !
12
13
0'
0:
08
01
00
0#
0$
#620000
b1111 !
0"
b1110 !
03
15
02
1'
16
1:
18
1/
11
10
1%
1#
1$
#630000
1"
b1111 !
12
13
0'
0:
08
06
01
00
0/
0#
0$
0%
#640000
b111 !
b11 !
b1 !
0"
b0 !
03
05
07
09
02
1'
#650000
1"
b1 !
12
13
0'
#660000
b11 !
0"
b10 !
03
15
02
1'
16
1/
1%
#670000
1"
b11 !
12
13
0'
06
0/
0%
#680000
b111 !
b101 !
0"
b100 !
03
05
17
02
1'
18
10
1$
#690000
1"
b101 !
12
13
0'
08
00
0$
#700000
b111 !
0"
b110 !
03
15
02
1'
16
18
1/
10
1%
1$
#710000
1"
b111 !
12
13
0'
08
06
00
0/
0$
0%
#720000
b1111 !
b1011 !
b1001 !
0"
b1000 !
03
05
07
19
02
1'
1:
11
1#
#730000
1"
b1001 !
12
13
0'
0:
01
0#
#740000
b1011 !
0"
b1010 !
03
15
02
1'
16
1:
1/
11
1%
1#
#750000
1"
b1011 !
12
13
0'
0:
06
01
0/
0#
0%
#760000
b1111 !
b1101 !
0"
b1100 !
03
05
17
02
1'
18
1:
10
11
1$
1#
#770000
1"
b1101 !
12
13
0'
0:
08
01
00
0#
0$
#780000
b1111 !
0"
b1110 !
03
15
02
1'
16
1:
18
1/
11
10
1%
1#
1$
#790000
1"
b1111 !
12
13
0'
0:
08
06
01
00
0/
0#
0$
0%
#800000
b111 !
b11 !
b1 !
0"
b0 !
03
05
07
09
02
1'
#810000
1"
b1 !
12
13
0'
#820000
b11 !
0"
b10 !
03
15
02
1'
16
1/
1%
#830000
1"
b11 !
12
13
0'
06
0/
0%
#840000
b111 !
b101 !
0"
b100 !
03
05
17
02
1'
18
10
1$
#850000
1"
b101 !
12
13
0'
08
00
0$
#860000
b111 !
0"
b110 !
03
15
02
1'
16
18
1/
10
1%
1$
#870000
1"
b111 !
12
13
0'
08
06
00
0/
0$
0%
#880000
b1111 !
b1011 !
b1001 !
0"
b1000 !
03
05
07
19
02
1'
1:
11
1#
#890000
1"
b1001 !
12
13
0'
0:
01
0#
#900000
b1011 !
0"
b1010 !
03
15
02
1'
16
1:
1/
11
1%
1#
#910000
1"
b1011 !
12
13
0'
0:
06
01
0/
0#
0%
#920000
b1111 !
b1101 !
0"
b1100 !
03
05
17
02
1'
18
1:
10
11
1$
1#
#930000
1"
b1101 !
12
13
0'
0:
08
01
00
0#
0$
#940000
b1111 !
0"
b1110 !
03
15
02
1'
16
1:
18
1/
11
10
1%
1#
1$
#950000
1"
b1111 !
12
13
0'
0:
08
06
01
00
0/
0#
0$
0%
#960000
b111 !
b11 !
b1 !
0"
b0 !
03
05
07
09
02
1'
#970000
1"
b1 !
12
13
0'
#980000
b11 !
0"
b10 !
03
15
02
1'
16
1/
1%
#990000
1"
b11 !
12
13
0'
06
0/
0%
